VRPTEST 1.0
COMMENT: Converted from c150 by convert2vt
COMMENT: Best known objective: 1164.83
NAME: c150
NUM_DEPOTS: 1
NUM_CAPACITIES: 1
NUM_VISITS: 150
NUM_LOCATIONS: 151
NUM_VEHICLES: 50
CAPACITIES: 200
DATA_SECTION
DEPOTS
  0
DEMAND_SECTION
  1 -10
  2 -7
  3 -13
  4 -19
  5 -26
  6 -3
  7 -5
  8 -9
  9 -16
  10 -16
  11 -12
  12 -19
  13 -23
  14 -20
  15 -8
  16 -19
  17 -2
  18 -12
  19 -17
  20 -9
  21 -11
  22 -18
  23 -29
  24 -3
  25 -6
  26 -17
  27 -16
  28 -16
  29 -9
  30 -21
  31 -27
  32 -23
  33 -11
  34 -14
  35 -8
  36 -5
  37 -8
  38 -16
  39 -31
  40 -9
  41 -5
  42 -5
  43 -7
  44 -18
  45 -16
  46 -1
  47 -27
  48 -36
  49 -30
  50 -13
  51 -10
  52 -9
  53 -14
  54 -18
  55 -2
  56 -6
  57 -7
  58 -18
  59 -28
  60 -3
  61 -13
  62 -19
  63 -10
  64 -9
  65 -20
  66 -25
  67 -25
  68 -36
  69 -6
  70 -5
  71 -15
  72 -25
  73 -9
  74 -8
  75 -18
  76 -13
  77 -14
  78 -3
  79 -23
  80 -6
  81 -26
  82 -16
  83 -11
  84 -7
  85 -41
  86 -35
  87 -26
  88 -9
  89 -15
  90 -3
  91 -1
  92 -2
  93 -22
  94 -27
  95 -20
  96 -11
  97 -12
  98 -10
  99 -9
  100 -17
  101 -7
  102 -30
  103 -16
  104 -9
  105 -21
  106 -15
  107 -19
  108 -23
  109 -11
  110 -5
  111 -19
  112 -29
  113 -23
  114 -21
  115 -10
  116 -15
  117 -3
  118 -41
  119 -9
  120 -28
  121 -8
  122 -8
  123 -16
  124 -10
  125 -28
  126 -7
  127 -15
  128 -14
  129 -6
  130 -19
  131 -11
  132 -12
  133 -23
  134 -26
  135 -17
  136 -6
  137 -9
  138 -15
  139 -14
  140 -7
  141 -27
  142 -13
  143 -11
  144 -16
  145 -10
  146 -5
  147 -25
  148 -17
  149 -18
  150 -10
LOCATION_COORD_SECTION
  0 35 35
  1 41 49
  2 35 17
  3 55 45
  4 55 20
  5 15 30
  6 25 30
  7 20 50
  8 10 43
  9 55 60
  10 30 60
  11 20 65
  12 50 35
  13 30 25
  14 15 10
  15 30 5
  16 10 20
  17 5 30
  18 20 40
  19 15 60
  20 45 65
  21 45 20
  22 45 10
  23 55 5
  24 65 35
  25 65 20
  26 45 30
  27 35 40
  28 41 37
  29 64 42
  30 40 60
  31 31 52
  32 35 69
  33 53 52
  34 65 55
  35 63 65
  36 2 60
  37 20 20
  38 5 5
  39 60 12
  40 40 25
  41 42 7
  42 24 12
  43 23 3
  44 11 14
  45 6 38
  46 2 48
  47 8 56
  48 13 52
  49 6 68
  50 47 47
  51 49 58
  52 27 43
  53 37 31
  54 57 29
  55 63 23
  56 53 12
  57 32 12
  58 36 26
  59 21 24
  60 17 34
  61 12 24
  62 24 58
  63 27 69
  64 15 77
  65 62 77
  66 49 73
  67 67 5
  68 56 39
  69 37 47
  70 37 56
  71 57 68
  72 47 16
  73 44 17
  74 46 13
  75 49 11
  76 49 42
  77 53 43
  78 61 52
  79 57 48
  80 56 37
  81 55 54
  82 15 47
  83 14 37
  84 11 31
  85 16 22
  86 4 18
  87 28 18
  88 26 52
  89 26 35
  90 31 67
  91 15 19
  92 22 22
  93 18 24
  94 26 27
  95 25 24
  96 22 27
  97 25 21
  98 19 21
  99 20 26
  100 18 18
  101 37 52
  102 49 49
  103 52 64
  104 20 26
  105 40 30
  106 21 47
  107 17 63
  108 31 62
  109 52 33
  110 51 21
  111 42 41
  112 31 32
  113 5 25
  114 12 42
  115 36 16
  116 52 41
  117 27 23
  118 17 33
  119 13 13
  120 57 58
  121 62 42
  122 42 57
  123 16 57
  124 8 52
  125 7 38
  126 27 68
  127 30 48
  128 43 67
  129 58 48
  130 58 27
  131 37 69
  132 38 46
  133 46 10
  134 61 33
  135 62 63
  136 63 69
  137 32 22
  138 45 35
  139 59 15
  140 5 6
  141 10 17
  142 21 10
  143 5 64
  144 30 15
  145 39 10
  146 32 39
  147 25 32
  148 25 55
  149 48 28
  150 56 37
DEPOT_LOCATION_SECTION
  0 0
VISIT_LOCATION_SECTION
  1 1
  2 2
  3 3
  4 4
  5 5
  6 6
  7 7
  8 8
  9 9
  10 10
  11 11
  12 12
  13 13
  14 14
  15 15
  16 16
  17 17
  18 18
  19 19
  20 20
  21 21
  22 22
  23 23
  24 24
  25 25
  26 26
  27 27
  28 28
  29 29
  30 30
  31 31
  32 32
  33 33
  34 34
  35 35
  36 36
  37 37
  38 38
  39 39
  40 40
  41 41
  42 42
  43 43
  44 44
  45 45
  46 46
  47 47
  48 48
  49 49
  50 50
  51 51
  52 52
  53 53
  54 54
  55 55
  56 56
  57 57
  58 58
  59 59
  60 60
  61 61
  62 62
  63 63
  64 64
  65 65
  66 66
  67 67
  68 68
  69 69
  70 70
  71 71
  72 72
  73 73
  74 74
  75 75
  76 76
  77 77
  78 78
  79 79
  80 80
  81 81
  82 82
  83 83
  84 84
  85 85
  86 86
  87 87
  88 88
  89 89
  90 90
  91 91
  92 92
  93 93
  94 94
  95 95
  96 96
  97 97
  98 98
  99 99
  100 100
  101 101
  102 102
  103 103
  104 104
  105 105
  106 106
  107 107
  108 108
  109 109
  110 110
  111 111
  112 112
  113 113
  114 114
  115 115
  116 116
  117 117
  118 118
  119 119
  120 120
  121 121
  122 122
  123 123
  124 124
  125 125
  126 126
  127 127
  128 128
  129 129
  130 130
  131 131
  132 132
  133 133
  134 134
  135 135
  136 136
  137 137
  138 138
  139 139
  140 140
  141 141
  142 142
  143 143
  144 144
  145 145
  146 146
  147 147
  148 148
  149 149
  150 150
DURATION_SECTION
  1 10
  2 10
  3 10
  4 10
  5 10
  6 10
  7 10
  8 10
  9 10
  10 10
  11 10
  12 10
  13 10
  14 10
  15 10
  16 10
  17 10
  18 10
  19 10
  20 10
  21 10
  22 10
  23 10
  24 10
  25 10
  26 10
  27 10
  28 10
  29 10
  30 10
  31 10
  32 10
  33 10
  34 10
  35 10
  36 10
  37 10
  38 10
  39 10
  40 10
  41 10
  42 10
  43 10
  44 10
  45 10
  46 10
  47 10
  48 10
  49 10
  50 10
  51 10
  52 10
  53 10
  54 10
  55 10
  56 10
  57 10
  58 10
  59 10
  60 10
  61 10
  62 10
  63 10
  64 10
  65 10
  66 10
  67 10
  68 10
  69 10
  70 10
  71 10
  72 10
  73 10
  74 10
  75 10
  76 10
  77 10
  78 10
  79 10
  80 10
  81 10
  82 10
  83 10
  84 10
  85 10
  86 10
  87 10
  88 10
  89 10
  90 10
  91 10
  92 10
  93 10
  94 10
  95 10
  96 10
  97 10
  98 10
  99 10
  100 10
  101 10
  102 10
  103 10
  104 10
  105 10
  106 10
  107 10
  108 10
  109 10
  110 10
  111 10
  112 10
  113 10
  114 10
  115 10
  116 10
  117 10
  118 10
  119 10
  120 10
  121 10
  122 10
  123 10
  124 10
  125 10
  126 10
  127 10
  128 10
  129 10
  130 10
  131 10
  132 10
  133 10
  134 10
  135 10
  136 10
  137 10
  138 10
  139 10
  140 10
  141 10
  142 10
  143 10
  144 10
  145 10
  146 10
  147 10
  148 10
  149 10
  150 10
DEPOT_TIME_WINDOW_SECTION
  0 0 399
COMMENT: TIMESTEP: 7
TIME_AVAIL_SECTION
  1 3
  2 4
  3 5
  4 7
  5 9
  6 11
  7 15
  8 20
  9 20
  10 22
  11 22
  12 25
  13 30
  14 33
  15 36
  16 41
  17 45
  18 45
  19 52
  20 53
  21 59
  22 61
  23 62
  24 63
  25 65
  26 67
  27 70
  28 71
  29 71
  30 75
  31 76
  32 80
  33 83
  34 83
  35 86
  36 89
  37 92
  38 95
  39 97
  40 99
  41 100
  42 103
  43 108
  44 109
  45 112
  46 117
  47 118
  48 118
  49 119
  50 122
  51 124
  52 127
  53 128
  54 130
  55 141
  56 141
  57 143
  58 150
  59 156
  60 169
  61 170
  62 174
  63 180
  64 180
  65 181
  66 185
  67 190
  68 192
  69 193
  70 197
  71 201
  72 201
  73 202
  74 205
  75 205
  76 210
  77 212
  78 216
  79 230
  80 233
  81 233
  82 234
  83 235
  84 243
  85 247
  86 255
  87 260
  88 261
  89 261
  90 263
  91 263
  92 264
  93 266
  94 273
  95 273
  96 277
  97 277
  98 278
  99 282
  100 282
  101 284
  102 287
  103 287
  104 287
  105 289
  106 293
  107 295
  108 295
  109 297
  110 298
  111 300
  112 300
  113 310
  114 320
  115 321
  116 325
  117 327
  118 329
  119 331
  120 335
  121 339
  122 341
  123 341
  124 343
  125 345
  126 345
  127 345
  128 346
  129 349
  130 350
  131 351
  132 352
  133 354
  134 358
  135 361
  136 362
  137 365
  138 366
  139 366
  140 371
  141 373
  142 373
  143 374
  144 377
  145 381
  146 384
  147 388
  148 390
  149 396
  150 397
EOF
