VRPTEST okul17b
COMMENT: 
COMMENT: Best known objective: 1099.10
NAME: okul17b
NUM_DEPOTS: 1
NUM_CAPACITIES: 1
NUM_VISITS: 17
NUM_LOCATIONS: 18
NUM_VEHICLES: 17
CAPACITIES: 100
DATA_SECTION
DEPOTS
  0
DEMAND_SECTION
  1 -20
  2 -30
  3 -29
  4 -13
  5 -12
  6 -12
  7 -32
  8 -26
  9 -15
  10 -31
  11 -27
  12 -35
  13 -36
  14 -17
  15 -17
  16 -19
  17 -24
LOCATION_COORD_SECTION
  0 0 0
  1 74 -51
  2 -47 -89
  3 -32 -82
  4 -15 92
  5 66 -3
  6 71 -72
  7 -93 16
  8 -76 -37
  9 -99 -5
  10 -68 88
  11 36 1
  12 46 1
  13 -4 39
  14 53 -73
  15 -58 35
  16 74 -94
  17 66 -52
DEPOT_LOCATION_SECTION
  0 0
VISIT_LOCATION_SECTION
  1 1
  2 2
  3 3
  4 4
  5 5
  6 6
  7 7
  8 8
  9 9
  10 10
  11 11
  12 12
  13 13
  14 14
  15 15
  16 16
  17 17
DURATION_SECTION
  1 20
  2 20
  3 20
  4 20
  5 20
  6 20
  7 20
  8 20
  9 20
  10 20
  11 20
  12 20
  13 20
  14 20
  15 20
  16 20
  17 20
DEPOT_TIME_WINDOW_SECTION
  0 0 740
COMMENT: TIMESTEP: 7
TIME_AVAIL_SECTION
  1 635
  2 141
  3 179
  4 699
  5 283
  6 113
  7 280
  8 351
  9 246
  10 345
  11 1
  12 592
  13 514
  14 123
  15 586
  16 643
  17 167
EOF