VRPTEST okul17c
COMMENT: 
COMMENT: Best known objective: 1026.85
NAME: okul17c
NUM_DEPOTS: 1
NUM_CAPACITIES: 1
NUM_VISITS: 17
NUM_LOCATIONS: 18
NUM_VEHICLES: 17
CAPACITIES: 100
DATA_SECTION
DEPOTS
  0
DEMAND_SECTION
  1 -19
  2 -5
  3 -12
  4 -18
  5 -21
  6 -29
  7 -26
  8 -44
  9 -35
  10 -29
  11 -39
  12 -15
  13 -32
  14 -38
  15 -42
  16 -21
  17 -9
LOCATION_COORD_SECTION
  0 0 0
  1 -37 66
  2 -56 88
  3 58 -80
  4 70 91
  5 -37 -41
  6 -40 -82
  7 36 37
  8 -51 16
  9 -6 -81
  10 10 52
  11 62 -7
  12 24 0
  13 28 65
  14 27 23
  15 30 -16
  16 11 38
  17 80 34
DEPOT_LOCATION_SECTION
  0 0
VISIT_LOCATION_SECTION
  1 1
  2 2
  3 3
  4 4
  5 5
  6 6
  7 7
  8 8
  9 9
  10 10
  11 11
  12 12
  13 13
  14 14
  15 15
  16 16
  17 17
DURATION_SECTION
  1 20
  2 20
  3 20
  4 20
  5 20
  6 20
  7 20
  8 20
  9 20
  10 20
  11 20
  12 20
  13 20
  14 20
  15 20
  16 20
  17 20
DEPOT_TIME_WINDOW_SECTION
  0 0 740
COMMENT: TIMESTEP: 7
TIME_AVAIL_SECTION
  1 53
  2 90
  3 247
  4 397
  5 433
  6 303
  7 639
  8 514
  9 631
  10 733
  11 683
  12 120
  13 344
  14 340
  15 675
  16 73
  17 329
EOF