VRPTEST okul17c
COMMENT: 
COMMENT: Best known objective: 1315.93
NAME: okul17c
NUM_DEPOTS: 1
NUM_CAPACITIES: 1
NUM_VISITS: 17
NUM_LOCATIONS: 18
NUM_VEHICLES: 17
CAPACITIES: 100
DATA_SECTION
DEPOTS
  0
DEMAND_SECTION
  1 -30
  2 -35
  3 -18
  4 -38
  5 -30
  6 -7
  7 -23
  8 -32
  9 -35
  10 -27
  11 -21
  12 -22
  13 -22
  14 -16
  15 -46
  16 -21
  17 -36
LOCATION_COORD_SECTION
  0 0 0
  1 -66 -7
  2 -24 59
  3 79 -37
  4 -89 -92
  5 -83 63
  6 -10 -37
  7 -39 16
  8 -86 -60
  9 82 60
  10 -20 -100
  11 -68 11
  12 -29 76
  13 -87 -7
  14 -38 -81
  15 71 -87
  16 -44 -82
  17 -10 70
DEPOT_LOCATION_SECTION
  0 0
VISIT_LOCATION_SECTION
  1 1
  2 2
  3 3
  4 4
  5 5
  6 6
  7 7
  8 8
  9 9
  10 10
  11 11
  12 12
  13 13
  14 14
  15 15
  16 16
  17 17
DURATION_SECTION
  1 20
  2 20
  3 20
  4 20
  5 20
  6 20
  7 20
  8 20
  9 20
  10 20
  11 20
  12 20
  13 20
  14 20
  15 20
  16 20
  17 20
DEPOT_TIME_WINDOW_SECTION
  0 0 740
COMMENT: TIMESTEP: 7
TIME_AVAIL_SECTION
  1 393
  2 558
  3 660
  4 193
  5 431
  6 246
  7 163
  8 724
  9 535
  10 343
  11 558
  12 255
  13 446
  14 159
  15 242
  16 698
  17 618
EOF