VRPTEST okul_100e_normal_pseudoclustered_D.vrp
COMMENT: 
COMMENT: Best known objective: 2147483647
NAME: okul_100e_normal_pseudoclustered_D.vrp
NUM_DEPOTS: 1
NUM_CAPACITIES: 1
NUM_VISITS: 100
NUM_LOCATIONS: 101
NUM_VEHICLES: 50
CAPACITIES: 1000
DATA_SECTION
DEPOTS
  0
DEMAND_SECTION
  1 -133
  2 -85
  3 -149
  4 -139
  5 -157
  6 -111
  7 -155
  8 -95
  9 -111
  10 -186
  11 -144
  12 -152
  13 -77
  14 -117
  15 -138
  16 -135
  17 -150
  18 -114
  19 -130
  20 -69
  21 -141
  22 -133
  23 -133
  24 -156
  25 -118
  26 -96
  27 -152
  28 -107
  29 -112
  30 -154
  31 -135
  32 -162
  33 -88
  34 -115
  35 -112
  36 -115
  37 -158
  38 -139
  39 -81
  40 -107
  41 -123
  42 -118
  43 -95
  44 -196
  45 -86
  46 -128
  47 -154
  48 -113
  49 -113
  50 -121
  51 -139
  52 -113
  53 -99
  54 -137
  55 -147
  56 -112
  57 -135
  58 -107
  59 -112
  60 -128
  61 -94
  62 -129
  63 -136
  64 -103
  65 -110
  66 -104
  67 -134
  68 -177
  69 -126
  70 -140
  71 -117
  72 -126
  73 -77
  74 -122
  75 -159
  76 -109
  77 -114
  78 -106
  79 -121
  80 -141
  81 -111
  82 -160
  83 -136
  84 -119
  85 -120
  86 -79
  87 -117
  88 -102
  89 -185
  90 -121
  91 -166
  92 -153
  93 -101
  94 -169
  95 -140
  96 -121
  97 -132
  98 -141
  99 -113
  100 -130
LOCATION_COORD_SECTION
  0 0 0
  1 100 61
  2 -14 1
  3 -66 -58
  4 -7 -48
  5 -12 29
  6 13 -71
  7 84 97
  8 -98 -20
  9 -39 -80
  10 -98 14
  11 91 74
  12 -12 -84
  13 90 -72
  14 101 65
  15 -10 -2
  16 -64 -58
  17 -6 -50
  18 -10 30
  19 8 -73
  20 89 104
  21 -100 -22
  22 -40 -76
  23 -101 10
  24 96 72
  25 -10 -88
  26 91 -70
  27 97 64
  28 -8 -1
  29 -66 -56
  30 -5 -50
  31 -10 34
  32 15 -71
  33 92 98
  34 -101 -24
  35 -38 -76
  36 -99 14
  37 87 72
  38 -13 -90
  39 92 -72
  40 101 65
  41 -11 -2
  42 -64 -54
  43 -6 -47
  44 -11 29
  45 16 -71
  46 90 95
  47 -101 -20
  48 -39 -74
  49 -92 14
  50 87 72
  51 -10 -90
  52 87 -73
  53 100 63
  54 -10 -1
  55 -68 -55
  56 -2 -49
  57 -10 35
  58 17 -74
  59 89 101
  60 -99 -23
  61 -38 -76
  62 -92 12
  63 88 69
  64 -9 -89
  65 92 -76
  66 99 62
  67 -10 2
  68 -70 -56
  69 1 -48
  70 -10 35
  71 11 -73
  72 88 99
  73 -100 -19
  74 -36 -78
  75 -98 12
  76 89 67
  77 -12 -90
  78 90 -78
  79 100 62
  80 -8 -3
  81 -70 -57
  82 -6 -47
  83 -4 31
  84 16 -67
  85 88 97
  86 -99 -22
  87 -40 -79
  88 -96 15
  89 91 71
  90 -8 -91
  91 89 -75
  92 102 60
  93 -15 0
  94 -66 -54
  95 -5 -50
  96 -5 29
  97 16 -72
  98 86 98
  99 -95 -24
  100 -41 -74
DEPOT_LOCATION_SECTION
  0 0
VISIT_LOCATION_SECTION
  1 1
  2 2
  3 3
  4 4
  5 5
  6 6
  7 7
  8 8
  9 9
  10 10
  11 11
  12 12
  13 13
  14 14
  15 15
  16 16
  17 17
  18 18
  19 19
  20 20
  21 21
  22 22
  23 23
  24 24
  25 25
  26 26
  27 27
  28 28
  29 29
  30 30
  31 31
  32 32
  33 33
  34 34
  35 35
  36 36
  37 37
  38 38
  39 39
  40 40
  41 41
  42 42
  43 43
  44 44
  45 45
  46 46
  47 47
  48 48
  49 49
  50 50
  51 51
  52 52
  53 53
  54 54
  55 55
  56 56
  57 57
  58 58
  59 59
  60 60
  61 61
  62 62
  63 63
  64 64
  65 65
  66 66
  67 67
  68 68
  69 69
  70 70
  71 71
  72 72
  73 73
  74 74
  75 75
  76 76
  77 77
  78 78
  79 79
  80 80
  81 81
  82 82
  83 83
  84 84
  85 85
  86 86
  87 87
  88 88
  89 89
  90 90
  91 91
  92 92
  93 93
  94 94
  95 95
  96 96
  97 97
  98 98
  99 99
  100 100
DURATION_SECTION
  1 10
  2 10
  3 10
  4 10
  5 10
  6 10
  7 10
  8 10
  9 10
  10 10
  11 10
  12 10
  13 10
  14 10
  15 10
  16 10
  17 10
  18 10
  19 10
  20 10
  21 10
  22 10
  23 10
  24 10
  25 10
  26 10
  27 10
  28 10
  29 10
  30 10
  31 10
  32 10
  33 10
  34 10
  35 10
  36 10
  37 10
  38 10
  39 10
  40 10
  41 10
  42 10
  43 10
  44 10
  45 10
  46 10
  47 10
  48 10
  49 10
  50 10
  51 10
  52 10
  53 10
  54 10
  55 10
  56 10
  57 10
  58 10
  59 10
  60 10
  61 10
  62 10
  63 10
  64 10
  65 10
  66 10
  67 10
  68 10
  69 10
  70 10
  71 10
  72 10
  73 10
  74 10
  75 10
  76 10
  77 10
  78 10
  79 10
  80 10
  81 10
  82 10
  83 10
  84 10
  85 10
  86 10
  87 10
  88 10
  89 10
  90 10
  91 10
  92 10
  93 10
  94 10
  95 10
  96 10
  97 10
  98 10
  99 10
  100 10
DEPOT_TIME_WINDOW_SECTION
  0 0 979
COMMENT: TIMESTEP: 7
TIME_AVAIL_SECTION
  1 202
  2 881
  3 105
  4 597
  5 109
  6 242
  7 103
  8 237
  9 114
  10 699
  11 653
  12 712
  13 471
  14 177
  15 906
  16 789
  17 327
  18 771
  19 399
  20 932
  21 567
  22 736
  23 364
  24 201
  25 617
  26 911
  27 200
  28 228
  29 895
  30 679
  31 510
  32 86
  33 475
  34 894
  35 947
  36 757
  37 59
  38 134
  39 615
  40 836
  41 8
  42 917
  43 244
  44 832
  45 670
  46 689
  47 262
  48 477
  49 52
  50 358
  51 64
  52 668
  53 846
  54 581
  55 17
  56 939
  57 631
  58 476
  59 460
  60 742
  61 910
  62 21
  63 252
  64 336
  65 359
  66 811
  67 392
  68 418
  69 32
  70 49
  71 72
  72 578
  73 971
  74 814
  75 848
  76 922
  77 590
  78 458
  79 227
  80 214
  81 540
  82 294
  83 317
  84 978
  85 865
  86 281
  87 92
  88 147
  89 412
  90 633
  91 306
  92 228
  93 329
  94 590
  95 584
  96 948
  97 285
  98 837
  99 317
  100 735
EOF