VRPTEST okul_100i_skewed_pseudoclustered_D.vrp
COMMENT: 
COMMENT: Best known objective: 2147483647
NAME: okul_100i_skewed_pseudoclustered_D.vrp
NUM_DEPOTS: 1
NUM_CAPACITIES: 1
NUM_VISITS: 100
NUM_LOCATIONS: 101
NUM_VEHICLES: 50
CAPACITIES: 1000
DATA_SECTION
DEPOTS
  0
DEMAND_SECTION
  1 -103
  2 -24
  3 -174
  4 -29
  5 -106
  6 -116
  7 -207
  8 -258
  9 -59
  10 -82
  11 -7
  12 -134
  13 -128
  14 -11
  15 -92
  16 -160
  17 -88
  18 -4
  19 -392
  20 -3
  21 -36
  22 -20
  23 -262
  24 -11
  25 -48
  26 -24
  27 -100
  28 -45
  29 -53
  30 -65
  31 -132
  32 -36
  33 -227
  34 -60
  35 -61
  36 -221
  37 -16
  38 -152
  39 -37
  40 -104
  41 -19
  42 -38
  43 -263
  44 -209
  45 -39
  46 -79
  47 -393
  48 -50
  49 -27
  50 -79
  51 -36
  52 -37
  53 -1
  54 -222
  55 -63
  56 -2
  57 -12
  58 -104
  59 -36
  60 -28
  61 -6
  62 -214
  63 -56
  64 -97
  65 -220
  66 -100
  67 -59
  68 -86
  69 -182
  70 -36
  71 -152
  72 -71
  73 -38
  74 -114
  75 -40
  76 -9
  77 -62
  78 -8
  79 -153
  80 -4
  81 -44
  82 -74
  83 -1
  84 -71
  85 -26
  86 -42
  87 -8
  88 -10
  89 -1
  90 -32
  91 -81
  92 -240
  93 -37
  94 -26
  95 -359
  96 -72
  97 -200
  98 -65
  99 -62
  100 -147
LOCATION_COORD_SECTION
  0 0 0
  1 -88 -54
  2 -7 32
  3 92 -70
  4 102 101
  5 -7 67
  6 -42 -47
  7 -13 -68
  8 -13 -86
  9 46 -23
  10 -92 -54
  11 -4 29
  12 85 -59
  13 106 94
  14 4 73
  15 -38 -43
  16 -11 -62
  17 3 -84
  18 40 -32
  19 -87 -58
  20 -7 34
  21 89 -63
  22 102 95
  23 -3 73
  24 -37 -50
  25 -16 -62
  26 -5 -88
  27 50 -23
  28 -88 -60
  29 -2 24
  30 87 -66
  31 103 92
  32 -7 77
  33 -46 -48
  34 -16 -70
  35 3 -84
  36 36 -33
  37 -99 -60
  38 -5 27
  39 80 -73
  40 100 103
  41 -8 74
  42 -46 -55
  43 -13 -62
  44 -5 -86
  45 54 -22
  46 -95 -61
  47 -1 38
  48 84 -64
  49 105 101
  50 -7 62
  51 -46 -50
  52 -12 -64
  53 7 -79
  54 48 -29
  55 -94 -56
  56 1 30
  57 78 -69
  58 102 96
  59 -1 67
  60 -41 -48
  61 -13 -62
  62 -2 -85
  63 38 -28
  64 -80 -50
  65 -6 29
  66 83 -70
  67 101 93
  68 0 79
  69 -41 -46
  70 -12 -66
  71 -2 -89
  72 45 -22
  73 -90 -53
  74 -12 28
  75 90 -71
  76 91 102
  77 3 73
  78 -40 -46
  79 -12 -66
  80 -9 -92
  81 48 -25
  82 -87 -57
  83 0 39
  84 92 -71
  85 100 102
  86 1 78
  87 -43 -47
  88 -13 -61
  89 0 -86
  90 44 -25
  91 -105 -57
  92 -5 24
  93 90 -71
  94 99 98
  95 -9 79
  96 -41 -52
  97 -18 -57
  98 -3 -88
  99 44 -30
  100 -95 -57
DEPOT_LOCATION_SECTION
  0 0
VISIT_LOCATION_SECTION
  1 1
  2 2
  3 3
  4 4
  5 5
  6 6
  7 7
  8 8
  9 9
  10 10
  11 11
  12 12
  13 13
  14 14
  15 15
  16 16
  17 17
  18 18
  19 19
  20 20
  21 21
  22 22
  23 23
  24 24
  25 25
  26 26
  27 27
  28 28
  29 29
  30 30
  31 31
  32 32
  33 33
  34 34
  35 35
  36 36
  37 37
  38 38
  39 39
  40 40
  41 41
  42 42
  43 43
  44 44
  45 45
  46 46
  47 47
  48 48
  49 49
  50 50
  51 51
  52 52
  53 53
  54 54
  55 55
  56 56
  57 57
  58 58
  59 59
  60 60
  61 61
  62 62
  63 63
  64 64
  65 65
  66 66
  67 67
  68 68
  69 69
  70 70
  71 71
  72 72
  73 73
  74 74
  75 75
  76 76
  77 77
  78 78
  79 79
  80 80
  81 81
  82 82
  83 83
  84 84
  85 85
  86 86
  87 87
  88 88
  89 89
  90 90
  91 91
  92 92
  93 93
  94 94
  95 95
  96 96
  97 97
  98 98
  99 99
  100 100
DURATION_SECTION
  1 10
  2 10
  3 10
  4 10
  5 10
  6 10
  7 10
  8 10
  9 10
  10 10
  11 10
  12 10
  13 10
  14 10
  15 10
  16 10
  17 10
  18 10
  19 10
  20 10
  21 10
  22 10
  23 10
  24 10
  25 10
  26 10
  27 10
  28 10
  29 10
  30 10
  31 10
  32 10
  33 10
  34 10
  35 10
  36 10
  37 10
  38 10
  39 10
  40 10
  41 10
  42 10
  43 10
  44 10
  45 10
  46 10
  47 10
  48 10
  49 10
  50 10
  51 10
  52 10
  53 10
  54 10
  55 10
  56 10
  57 10
  58 10
  59 10
  60 10
  61 10
  62 10
  63 10
  64 10
  65 10
  66 10
  67 10
  68 10
  69 10
  70 10
  71 10
  72 10
  73 10
  74 10
  75 10
  76 10
  77 10
  78 10
  79 10
  80 10
  81 10
  82 10
  83 10
  84 10
  85 10
  86 10
  87 10
  88 10
  89 10
  90 10
  91 10
  92 10
  93 10
  94 10
  95 10
  96 10
  97 10
  98 10
  99 10
  100 10
DEPOT_TIME_WINDOW_SECTION
  0 0 939
COMMENT: TIMESTEP: 7
TIME_AVAIL_SECTION
  1 582
  2 708
  3 719
  4 453
  5 232
  6 473
  7 700
  8 918
  9 899
  10 380
  11 588
  12 775
  13 674
  14 172
  15 74
  16 45
  17 150
  18 531
  19 883
  20 104
  21 545
  22 348
  23 328
  24 337
  25 771
  26 393
  27 331
  28 258
  29 725
  30 879
  31 111
  32 199
  33 572
  34 272
  35 339
  36 638
  37 787
  38 27
  39 371
  40 259
  41 643
  42 897
  43 731
  44 513
  45 776
  46 806
  47 137
  48 878
  49 793
  50 252
  51 98
  52 427
  53 330
  54 422
  55 547
  56 215
  57 423
  58 557
  59 925
  60 234
  61 500
  62 872
  63 923
  64 107
  65 798
  66 828
  67 396
  68 310
  69 140
  70 876
  71 420
  72 283
  73 263
  74 204
  75 172
  76 565
  77 198
  78 862
  79 851
  80 150
  81 799
  82 70
  83 668
  84 759
  85 86
  86 532
  87 25
  88 239
  89 478
  90 131
  91 263
  92 808
  93 386
  94 362
  95 831
  96 844
  97 82
  98 169
  99 462
  100 94
EOF