VRPTEST okul_100b_normal_uniform_D.vrp
COMMENT: 
COMMENT: Best known objective: 3200.35
NAME: okul_100b_normal_uniform_D.vrp
NUM_DEPOTS: 1
NUM_CAPACITIES: 1
NUM_VISITS: 100
NUM_LOCATIONS: 101
NUM_VEHICLES: 50
CAPACITIES: 1000
DATA_SECTION
DEPOTS
  0
DEMAND_SECTION
  1 -133
  2 -88
  3 -174
  4 -117
  5 -131
  6 -138
  7 -93
  8 -90
  9 -123
  10 -143
  11 -127
  12 -148
  13 -136
  14 -142
  15 -79
  16 -147
  17 -100
  18 -110
  19 -122
  20 -122
  21 -111
  22 -102
  23 -107
  24 -166
  25 -84
  26 -118
  27 -43
  28 -104
  29 -109
  30 -176
  31 -94
  32 -97
  33 -79
  34 -131
  35 -162
  36 -86
  37 -112
  38 -170
  39 -103
  40 -147
  41 -137
  42 -165
  43 -150
  44 -110
  45 -96
  46 -113
  47 -151
  48 -107
  49 -120
  50 -150
  51 -87
  52 -117
  53 -85
  54 -129
  55 -121
  56 -124
  57 -105
  58 -102
  59 -153
  60 -128
  61 -119
  62 -83
  63 -149
  64 -112
  65 -86
  66 -111
  67 -113
  68 -109
  69 -141
  70 -157
  71 -166
  72 -115
  73 -152
  74 -93
  75 -121
  76 -198
  77 -125
  78 -115
  79 -106
  80 -150
  81 -138
  82 -117
  83 -100
  84 -162
  85 -112
  86 -92
  87 -165
  88 -65
  89 -115
  90 -125
  91 -111
  92 -71
  93 -105
  94 -74
  95 -147
  96 -154
  97 -119
  98 -118
  99 -148
  100 -171
LOCATION_COORD_SECTION
  0 0 0
  1 -33 -40
  2 -6 -60
  3 -65 82
  4 -30 -93
  5 -65 19
  6 31 -70
  7 -53 16
  8 79 -9
  9 -32 -1
  10 85 5
  11 0 -23
  12 14 86
  13 47 -13
  14 -57 -51
  15 -39 75
  16 73 -63
  17 -61 -82
  18 70 -52
  19 89 72
  20 -45 67
  21 68 -27
  22 -71 -62
  23 51 54
  24 -11 -12
  25 91 -5
  26 27 96
  27 -67 -82
  28 -19 -81
  29 96 27
  30 -71 -60
  31 78 -48
  32 -61 -36
  33 24 74
  34 59 -90
  35 47 -59
  36 50 14
  37 5 -93
  38 26 -96
  39 -9 -61
  40 -49 -32
  41 -89 -43
  42 -13 -63
  43 54 -59
  44 -74 -54
  45 97 -19
  46 63 73
  47 96 -45
  48 -93 51
  49 13 -32
  50 -20 92
  51 -9 26
  52 -19 69
  53 14 -76
  54 -48 11
  55 75 55
  56 99 -48
  57 86 0
  58 97 17
  59 32 -3
  60 -40 22
  61 73 -96
  62 34 -23
  63 -2 -24
  64 26 -87
  65 38 -42
  66 34 53
  67 76 60
  68 38 -59
  69 100 84
  70 -50 -80
  71 -4 78
  72 -97 3
  73 -50 -73
  74 -35 -32
  75 34 -57
  76 50 66
  77 -32 -7
  78 -44 -33
  79 47 -71
  80 25 74
  81 27 -89
  82 -57 23
  83 81 57
  84 17 16
  85 -66 5
  86 37 -18
  87 -77 46
  88 6 77
  89 88 -77
  90 -70 -35
  91 18 -27
  92 76 -49
  93 -64 -76
  94 -6 17
  95 -72 -59
  96 -80 16
  97 -42 18
  98 -51 95
  99 45 -58
  100 7 -51
DEPOT_LOCATION_SECTION
  0 0
VISIT_LOCATION_SECTION
  1 1
  2 2
  3 3
  4 4
  5 5
  6 6
  7 7
  8 8
  9 9
  10 10
  11 11
  12 12
  13 13
  14 14
  15 15
  16 16
  17 17
  18 18
  19 19
  20 20
  21 21
  22 22
  23 23
  24 24
  25 25
  26 26
  27 27
  28 28
  29 29
  30 30
  31 31
  32 32
  33 33
  34 34
  35 35
  36 36
  37 37
  38 38
  39 39
  40 40
  41 41
  42 42
  43 43
  44 44
  45 45
  46 46
  47 47
  48 48
  49 49
  50 50
  51 51
  52 52
  53 53
  54 54
  55 55
  56 56
  57 57
  58 58
  59 59
  60 60
  61 61
  62 62
  63 63
  64 64
  65 65
  66 66
  67 67
  68 68
  69 69
  70 70
  71 71
  72 72
  73 73
  74 74
  75 75
  76 76
  77 77
  78 78
  79 79
  80 80
  81 81
  82 82
  83 83
  84 84
  85 85
  86 86
  87 87
  88 88
  89 89
  90 90
  91 91
  92 92
  93 93
  94 94
  95 95
  96 96
  97 97
  98 98
  99 99
  100 100
DURATION_SECTION
  1 10
  2 10
  3 10
  4 10
  5 10
  6 10
  7 10
  8 10
  9 10
  10 10
  11 10
  12 10
  13 10
  14 10
  15 10
  16 10
  17 10
  18 10
  19 10
  20 10
  21 10
  22 10
  23 10
  24 10
  25 10
  26 10
  27 10
  28 10
  29 10
  30 10
  31 10
  32 10
  33 10
  34 10
  35 10
  36 10
  37 10
  38 10
  39 10
  40 10
  41 10
  42 10
  43 10
  44 10
  45 10
  46 10
  47 10
  48 10
  49 10
  50 10
  51 10
  52 10
  53 10
  54 10
  55 10
  56 10
  57 10
  58 10
  59 10
  60 10
  61 10
  62 10
  63 10
  64 10
  65 10
  66 10
  67 10
  68 10
  69 10
  70 10
  71 10
  72 10
  73 10
  74 10
  75 10
  76 10
  77 10
  78 10
  79 10
  80 10
  81 10
  82 10
  83 10
  84 10
  85 10
  86 10
  87 10
  88 10
  89 10
  90 10
  91 10
  92 10
  93 10
  94 10
  95 10
  96 10
  97 10
  98 10
  99 10
  100 10
DEPOT_TIME_WINDOW_SECTION
  0 0 979
COMMENT: TIMESTEP: 7
TIME_AVAIL_SECTION
  1 55
  2 721
  3 885
  4 687
  5 566
  6 554
  7 359
  8 545
  9 878
  10 267
  11 809
  12 662
  13 880
  14 290
  15 377
  16 886
  17 765
  18 531
  19 603
  20 906
  21 296
  22 356
  23 940
  24 411
  25 552
  26 784
  27 468
  28 853
  29 687
  30 126
  31 638
  32 783
  33 235
  34 846
  35 469
  36 323
  37 975
  38 744
  39 461
  40 252
  41 375
  42 292
  43 752
  44 421
  45 642
  46 238
  47 289
  48 910
  49 137
  50 472
  51 785
  52 328
  53 536
  54 50
  55 671
  56 515
  57 377
  58 213
  59 48
  60 331
  61 516
  62 353
  63 971
  64 45
  65 70
  66 662
  67 159
  68 568
  69 89
  70 642
  71 350
  72 229
  73 897
  74 30
  75 430
  76 953
  77 391
  78 900
  79 97
  80 314
  81 515
  82 72
  83 832
  84 414
  85 967
  86 469
  87 887
  88 18
  89 188
  90 376
  91 301
  92 517
  93 713
  94 934
  95 486
  96 129
  97 596
  98 971
  99 93
  100 876
EOF