VRPTEST okul13b
COMMENT: 
COMMENT: Best known objective: 1109.37
NAME: okul13b
NUM_DEPOTS: 1
NUM_CAPACITIES: 1
NUM_VISITS: 13
NUM_LOCATIONS: 14
NUM_VEHICLES: 13
CAPACITIES: 100
DATA_SECTION
DEPOTS
  0
DEMAND_SECTION
  1 -35
  2 -44
  3 -35
  4 -29
  5 -25
  6 -34
  7 -33
  8 -36
  9 -34
  10 -41
  11 -31
  12 -31
  13 -39
LOCATION_COORD_SECTION
  0 0 0
  1 23 47
  2 -1 -89
  3 -37 -86
  4 32 32
  5 12 65
  6 82 -99
  7 81 -25
  8 30 -93
  9 6 40
  10 29 21
  11 74 -5
  12 -74 -57
  13 68 -12
DEPOT_LOCATION_SECTION
  0 0
VISIT_LOCATION_SECTION
  1 1
  2 2
  3 3
  4 4
  5 5
  6 6
  7 7
  8 8
  9 9
  10 10
  11 11
  12 12
  13 13
DURATION_SECTION
  1 20
  2 20
  3 20
  4 20
  5 20
  6 20
  7 20
  8 20
  9 20
  10 20
  11 20
  12 20
  13 20
DEPOT_TIME_WINDOW_SECTION
  0 0 660
COMMENT: TIMESTEP: 7
TIME_AVAIL_SECTION
  1 53
  2 244
  3 645
  4 291
  5 437
  6 65
  7 244
  8 521
  9 281
  10 82
  11 234
  12 121
  13 135
EOF