VRPTEST okul_100p_normal_reallyclustered_D.vrp
COMMENT: 
COMMENT: Best known objective: 2147483647
NAME: okul_100p_normal_reallyclustered_D.vrp
NUM_DEPOTS: 1
NUM_CAPACITIES: 1
NUM_VISITS: 100
NUM_LOCATIONS: 101
NUM_VEHICLES: 50
CAPACITIES: 1000
DATA_SECTION
DEPOTS
  0
DEMAND_SECTION
  1 -141
  2 -88
  3 -124
  4 -137
  5 -156
  6 -194
  7 -98
  8 -134
  9 -145
  10 -125
  11 -161
  12 -89
  13 -159
  14 -125
  15 -113
  16 -135
  17 -113
  18 -116
  19 -174
  20 -99
  21 -153
  22 -118
  23 -137
  24 -154
  25 -94
  26 -116
  27 -94
  28 -117
  29 -141
  30 -106
  31 -137
  32 -151
  33 -123
  34 -197
  35 -100
  36 -101
  37 -102
  38 -68
  39 -100
  40 -115
  41 -100
  42 -81
  43 -129
  44 -112
  45 -151
  46 -130
  47 -136
  48 -87
  49 -112
  50 -134
  51 -151
  52 -114
  53 -148
  54 -71
  55 -147
  56 -87
  57 -173
  58 -152
  59 -68
  60 -157
  61 -95
  62 -132
  63 -114
  64 -136
  65 -115
  66 -158
  67 -133
  68 -165
  69 -112
  70 -113
  71 -110
  72 -111
  73 -129
  74 -147
  75 -123
  76 -154
  77 -120
  78 -120
  79 -157
  80 -158
  81 -114
  82 -162
  83 -87
  84 -157
  85 -111
  86 -76
  87 -118
  88 -99
  89 -166
  90 -164
  91 -82
  92 -115
  93 -122
  94 -145
  95 -149
  96 -128
  97 -167
  98 -132
  99 -125
  100 -102
LOCATION_COORD_SECTION
  0 0 0
  1 29 71
  2 32 65
  3 34 71
  4 30 68
  5 32 67
  6 34 70
  7 35 69
  8 -93 -74
  9 -89 -78
  10 -95 -77
  11 -90 -79
  12 -92 -78
  13 -93 -78
  14 -94 -77
  15 65 -6
  16 68 -6
  17 67 -6
  18 65 -2
  19 71 -3
  20 68 -4
  21 65 -1
  22 11 -78
  23 12 -74
  24 10 -78
  25 15 -77
  26 7 -82
  27 11 -75
  28 15 -77
  29 12 -73
  30 -62 84
  31 -68 83
  32 -67 83
  33 -70 81
  34 -66 85
  35 -65 81
  36 -67 83
  37 65 -63
  38 60 -65
  39 63 -69
  40 64 -65
  41 58 -65
  42 59 -63
  43 59 -67
  44 61 -66
  45 55 -67
  46 -93 57
  47 -92 55
  48 -90 55
  49 -89 57
  50 -87 59
  51 -87 54
  52 -87 60
  53 28 -63
  54 33 -62
  55 32 -66
  56 31 -61
  57 36 -61
  58 33 -67
  59 31 -63
  60 -49 -68
  61 -48 -70
  62 -46 -74
  63 -51 -74
  64 -49 -67
  65 -47 -70
  66 -47 -64
  67 51 98
  68 55 97
  69 56 101
  70 53 98
  71 55 95
  72 54 99
  73 53 96
  74 -57 -48
  75 -59 -47
  76 -60 -47
  77 -63 -50
  78 -61 -44
  79 -55 -51
  80 -57 -47
  81 74 8
  82 77 6
  83 79 8
  84 79 9
  85 81 9
  86 78 11
  87 76 7
  88 82 11
  89 -92 61
  90 -96 62
  91 -97 60
  92 -92 62
  93 -98 64
  94 -97 62
  95 -95 59
  96 32 27
  97 35 25
  98 33 26
  99 32 23
  100 31 27
DEPOT_LOCATION_SECTION
  0 0
VISIT_LOCATION_SECTION
  1 1
  2 2
  3 3
  4 4
  5 5
  6 6
  7 7
  8 8
  9 9
  10 10
  11 11
  12 12
  13 13
  14 14
  15 15
  16 16
  17 17
  18 18
  19 19
  20 20
  21 21
  22 22
  23 23
  24 24
  25 25
  26 26
  27 27
  28 28
  29 29
  30 30
  31 31
  32 32
  33 33
  34 34
  35 35
  36 36
  37 37
  38 38
  39 39
  40 40
  41 41
  42 42
  43 43
  44 44
  45 45
  46 46
  47 47
  48 48
  49 49
  50 50
  51 51
  52 52
  53 53
  54 54
  55 55
  56 56
  57 57
  58 58
  59 59
  60 60
  61 61
  62 62
  63 63
  64 64
  65 65
  66 66
  67 67
  68 68
  69 69
  70 70
  71 71
  72 72
  73 73
  74 74
  75 75
  76 76
  77 77
  78 78
  79 79
  80 80
  81 81
  82 82
  83 83
  84 84
  85 85
  86 86
  87 87
  88 88
  89 89
  90 90
  91 91
  92 92
  93 93
  94 94
  95 95
  96 96
  97 97
  98 98
  99 99
  100 100
DURATION_SECTION
  1 10
  2 10
  3 10
  4 10
  5 10
  6 10
  7 10
  8 10
  9 10
  10 10
  11 10
  12 10
  13 10
  14 10
  15 10
  16 10
  17 10
  18 10
  19 10
  20 10
  21 10
  22 10
  23 10
  24 10
  25 10
  26 10
  27 10
  28 10
  29 10
  30 10
  31 10
  32 10
  33 10
  34 10
  35 10
  36 10
  37 10
  38 10
  39 10
  40 10
  41 10
  42 10
  43 10
  44 10
  45 10
  46 10
  47 10
  48 10
  49 10
  50 10
  51 10
  52 10
  53 10
  54 10
  55 10
  56 10
  57 10
  58 10
  59 10
  60 10
  61 10
  62 10
  63 10
  64 10
  65 10
  66 10
  67 10
  68 10
  69 10
  70 10
  71 10
  72 10
  73 10
  74 10
  75 10
  76 10
  77 10
  78 10
  79 10
  80 10
  81 10
  82 10
  83 10
  84 10
  85 10
  86 10
  87 10
  88 10
  89 10
  90 10
  91 10
  92 10
  93 10
  94 10
  95 10
  96 10
  97 10
  98 10
  99 10
  100 10
DEPOT_TIME_WINDOW_SECTION
  0 0 979
COMMENT: TIMESTEP: 7
TIME_AVAIL_SECTION
  1 676
  2 844
  3 250
  4 105
  5 820
  6 888
  7 621
  8 763
  9 562
  10 286
  11 191
  12 526
  13 493
  14 101
  15 593
  16 229
  17 339
  18 633
  19 571
  20 559
  21 787
  22 855
  23 237
  24 775
  25 32
  26 940
  27 454
  28 899
  29 434
  30 896
  31 111
  32 147
  33 136
  34 681
  35 303
  36 685
  37 354
  38 101
  39 164
  40 423
  41 420
  42 731
  43 522
  44 496
  45 453
  46 688
  47 976
  48 568
  49 274
  50 91
  51 656
  52 452
  53 74
  54 641
  55 303
  56 797
  57 870
  58 350
  59 2
  60 154
  61 19
  62 643
  63 576
  64 46
  65 98
  66 841
  67 788
  68 174
  69 594
  70 788
  71 892
  72 919
  73 818
  74 502
  75 704
  76 429
  77 258
  78 449
  79 394
  80 419
  81 499
  82 845
  83 285
  84 491
  85 466
  86 434
  87 776
  88 90
  89 382
  90 337
  91 77
  92 466
  93 435
  94 719
  95 430
  96 920
  97 368
  98 582
  99 584
  100 424
EOF