VRPTEST okul_100l_normal_uniform_D.vrp
COMMENT: 
COMMENT: Best known objective: 2147483647
NAME: okul_100l_normal_uniform_D.vrp
NUM_DEPOTS: 1
NUM_CAPACITIES: 1
NUM_VISITS: 100
NUM_LOCATIONS: 101
NUM_VEHICLES: 50
CAPACITIES: 1000
DATA_SECTION
DEPOTS
  0
DEMAND_SECTION
  1 -79
  2 -147
  3 -140
  4 -141
  5 -113
  6 -59
  7 -91
  8 -144
  9 -148
  10 -140
  11 -132
  12 -100
  13 -114
  14 -150
  15 -101
  16 -102
  17 -66
  18 -128
  19 -141
  20 -113
  21 -159
  22 -151
  23 -122
  24 -115
  25 -147
  26 -120
  27 -87
  28 -59
  29 -146
  30 -127
  31 -138
  32 -120
  33 -173
  34 -134
  35 -154
  36 -158
  37 -142
  38 -124
  39 -137
  40 -119
  41 -100
  42 -159
  43 -151
  44 -137
  45 -139
  46 -167
  47 -153
  48 -154
  49 -110
  50 -137
  51 -110
  52 -97
  53 -121
  54 -135
  55 -172
  56 -130
  57 -110
  58 -120
  59 -119
  60 -126
  61 -161
  62 -107
  63 -110
  64 -125
  65 -141
  66 -153
  67 -137
  68 -137
  69 -115
  70 -122
  71 -129
  72 -161
  73 -128
  74 -140
  75 -143
  76 -168
  77 -136
  78 -129
  79 -130
  80 -107
  81 -103
  82 -126
  83 -160
  84 -117
  85 -130
  86 -64
  87 -74
  88 -166
  89 -122
  90 -104
  91 -110
  92 -110
  93 -111
  94 -146
  95 -116
  96 -155
  97 -155
  98 -100
  99 -99
  100 -157
LOCATION_COORD_SECTION
  0 0 0
  1 -44 7
  2 68 1
  3 39 -25
  4 -76 -4
  5 -86 -60
  6 29 19
  7 -2 -96
  8 -39 -81
  9 -97 87
  10 -33 26
  11 -89 -16
  12 -14 -77
  13 53 48
  14 33 -12
  15 54 -100
  16 42 80
  17 99 82
  18 -66 -59
  19 7 -78
  20 64 -19
  21 68 24
  22 45 -75
  23 -71 -36
  24 82 -93
  25 28 -13
  26 -7 40
  27 -55 3
  28 26 15
  29 26 61
  30 12 48
  31 12 47
  32 -68 9
  33 -49 36
  34 -45 -38
  35 -14 76
  36 -39 -37
  37 -93 -48
  38 47 -65
  39 -82 51
  40 90 93
  41 -80 2
  42 11 68
  43 -27 88
  44 -47 63
  45 57 55
  46 -69 -26
  47 24 31
  48 -9 -29
  49 32 45
  50 32 15
  51 50 -50
  52 29 -15
  53 31 -55
  54 -76 -87
  55 -47 21
  56 75 -14
  57 -99 -95
  58 49 31
  59 -19 38
  60 -94 -62
  61 73 -75
  62 19 46
  63 3 -62
  64 48 -37
  65 -71 -7
  66 44 -90
  67 -51 93
  68 -58 -91
  69 55 45
  70 -50 -45
  71 86 93
  72 14 -51
  73 -66 85
  74 -31 50
  75 35 -19
  76 30 -13
  77 -37 -38
  78 -18 -13
  79 -10 -81
  80 -50 -17
  81 22 -27
  82 8 49
  83 67 81
  84 -42 16
  85 61 -96
  86 30 -51
  87 18 35
  88 45 1
  89 74 60
  90 97 -92
  91 -66 -43
  92 48 17
  93 5 11
  94 58 95
  95 13 71
  96 -21 -30
  97 26 63
  98 -31 -23
  99 -59 2
  100 -18 -3
DEPOT_LOCATION_SECTION
  0 0
VISIT_LOCATION_SECTION
  1 1
  2 2
  3 3
  4 4
  5 5
  6 6
  7 7
  8 8
  9 9
  10 10
  11 11
  12 12
  13 13
  14 14
  15 15
  16 16
  17 17
  18 18
  19 19
  20 20
  21 21
  22 22
  23 23
  24 24
  25 25
  26 26
  27 27
  28 28
  29 29
  30 30
  31 31
  32 32
  33 33
  34 34
  35 35
  36 36
  37 37
  38 38
  39 39
  40 40
  41 41
  42 42
  43 43
  44 44
  45 45
  46 46
  47 47
  48 48
  49 49
  50 50
  51 51
  52 52
  53 53
  54 54
  55 55
  56 56
  57 57
  58 58
  59 59
  60 60
  61 61
  62 62
  63 63
  64 64
  65 65
  66 66
  67 67
  68 68
  69 69
  70 70
  71 71
  72 72
  73 73
  74 74
  75 75
  76 76
  77 77
  78 78
  79 79
  80 80
  81 81
  82 82
  83 83
  84 84
  85 85
  86 86
  87 87
  88 88
  89 89
  90 90
  91 91
  92 92
  93 93
  94 94
  95 95
  96 96
  97 97
  98 98
  99 99
  100 100
DURATION_SECTION
  1 10
  2 10
  3 10
  4 10
  5 10
  6 10
  7 10
  8 10
  9 10
  10 10
  11 10
  12 10
  13 10
  14 10
  15 10
  16 10
  17 10
  18 10
  19 10
  20 10
  21 10
  22 10
  23 10
  24 10
  25 10
  26 10
  27 10
  28 10
  29 10
  30 10
  31 10
  32 10
  33 10
  34 10
  35 10
  36 10
  37 10
  38 10
  39 10
  40 10
  41 10
  42 10
  43 10
  44 10
  45 10
  46 10
  47 10
  48 10
  49 10
  50 10
  51 10
  52 10
  53 10
  54 10
  55 10
  56 10
  57 10
  58 10
  59 10
  60 10
  61 10
  62 10
  63 10
  64 10
  65 10
  66 10
  67 10
  68 10
  69 10
  70 10
  71 10
  72 10
  73 10
  74 10
  75 10
  76 10
  77 10
  78 10
  79 10
  80 10
  81 10
  82 10
  83 10
  84 10
  85 10
  86 10
  87 10
  88 10
  89 10
  90 10
  91 10
  92 10
  93 10
  94 10
  95 10
  96 10
  97 10
  98 10
  99 10
  100 10
DEPOT_TIME_WINDOW_SECTION
  0 0 979
COMMENT: TIMESTEP: 7
TIME_AVAIL_SECTION
  1 963
  2 634
  3 112
  4 213
  5 853
  6 813
  7 524
  8 142
  9 121
  10 172
  11 643
  12 149
  13 519
  14 564
  15 245
  16 598
  17 586
  18 533
  19 940
  20 673
  21 639
  22 670
  23 78
  24 858
  25 498
  26 535
  27 627
  28 741
  29 626
  30 629
  31 59
  32 131
  33 918
  34 861
  35 386
  36 443
  37 873
  38 317
  39 595
  40 700
  41 41
  42 952
  43 951
  44 101
  45 211
  46 643
  47 639
  48 728
  49 239
  50 704
  51 889
  52 734
  53 4
  54 371
  55 965
  56 529
  57 189
  58 658
  59 336
  60 575
  61 419
  62 427
  63 649
  64 80
  65 975
  66 176
  67 356
  68 539
  69 709
  70 756
  71 624
  72 380
  73 614
  74 710
  75 459
  76 331
  77 505
  78 464
  79 432
  80 569
  81 655
  82 951
  83 156
  84 576
  85 617
  86 266
  87 531
  88 431
  89 521
  90 575
  91 82
  92 126
  93 232
  94 649
  95 273
  96 212
  97 444
  98 798
  99 194
  100 518
EOF