VRPTEST okul_100n_uniform_reallyclustered_D.vrp
COMMENT: 
COMMENT: Best known objective: 2147483647
NAME: okul_100n_uniform_reallyclustered_D.vrp
NUM_DEPOTS: 1
NUM_CAPACITIES: 1
NUM_VISITS: 100
NUM_LOCATIONS: 101
NUM_VEHICLES: 50
CAPACITIES: 1000
DATA_SECTION
DEPOTS
  0
DEMAND_SECTION
  1 -99
  2 -84
  3 -99
  4 -94
  5 -175
  6 -25
  7 -175
  8 -100
  9 -223
  10 -93
  11 -20
  12 -93
  13 -109
  14 -44
  15 -116
  16 -3
  17 -106
  18 -92
  19 -215
  20 -48
  21 -218
  22 -161
  23 -18
  24 -68
  25 -201
  26 -214
  27 -39
  28 -120
  29 -99
  30 -124
  31 -105
  32 -235
  33 -80
  34 -81
  35 -87
  36 -178
  37 -57
  38 -143
  39 -110
  40 -97
  41 -211
  42 -136
  43 -191
  44 -124
  45 -127
  46 -92
  47 -156
  48 -239
  49 -93
  50 -92
  51 -39
  52 -238
  53 -105
  54 -149
  55 -61
  56 -100
  57 -214
  58 -194
  59 -168
  60 -186
  61 -186
  62 -187
  63 -140
  64 -171
  65 -7
  66 -220
  67 -193
  68 -180
  69 -135
  70 -94
  71 -174
  72 -172
  73 -141
  74 -27
  75 -239
  76 -56
  77 -204
  78 -87
  79 -199
  80 -240
  81 -83
  82 -29
  83 -42
  84 -133
  85 -232
  86 -59
  87 -125
  88 -72
  89 -57
  90 -217
  91 -163
  92 -114
  93 -220
  94 -157
  95 -96
  96 -135
  97 -157
  98 -95
  99 -142
  100 -38
LOCATION_COORD_SECTION
  0 0 0
  1 -2 76
  2 2 70
  3 3 69
  4 -3 74
  5 0 74
  6 -2 70
  7 2 72
  8 0 72
  9 -100 -19
  10 -99 -22
  11 -98 -20
  12 -99 -20
  13 -101 -21
  14 -99 -22
  15 -95 -18
  16 -99 -19
  17 -100 -20
  18 -98 -20
  19 -39 -17
  20 -42 -11
  21 -35 -16
  22 -38 -14
  23 -39 -12
  24 -37 -13
  25 -36 -14
  26 -71 -5
  27 -65 -3
  28 -67 -1
  29 -73 -3
  30 -67 -3
  31 -72 -3
  32 -73 -3
  33 65 68
  34 63 69
  35 66 65
  36 64 67
  37 64 70
  38 61 64
  39 64 67
  40 67 61
  41 -1 -36
  42 -4 -39
  43 1 -38
  44 -1 -37
  45 -4 -38
  46 -5 -39
  47 -13 -74
  48 -15 -71
  49 -16 -68
  50 -15 -69
  51 -13 -69
  52 -12 -66
  53 -13 -72
  54 -29 -49
  55 -35 -54
  56 -39 -53
  57 -29 -52
  58 -31 -49
  59 -30 -50
  60 11 -26
  61 8 -24
  62 7 -24
  63 11 -25
  64 8 -20
  65 11 -19
  66 17 -6
  67 16 1
  68 12 -6
  69 17 -3
  70 12 -4
  71 16 -7
  72 -61 -56
  73 -62 -63
  74 -64 -59
  75 -57 -63
  76 -64 -58
  77 -61 -60
  78 -65 -63
  79 23 88
  80 20 93
  81 20 88
  82 23 90
  83 25 92
  84 19 91
  85 22 89
  86 21 -48
  87 25 -46
  88 18 -48
  89 18 -46
  90 21 -46
  91 22 -49
  92 21 -45
  93 63 -19
  94 62 -17
  95 61 -19
  96 63 -17
  97 63 -19
  98 63 -15
  99 -55 41
  100 -57 41
DEPOT_LOCATION_SECTION
  0 0
VISIT_LOCATION_SECTION
  1 1
  2 2
  3 3
  4 4
  5 5
  6 6
  7 7
  8 8
  9 9
  10 10
  11 11
  12 12
  13 13
  14 14
  15 15
  16 16
  17 17
  18 18
  19 19
  20 20
  21 21
  22 22
  23 23
  24 24
  25 25
  26 26
  27 27
  28 28
  29 29
  30 30
  31 31
  32 32
  33 33
  34 34
  35 35
  36 36
  37 37
  38 38
  39 39
  40 40
  41 41
  42 42
  43 43
  44 44
  45 45
  46 46
  47 47
  48 48
  49 49
  50 50
  51 51
  52 52
  53 53
  54 54
  55 55
  56 56
  57 57
  58 58
  59 59
  60 60
  61 61
  62 62
  63 63
  64 64
  65 65
  66 66
  67 67
  68 68
  69 69
  70 70
  71 71
  72 72
  73 73
  74 74
  75 75
  76 76
  77 77
  78 78
  79 79
  80 80
  81 81
  82 82
  83 83
  84 84
  85 85
  86 86
  87 87
  88 88
  89 89
  90 90
  91 91
  92 92
  93 93
  94 94
  95 95
  96 96
  97 97
  98 98
  99 99
  100 100
DURATION_SECTION
  1 10
  2 10
  3 10
  4 10
  5 10
  6 10
  7 10
  8 10
  9 10
  10 10
  11 10
  12 10
  13 10
  14 10
  15 10
  16 10
  17 10
  18 10
  19 10
  20 10
  21 10
  22 10
  23 10
  24 10
  25 10
  26 10
  27 10
  28 10
  29 10
  30 10
  31 10
  32 10
  33 10
  34 10
  35 10
  36 10
  37 10
  38 10
  39 10
  40 10
  41 10
  42 10
  43 10
  44 10
  45 10
  46 10
  47 10
  48 10
  49 10
  50 10
  51 10
  52 10
  53 10
  54 10
  55 10
  56 10
  57 10
  58 10
  59 10
  60 10
  61 10
  62 10
  63 10
  64 10
  65 10
  66 10
  67 10
  68 10
  69 10
  70 10
  71 10
  72 10
  73 10
  74 10
  75 10
  76 10
  77 10
  78 10
  79 10
  80 10
  81 10
  82 10
  83 10
  84 10
  85 10
  86 10
  87 10
  88 10
  89 10
  90 10
  91 10
  92 10
  93 10
  94 10
  95 10
  96 10
  97 10
  98 10
  99 10
  100 10
DEPOT_TIME_WINDOW_SECTION
  0 0 979
COMMENT: TIMESTEP: 7
TIME_AVAIL_SECTION
  1 537
  2 637
  3 619
  4 970
  5 3
  6 189
  7 910
  8 860
  9 693
  10 174
  11 310
  12 492
  13 691
  14 232
  15 141
  16 359
  17 49
  18 760
  19 672
  20 301
  21 223
  22 257
  23 466
  24 595
  25 43
  26 146
  27 930
  28 564
  29 456
  30 224
  31 761
  32 192
  33 480
  34 604
  35 399
  36 239
  37 960
  38 297
  39 233
  40 820
  41 545
  42 628
  43 768
  44 853
  45 857
  46 48
  47 528
  48 293
  49 561
  50 582
  51 821
  52 423
  53 508
  54 141
  55 934
  56 148
  57 838
  58 483
  59 15
  60 874
  61 109
  62 921
  63 966
  64 313
  65 524
  66 628
  67 332
  68 845
  69 615
  70 897
  71 221
  72 145
  73 61
  74 844
  75 365
  76 867
  77 264
  78 420
  79 506
  80 55
  81 132
  82 880
  83 366
  84 270
  85 463
  86 511
  87 361
  88 190
  89 293
  90 363
  91 422
  92 317
  93 545
  94 710
  95 146
  96 139
  97 724
  98 32
  99 679
  100 26
EOF