VRPTEST okul_100f_normal_uniform_D.vrp
COMMENT: 
COMMENT: Best known objective: 2147483647
NAME: okul_100f_normal_uniform_D.vrp
NUM_DEPOTS: 1
NUM_CAPACITIES: 1
NUM_VISITS: 100
NUM_LOCATIONS: 101
NUM_VEHICLES: 50
CAPACITIES: 1000
DATA_SECTION
DEPOTS
  0
DEMAND_SECTION
  1 -120
  2 -133
  3 -151
  4 -49
  5 -91
  6 -95
  7 -161
  8 -145
  9 -63
  10 -131
  11 -114
  12 -131
  13 -115
  14 -138
  15 -119
  16 -104
  17 -124
  18 -166
  19 -154
  20 -74
  21 -143
  22 -86
  23 -113
  24 -82
  25 -115
  26 -117
  27 -95
  28 -161
  29 -100
  30 -141
  31 -192
  32 -193
  33 -158
  34 -129
  35 -138
  36 -126
  37 -100
  38 -108
  39 -174
  40 -142
  41 -133
  42 -147
  43 -115
  44 -110
  45 -131
  46 -145
  47 -93
  48 -43
  49 -128
  50 -159
  51 -124
  52 -124
  53 -118
  54 -159
  55 -124
  56 -146
  57 -166
  58 -155
  59 -126
  60 -150
  61 -145
  62 -112
  63 -140
  64 -126
  65 -137
  66 -131
  67 -141
  68 -120
  69 -127
  70 -113
  71 -132
  72 -145
  73 -121
  74 -82
  75 -142
  76 -109
  77 -141
  78 -176
  79 -136
  80 -144
  81 -172
  82 -138
  83 -114
  84 -77
  85 -114
  86 -143
  87 -139
  88 -134
  89 -129
  90 -152
  91 -115
  92 -174
  93 -131
  94 -75
  95 -182
  96 -155
  97 -89
  98 -104
  99 -110
  100 -112
LOCATION_COORD_SECTION
  0 0 0
  1 43 34
  2 -61 -71
  3 -9 -64
  4 -64 46
  5 -3 21
  6 -12 -76
  7 -48 -2
  8 5 -73
  9 53 -69
  10 70 64
  11 -86 -59
  12 -29 39
  13 78 -98
  14 -12 15
  15 -40 -36
  16 -1 7
  17 -36 57
  18 -14 97
  19 2 -80
  20 2 42
  21 62 28
  22 -61 46
  23 14 -45
  24 -72 49
  25 71 66
  26 -34 -17
  27 31 20
  28 27 -9
  29 2 7
  30 69 29
  31 97 -95
  32 43 35
  33 5 -87
  34 -26 52
  35 35 -59
  36 14 80
  37 53 4
  38 -32 99
  39 -61 76
  40 59 37
  41 -76 -65
  42 -67 61
  43 -89 84
  44 -89 -36
  45 -50 25
  46 -66 -20
  47 38 -80
  48 20 13
  49 92 80
  50 -28 21
  51 26 -29
  52 -89 -7
  53 -20 38
  54 44 -39
  55 -94 56
  56 -8 41
  57 -90 -13
  58 17 -9
  59 98 73
  60 -73 -44
  61 70 76
  62 18 86
  63 72 99
  64 48 -52
  65 47 -59
  66 -9 -11
  67 27 90
  68 -42 -82
  69 18 15
  70 88 79
  71 -86 -76
  72 38 52
  73 -48 -4
  74 26 94
  75 -73 34
  76 15 25
  77 32 -16
  78 -63 75
  79 20 96
  80 47 25
  81 -11 43
  82 -73 66
  83 8 67
  84 17 89
  85 47 72
  86 57 14
  87 17 -82
  88 -83 100
  89 -84 65
  90 65 31
  91 45 82
  92 24 88
  93 -63 83
  94 -92 -81
  95 -61 22
  96 55 -30
  97 19 -65
  98 -13 -62
  99 -16 -94
  100 38 76
DEPOT_LOCATION_SECTION
  0 0
VISIT_LOCATION_SECTION
  1 1
  2 2
  3 3
  4 4
  5 5
  6 6
  7 7
  8 8
  9 9
  10 10
  11 11
  12 12
  13 13
  14 14
  15 15
  16 16
  17 17
  18 18
  19 19
  20 20
  21 21
  22 22
  23 23
  24 24
  25 25
  26 26
  27 27
  28 28
  29 29
  30 30
  31 31
  32 32
  33 33
  34 34
  35 35
  36 36
  37 37
  38 38
  39 39
  40 40
  41 41
  42 42
  43 43
  44 44
  45 45
  46 46
  47 47
  48 48
  49 49
  50 50
  51 51
  52 52
  53 53
  54 54
  55 55
  56 56
  57 57
  58 58
  59 59
  60 60
  61 61
  62 62
  63 63
  64 64
  65 65
  66 66
  67 67
  68 68
  69 69
  70 70
  71 71
  72 72
  73 73
  74 74
  75 75
  76 76
  77 77
  78 78
  79 79
  80 80
  81 81
  82 82
  83 83
  84 84
  85 85
  86 86
  87 87
  88 88
  89 89
  90 90
  91 91
  92 92
  93 93
  94 94
  95 95
  96 96
  97 97
  98 98
  99 99
  100 100
DURATION_SECTION
  1 10
  2 10
  3 10
  4 10
  5 10
  6 10
  7 10
  8 10
  9 10
  10 10
  11 10
  12 10
  13 10
  14 10
  15 10
  16 10
  17 10
  18 10
  19 10
  20 10
  21 10
  22 10
  23 10
  24 10
  25 10
  26 10
  27 10
  28 10
  29 10
  30 10
  31 10
  32 10
  33 10
  34 10
  35 10
  36 10
  37 10
  38 10
  39 10
  40 10
  41 10
  42 10
  43 10
  44 10
  45 10
  46 10
  47 10
  48 10
  49 10
  50 10
  51 10
  52 10
  53 10
  54 10
  55 10
  56 10
  57 10
  58 10
  59 10
  60 10
  61 10
  62 10
  63 10
  64 10
  65 10
  66 10
  67 10
  68 10
  69 10
  70 10
  71 10
  72 10
  73 10
  74 10
  75 10
  76 10
  77 10
  78 10
  79 10
  80 10
  81 10
  82 10
  83 10
  84 10
  85 10
  86 10
  87 10
  88 10
  89 10
  90 10
  91 10
  92 10
  93 10
  94 10
  95 10
  96 10
  97 10
  98 10
  99 10
  100 10
DEPOT_TIME_WINDOW_SECTION
  0 0 979
COMMENT: TIMESTEP: 7
TIME_AVAIL_SECTION
  1 777
  2 174
  3 470
  4 343
  5 648
  6 874
  7 883
  8 854
  9 229
  10 679
  11 263
  12 307
  13 964
  14 583
  15 595
  16 316
  17 857
  18 574
  19 228
  20 621
  21 330
  22 917
  23 741
  24 258
  25 411
  26 958
  27 329
  28 7
  29 554
  30 63
  31 481
  32 343
  33 549
  34 615
  35 188
  36 635
  37 234
  38 172
  39 917
  40 903
  41 498
  42 414
  43 918
  44 278
  45 881
  46 870
  47 76
  48 600
  49 815
  50 842
  51 424
  52 943
  53 483
  54 673
  55 151
  56 141
  57 809
  58 648
  59 873
  60 273
  61 964
  62 707
  63 937
  64 153
  65 96
  66 116
  67 485
  68 6
  69 293
  70 833
  71 543
  72 420
  73 780
  74 749
  75 68
  76 180
  77 577
  78 440
  79 965
  80 822
  81 92
  82 218
  83 693
  84 206
  85 676
  86 168
  87 153
  88 967
  89 531
  90 941
  91 742
  92 928
  93 376
  94 466
  95 420
  96 395
  97 849
  98 157
  99 338
  100 232
EOF