VRPTEST okul100
COMMENT: 
COMMENT: Best known objective: 2147483647
NAME: okul100
NUM_DEPOTS: 1
NUM_CAPACITIES: 1
NUM_VISITS: 100
NUM_LOCATIONS: 101
NUM_VEHICLES: 50
CAPACITIES: 1000
DATA_SECTION
DEPOTS
  0
DEMAND_SECTION
  1 -217
  2 -69
  3 -6
  4 -56
  5 -278
  6 -44
  7 -29
  8 -140
  9 -7
  10 -51
  11 -215
  12 -15
  13 -97
  14 -93
  15 -20
  16 -25
  17 -37
  18 -21
  19 -27
  20 -82
  21 -35
  22 -99
  23 -114
  24 -178
  25 -49
  26 -9
  27 -105
  28 -51
  29 -98
  30 -163
  31 -159
  32 -99
  33 -15
  34 -115
  35 -130
  36 -31
  37 -39
  38 -235
  39 -241
  40 -53
  41 -28
  42 -107
  43 -23
  44 -50
  45 -55
  46 -8
  47 -153
  48 -365
  49 -38
  50 -110
  51 -1
  52 -96
  53 -31
  54 -87
  55 -69
  56 -8
  57 -73
  58 -2
  59 -44
  60 -242
  61 -36
  62 -59
  63 -170
  64 -91
  65 -82
  66 -206
  67 -110
  68 -13
  69 -37
  70 -55
  71 -17
  72 -140
  73 -52
  74 -61
  75 -194
  76 -13
  77 -14
  78 -31
  79 -6
  80 -39
  81 -202
  82 -177
  83 -215
  84 -86
  85 -72
  86 -4
  87 -22
  88 -5
  89 -219
  90 -174
  91 -8
  92 -224
  93 -122
  94 -158
  95 -143
  96 -135
  97 -43
  98 -117
  99 -185
  100 -10
LOCATION_COORD_SECTION
  0 0 0
  1 35 -47
  2 -46 -15
  3 -6 -27
  4 -66 89
  5 -26 -75
  6 45 -86
  7 -3 93
  8 -87 -11
  9 57 -26
  10 -16 -66
  11 96 -89
  12 -43 32
  13 70 16
  14 -84 97
  15 77 21
  16 -6 -87
  17 -78 -68
  18 -33 -5
  19 67 -100
  20 -45 -12
  21 17 -48
  22 67 88
  23 -86 43
  24 41 -67
  25 40 -5
  26 -7 38
  27 -13 -8
  28 12 91
  29 86 43
  30 -54 -21
  31 -56 -76
  32 -16 -52
  33 -33 73
  34 73 -13
  35 -65 0
  36 -1 38
  37 -14 52
  38 13 -69
  39 31 70
  40 96 89
  41 -54 18
  42 -52 0
  43 59 -62
  44 66 -100
  45 -77 76
  46 93 -73
  47 -71 -95
  48 -71 88
  49 85 -41
  50 1 -67
  51 -69 -20
  52 -30 -8
  53 32 -13
  54 -38 3
  55 -30 69
  56 -70 -89
  57 32 11
  58 -63 38
  59 91 32
  60 80 33
  61 89 -6
  62 45 94
  63 -26 -20
  64 56 70
  65 -98 51
  66 88 7
  67 99 75
  68 -29 -7
  69 50 -98
  70 59 46
  71 41 43
  72 -5 -63
  73 -1 29
  74 -38 8
  75 39 -33
  76 65 28
  77 -13 66
  78 3 42
  79 33 -30
  80 -71 -74
  81 -31 -22
  82 -19 86
  83 -83 61
  84 87 52
  85 68 91
  86 76 99
  87 87 21
  88 -86 -94
  89 -24 -33
  90 8 -44
  91 -79 -77
  92 60 -91
  93 48 -26
  94 -90 -33
  95 -4 -65
  96 84 24
  97 -92 -20
  98 -41 91
  99 0 31
  100 22 -34
DEPOT_LOCATION_SECTION
  0 0
VISIT_LOCATION_SECTION
  1 1
  2 2
  3 3
  4 4
  5 5
  6 6
  7 7
  8 8
  9 9
  10 10
  11 11
  12 12
  13 13
  14 14
  15 15
  16 16
  17 17
  18 18
  19 19
  20 20
  21 21
  22 22
  23 23
  24 24
  25 25
  26 26
  27 27
  28 28
  29 29
  30 30
  31 31
  32 32
  33 33
  34 34
  35 35
  36 36
  37 37
  38 38
  39 39
  40 40
  41 41
  42 42
  43 43
  44 44
  45 45
  46 46
  47 47
  48 48
  49 49
  50 50
  51 51
  52 52
  53 53
  54 54
  55 55
  56 56
  57 57
  58 58
  59 59
  60 60
  61 61
  62 62
  63 63
  64 64
  65 65
  66 66
  67 67
  68 68
  69 69
  70 70
  71 71
  72 72
  73 73
  74 74
  75 75
  76 76
  77 77
  78 78
  79 79
  80 80
  81 81
  82 82
  83 83
  84 84
  85 85
  86 86
  87 87
  88 88
  89 89
  90 90
  91 91
  92 92
  93 93
  94 94
  95 95
  96 96
  97 97
  98 98
  99 99
  100 100
DURATION_SECTION
  1 10
  2 10
  3 10
  4 10
  5 10
  6 10
  7 10
  8 10
  9 10
  10 10
  11 10
  12 10
  13 10
  14 10
  15 10
  16 10
  17 10
  18 10
  19 10
  20 10
  21 10
  22 10
  23 10
  24 10
  25 10
  26 10
  27 10
  28 10
  29 10
  30 10
  31 10
  32 10
  33 10
  34 10
  35 10
  36 10
  37 10
  38 10
  39 10
  40 10
  41 10
  42 10
  43 10
  44 10
  45 10
  46 10
  47 10
  48 10
  49 10
  50 10
  51 10
  52 10
  53 10
  54 10
  55 10
  56 10
  57 10
  58 10
  59 10
  60 10
  61 10
  62 10
  63 10
  64 10
  65 10
  66 10
  67 10
  68 10
  69 10
  70 10
  71 10
  72 10
  73 10
  74 10
  75 10
  76 10
  77 10
  78 10
  79 10
  80 10
  81 10
  82 10
  83 10
  84 10
  85 10
  86 10
  87 10
  88 10
  89 10
  90 10
  91 10
  92 10
  93 10
  94 10
  95 10
  96 10
  97 10
  98 10
  99 10
  100 10
DEPOT_TIME_WINDOW_SECTION
  0 0 939
COMMENT: TIMESTEP: 7
TIME_AVAIL_SECTION
  1 390
  2 198
  3 403
  4 125
  5 432
  6 885
  7 715
  8 876
  9 442
  10 567
  11 455
  12 102
  13 233
  14 468
  15 350
  16 878
  17 492
  18 298
  19 261
  20 740
  21 660
  22 155
  23 61
  24 709
  25 583
  26 159
  27 58
  28 102
  29 358
  30 159
  31 280
  32 180
  33 241
  34 170
  35 448
  36 724
  37 26
  38 495
  39 827
  40 350
  41 45
  42 130
  43 302
  44 145
  45 124
  46 208
  47 213
  48 123
  49 922
  50 307
  51 476
  52 640
  53 93
  54 112
  55 47
  56 873
  57 633
  58 89
  59 463
  60 433
  61 352
  62 931
  63 166
  64 764
  65 64
  66 376
  67 133
  68 182
  69 790
  70 676
  71 251
  72 465
  73 78
  74 332
  75 910
  76 587
  77 624
  78 293
  79 381
  80 935
  81 803
  82 895
  83 763
  84 734
  85 252
  86 716
  87 926
  88 276
  89 375
  90 763
  91 72
  92 342
  93 416
  94 147
  95 547
  96 911
  97 929
  98 166
  99 509
  100 361
EOF