VRPTEST okul_50b_uniform_uniform_D.vrp
COMMENT: 
COMMENT: Best known objective: 2147483647
NAME: okul_50b_uniform_uniform_D.vrp
NUM_DEPOTS: 1
NUM_CAPACITIES: 1
NUM_VISITS: 50
NUM_LOCATIONS: 51
NUM_VEHICLES: 50
CAPACITIES: 1000
DATA_SECTION
DEPOTS
  0
DEMAND_SECTION
  1 -36
  2 -195
  3 -88
  4 -101
  5 -218
  6 -17
  7 -150
  8 -107
  9 -86
  10 -210
  11 -215
  12 -130
  13 -71
  14 -118
  15 -60
  16 -92
  17 -73
  18 -230
  19 -62
  20 -196
  21 -170
  22 -135
  23 -238
  24 -135
  25 -167
  26 -191
  27 -178
  28 -27
  29 -224
  30 -146
  31 -248
  32 -187
  33 -173
  34 -15
  35 -208
  36 -202
  37 -230
  38 -107
  39 -31
  40 -221
  41 -166
  42 -21
  43 -188
  44 -62
  45 -87
  46 -226
  47 -28
  48 -53
  49 -172
  50 -204
LOCATION_COORD_SECTION
  0 0 0
  1 38 -34
  2 77 15
  3 87 -90
  4 49 -20
  5 68 -48
  6 60 -66
  7 79 -88
  8 66 -89
  9 -26 95
  10 74 59
  11 60 -94
  12 -65 9
  13 -67 -96
  14 89 55
  15 -11 51
  16 -84 -98
  17 97 64
  18 -97 71
  19 -1 -16
  20 -15 27
  21 -24 -16
  22 47 -35
  23 -44 53
  24 31 41
  25 56 84
  26 44 22
  27 96 -89
  28 9 47
  29 32 81
  30 -45 40
  31 -21 16
  32 12 13
  33 96 -27
  34 93 11
  35 -56 79
  36 -21 -46
  37 74 65
  38 38 35
  39 -33 80
  40 38 -41
  41 -69 -23
  42 78 81
  43 78 56
  44 -72 9
  45 -93 23
  46 -29 85
  47 -24 -39
  48 23 -27
  49 1 92
  50 -32 -16
DEPOT_LOCATION_SECTION
  0 0
VISIT_LOCATION_SECTION
  1 1
  2 2
  3 3
  4 4
  5 5
  6 6
  7 7
  8 8
  9 9
  10 10
  11 11
  12 12
  13 13
  14 14
  15 15
  16 16
  17 17
  18 18
  19 19
  20 20
  21 21
  22 22
  23 23
  24 24
  25 25
  26 26
  27 27
  28 28
  29 29
  30 30
  31 31
  32 32
  33 33
  34 34
  35 35
  36 36
  37 37
  38 38
  39 39
  40 40
  41 41
  42 42
  43 43
  44 44
  45 45
  46 46
  47 47
  48 48
  49 49
  50 50
DURATION_SECTION
  1 10
  2 10
  3 10
  4 10
  5 10
  6 10
  7 10
  8 10
  9 10
  10 10
  11 10
  12 10
  13 10
  14 10
  15 10
  16 10
  17 10
  18 10
  19 10
  20 10
  21 10
  22 10
  23 10
  24 10
  25 10
  26 10
  27 10
  28 10
  29 10
  30 10
  31 10
  32 10
  33 10
  34 10
  35 10
  36 10
  37 10
  38 10
  39 10
  40 10
  41 10
  42 10
  43 10
  44 10
  45 10
  46 10
  47 10
  48 10
  49 10
  50 10
DEPOT_TIME_WINDOW_SECTION
  0 0 919
COMMENT: TIMESTEP: 7
TIME_AVAIL_SECTION
  1 320
  2 469
  3 728
  4 405
  5 263
  6 858
  7 28
  8 780
  9 407
  10 581
  11 717
  12 258
  13 113
  14 821
  15 373
  16 694
  17 102
  18 311
  19 502
  20 287
  21 411
  22 372
  23 447
  24 404
  25 245
  26 599
  27 220
  28 747
  29 743
  30 541
  31 498
  32 43
  33 391
  34 589
  35 1
  36 796
  37 93
  38 88
  39 714
  40 27
  41 314
  42 723
  43 104
  44 322
  45 303
  46 640
  47 325
  48 373
  49 283
  50 882
EOF