VRPTEST okul_100q_normal_reallyclustered_D.vrp
COMMENT: 
COMMENT: Best known objective: 2147483647
NAME: okul_100q_normal_reallyclustered_D.vrp
NUM_DEPOTS: 1
NUM_CAPACITIES: 1
NUM_VISITS: 100
NUM_LOCATIONS: 101
NUM_VEHICLES: 50
CAPACITIES: 1000
DATA_SECTION
DEPOTS
  0
DEMAND_SECTION
  1 -115
  2 -131
  3 -162
  4 -89
  5 -140
  6 -80
  7 -156
  8 -176
  9 -131
  10 -140
  11 -142
  12 -152
  13 -120
  14 -118
  15 -180
  16 -110
  17 -115
  18 -121
  19 -90
  20 -154
  21 -114
  22 -123
  23 -100
  24 -136
  25 -185
  26 -97
  27 -102
  28 -134
  29 -153
  30 -136
  31 -182
  32 -139
  33 -125
  34 -153
  35 -112
  36 -182
  37 -154
  38 -89
  39 -156
  40 -103
  41 -122
  42 -103
  43 -126
  44 -109
  45 -127
  46 -122
  47 -124
  48 -160
  49 -98
  50 -69
  51 -105
  52 -154
  53 -109
  54 -94
  55 -154
  56 -142
  57 -118
  58 -118
  59 -124
  60 -153
  61 -86
  62 -115
  63 -74
  64 -109
  65 -86
  66 -138
  67 -132
  68 -131
  69 -130
  70 -151
  71 -160
  72 -120
  73 -97
  74 -162
  75 -141
  76 -174
  77 -101
  78 -125
  79 -98
  80 -152
  81 -106
  82 -133
  83 -150
  84 -157
  85 -104
  86 -127
  87 -111
  88 -123
  89 -117
  90 -145
  91 -124
  92 -144
  93 -124
  94 -132
  95 -157
  96 -128
  97 -122
  98 -115
  99 -128
  100 -99
LOCATION_COORD_SECTION
  0 0 0
  1 -59 79
  2 -55 78
  3 -60 81
  4 -53 79
  5 -59 75
  6 -56 76
  7 -55 78
  8 -12 29
  9 -7 28
  10 -10 28
  11 -11 28
  12 -7 29
  13 -11 27
  14 -12 30
  15 -3 20
  16 -9 19
  17 -13 22
  18 -8 20
  19 -6 22
  20 -6 21
  21 0 23
  22 -4 15
  23 -9 20
  24 -9 20
  25 -6 17
  26 -10 17
  27 -8 18
  28 -12 14
  29 50 90
  30 47 91
  31 54 88
  32 50 87
  33 52 90
  34 49 91
  35 49 87
  36 -25 2
  37 -16 -1
  38 -13 3
  39 -16 3
  40 -14 4
  41 -15 -1
  42 -14 2
  43 -57 -56
  44 -55 -62
  45 -52 -57
  46 -54 -61
  47 -56 -59
  48 -58 -56
  49 -55 -58
  50 -55 -59
  51 20 77
  52 20 79
  53 16 77
  54 21 78
  55 21 76
  56 18 80
  57 21 81
  58 20 79
  59 -14 -57
  60 -12 -54
  61 -12 -54
  62 -10 -54
  63 -15 -57
  64 -7 -57
  65 -10 -49
  66 -12 -61
  67 -17 26
  68 -13 26
  69 -11 28
  70 -9 28
  71 -10 27
  72 -13 25
  73 -13 29
  74 12 -8
  75 8 -10
  76 16 -9
  77 5 -5
  78 8 -10
  79 9 -11
  80 8 -9
  81 -88 12
  82 -82 12
  83 -87 8
  84 -89 10
  85 -84 11
  86 -86 13
  87 -88 14
  88 -88 -66
  89 -91 -64
  90 -92 -65
  91 -91 -73
  92 -95 -68
  93 -85 -68
  94 -90 -68
  95 -11 -65
  96 -7 -69
  97 -10 -68
  98 -9 -68
  99 -9 -66
  100 -7 -71
DEPOT_LOCATION_SECTION
  0 0
VISIT_LOCATION_SECTION
  1 1
  2 2
  3 3
  4 4
  5 5
  6 6
  7 7
  8 8
  9 9
  10 10
  11 11
  12 12
  13 13
  14 14
  15 15
  16 16
  17 17
  18 18
  19 19
  20 20
  21 21
  22 22
  23 23
  24 24
  25 25
  26 26
  27 27
  28 28
  29 29
  30 30
  31 31
  32 32
  33 33
  34 34
  35 35
  36 36
  37 37
  38 38
  39 39
  40 40
  41 41
  42 42
  43 43
  44 44
  45 45
  46 46
  47 47
  48 48
  49 49
  50 50
  51 51
  52 52
  53 53
  54 54
  55 55
  56 56
  57 57
  58 58
  59 59
  60 60
  61 61
  62 62
  63 63
  64 64
  65 65
  66 66
  67 67
  68 68
  69 69
  70 70
  71 71
  72 72
  73 73
  74 74
  75 75
  76 76
  77 77
  78 78
  79 79
  80 80
  81 81
  82 82
  83 83
  84 84
  85 85
  86 86
  87 87
  88 88
  89 89
  90 90
  91 91
  92 92
  93 93
  94 94
  95 95
  96 96
  97 97
  98 98
  99 99
  100 100
DURATION_SECTION
  1 10
  2 10
  3 10
  4 10
  5 10
  6 10
  7 10
  8 10
  9 10
  10 10
  11 10
  12 10
  13 10
  14 10
  15 10
  16 10
  17 10
  18 10
  19 10
  20 10
  21 10
  22 10
  23 10
  24 10
  25 10
  26 10
  27 10
  28 10
  29 10
  30 10
  31 10
  32 10
  33 10
  34 10
  35 10
  36 10
  37 10
  38 10
  39 10
  40 10
  41 10
  42 10
  43 10
  44 10
  45 10
  46 10
  47 10
  48 10
  49 10
  50 10
  51 10
  52 10
  53 10
  54 10
  55 10
  56 10
  57 10
  58 10
  59 10
  60 10
  61 10
  62 10
  63 10
  64 10
  65 10
  66 10
  67 10
  68 10
  69 10
  70 10
  71 10
  72 10
  73 10
  74 10
  75 10
  76 10
  77 10
  78 10
  79 10
  80 10
  81 10
  82 10
  83 10
  84 10
  85 10
  86 10
  87 10
  88 10
  89 10
  90 10
  91 10
  92 10
  93 10
  94 10
  95 10
  96 10
  97 10
  98 10
  99 10
  100 10
DEPOT_TIME_WINDOW_SECTION
  0 0 979
COMMENT: TIMESTEP: 7
TIME_AVAIL_SECTION
  1 201
  2 861
  3 194
  4 193
  5 260
  6 534
  7 238
  8 556
  9 560
  10 205
  11 391
  12 887
  13 88
  14 142
  15 943
  16 657
  17 126
  18 507
  19 132
  20 421
  21 598
  22 799
  23 233
  24 909
  25 859
  26 543
  27 39
  28 410
  29 333
  30 346
  31 165
  32 238
  33 789
  34 708
  35 92
  36 273
  37 784
  38 167
  39 921
  40 427
  41 315
  42 874
  43 849
  44 927
  45 172
  46 40
  47 502
  48 698
  49 175
  50 262
  51 766
  52 557
  53 861
  54 787
  55 211
  56 187
  57 776
  58 933
  59 700
  60 460
  61 517
  62 165
  63 326
  64 289
  65 137
  66 743
  67 130
  68 712
  69 647
  70 295
  71 710
  72 465
  73 622
  74 620
  75 54
  76 938
  77 749
  78 878
  79 145
  80 612
  81 185
  82 827
  83 412
  84 124
  85 855
  86 419
  87 799
  88 834
  89 761
  90 285
  91 576
  92 251
  93 85
  94 797
  95 912
  96 563
  97 941
  98 891
  99 85
  100 787
EOF