VRPTEST okul_100b_moreskewed_reallyclustered_D.vrp
COMMENT: 
COMMENT: Best known objective: 1925.72
NAME: okul_100b_moreskewed_reallyclustered_D.vrp
NUM_DEPOTS: 1
NUM_CAPACITIES: 1
NUM_VISITS: 100
NUM_LOCATIONS: 101
NUM_VEHICLES: 50
CAPACITIES: 1000
DATA_SECTION
DEPOTS
  0
DEMAND_SECTION
  1 -31
  2 -304
  3 0
  4 -4
  5 -25
  6 -28
  7 -388
  8 -15
  9 -10
  10 0
  11 -34
  12 0
  13 -1
  14 -160
  15 -2
  16 -115
  17 -17
  18 -18
  19 0
  20 -22
  21 -116
  22 -94
  23 -175
  24 -531
  25 -69
  26 -1
  27 0
  28 -38
  29 -6
  30 -6
  31 -110
  32 -17
  33 -26
  34 -1
  35 0
  36 -8
  37 -42
  38 -1
  39 -12
  40 -1
  41 -206
  42 -1
  43 -22
  44 -18
  45 -27
  46 -18
  47 -13
  48 -9
  49 -57
  50 -214
  51 -58
  52 -1
  53 -1
  54 -186
  55 -1
  56 -9
  57 -108
  58 -115
  59 -384
  60 -42
  61 -49
  62 -26
  63 -39
  64 -10
  65 -26
  66 -14
  67 -69
  68 -70
  69 -142
  70 -55
  71 -72
  72 -43
  73 -11
  74 -32
  75 -116
  76 -1
  77 -7
  78 -249
  79 -12
  80 -42
  81 -170
  82 -87
  83 -320
  84 -62
  85 -29
  86 -174
  87 -5
  88 -13
  89 0
  90 -101
  91 -35
  92 -269
  93 -56
  94 -1
  95 -1
  96 -34
  97 -13
  98 -10
  99 -17
  100 -23
LOCATION_COORD_SECTION
  0 0 0
  1 -83 82
  2 -79 81
  3 -90 100
  4 -92 98
  5 -80 90
  6 -82 99
  7 -88 96
  8 -92 97
  9 -91 95
  10 -87 89
  11 -72 96
  12 -74 94
  13 -90 92
  14 -84 109
  15 -15 91
  16 -16 88
  17 -17 95
  18 -29 101
  19 -24 88
  20 -32 108
  21 -12 94
  22 -11 96
  23 -29 97
  24 -20 79
  25 -18 87
  26 -28 86
  27 -38 77
  28 -23 76
  29 -42 79
  30 -28 77
  31 -37 84
  32 -19 84
  33 -22 89
  34 -25 87
  35 -26 72
  36 -27 80
  37 -11 77
  38 -22 79
  39 -31 80
  40 -17 81
  41 -68 -21
  42 -72 -21
  43 -72 -25
  44 -70 -30
  45 -65 -26
  46 -73 -14
  47 -81 -22
  48 -70 -19
  49 -76 -29
  50 -70 -29
  51 -74 -21
  52 -73 -21
  53 -72 -21
  54 -70 -32
  55 -70 -14
  56 -77 -24
  57 -88 -35
  58 88 -12
  59 90 -18
  60 93 -9
  61 80 -14
  62 87 -26
  63 85 -14
  64 79 -13
  65 82 -13
  66 79 -19
  67 77 -15
  68 73 -15
  69 80 -21
  70 -67 69
  71 -71 55
  72 -60 53
  73 -69 61
  74 -64 62
  75 -63 71
  76 -65 57
  77 -63 61
  78 -69 62
  79 -63 77
  80 -65 59
  81 -68 64
  82 -61 59
  83 26 -57
  84 33 -69
  85 36 -58
  86 27 -65
  87 30 -50
  88 37 -68
  89 28 -59
  90 33 -48
  91 25 -52
  92 -78 5
  93 -75 -17
  94 -73 -3
  95 -81 10
  96 -72 -8
  97 -80 -11
  98 -67 -7
  99 -61 -13
  100 -74 -16
DEPOT_LOCATION_SECTION
  0 0
VISIT_LOCATION_SECTION
  1 1
  2 2
  3 3
  4 4
  5 5
  6 6
  7 7
  8 8
  9 9
  10 10
  11 11
  12 12
  13 13
  14 14
  15 15
  16 16
  17 17
  18 18
  19 19
  20 20
  21 21
  22 22
  23 23
  24 24
  25 25
  26 26
  27 27
  28 28
  29 29
  30 30
  31 31
  32 32
  33 33
  34 34
  35 35
  36 36
  37 37
  38 38
  39 39
  40 40
  41 41
  42 42
  43 43
  44 44
  45 45
  46 46
  47 47
  48 48
  49 49
  50 50
  51 51
  52 52
  53 53
  54 54
  55 55
  56 56
  57 57
  58 58
  59 59
  60 60
  61 61
  62 62
  63 63
  64 64
  65 65
  66 66
  67 67
  68 68
  69 69
  70 70
  71 71
  72 72
  73 73
  74 74
  75 75
  76 76
  77 77
  78 78
  79 79
  80 80
  81 81
  82 82
  83 83
  84 84
  85 85
  86 86
  87 87
  88 88
  89 89
  90 90
  91 91
  92 92
  93 93
  94 94
  95 95
  96 96
  97 97
  98 98
  99 99
  100 100
DURATION_SECTION
  1 10
  2 10
  3 10
  4 10
  5 10
  6 10
  7 10
  8 10
  9 10
  10 10
  11 10
  12 10
  13 10
  14 10
  15 10
  16 10
  17 10
  18 10
  19 10
  20 10
  21 10
  22 10
  23 10
  24 10
  25 10
  26 10
  27 10
  28 10
  29 10
  30 10
  31 10
  32 10
  33 10
  34 10
  35 10
  36 10
  37 10
  38 10
  39 10
  40 10
  41 10
  42 10
  43 10
  44 10
  45 10
  46 10
  47 10
  48 10
  49 10
  50 10
  51 10
  52 10
  53 10
  54 10
  55 10
  56 10
  57 10
  58 10
  59 10
  60 10
  61 10
  62 10
  63 10
  64 10
  65 10
  66 10
  67 10
  68 10
  69 10
  70 10
  71 10
  72 10
  73 10
  74 10
  75 10
  76 10
  77 10
  78 10
  79 10
  80 10
  81 10
  82 10
  83 10
  84 10
  85 10
  86 10
  87 10
  88 10
  89 10
  90 10
  91 10
  92 10
  93 10
  94 10
  95 10
  96 10
  97 10
  98 10
  99 10
  100 10
DEPOT_TIME_WINDOW_SECTION
  0 0 919
COMMENT: TIMESTEP: 7
TIME_AVAIL_SECTION
  1 220
  2 760
  3 642
  4 554
  5 618
  6 102
  7 282
  8 679
  9 384
  10 741
  11 470
  12 630
  13 901
  14 312
  15 203
  16 731
  17 263
  18 90
  19 875
  20 907
  21 57
  22 234
  23 803
  24 189
  25 54
  26 871
  27 626
  28 306
  29 473
  30 193
  31 333
  32 155
  33 159
  34 805
  35 591
  36 613
  37 29
  38 125
  39 500
  40 127
  41 288
  42 738
  43 813
  44 267
  45 859
  46 216
  47 215
  48 421
  49 370
  50 20
  51 509
  52 67
  53 791
  54 584
  55 829
  56 44
  57 828
  58 474
  59 338
  60 331
  61 668
  62 841
  63 755
  64 211
  65 873
  66 256
  67 173
  68 398
  69 905
  70 536
  71 701
  72 168
  73 781
  74 739
  75 130
  76 550
  77 292
  78 472
  79 434
  80 747
  81 205
  82 798
  83 260
  84 168
  85 119
  86 236
  87 504
  88 126
  89 818
  90 644
  91 256
  92 522
  93 30
  94 117
  95 635
  96 392
  97 638
  98 627
  99 643
  100 262
EOF