VRPTEST okul_100m_skewed_structured_D.vrp
COMMENT: 
COMMENT: Best known objective: 2147483647
NAME: okul_100m_skewed_structured_D.vrp
NUM_DEPOTS: 1
NUM_CAPACITIES: 1
NUM_VISITS: 100
NUM_LOCATIONS: 101
NUM_VEHICLES: 50
CAPACITIES: 1000
DATA_SECTION
DEPOTS
  0
DEMAND_SECTION
  1 -6
  2 -329
  3 -134
  4 -142
  5 -217
  6 -106
  7 -48
  8 -264
  9 -89
  10 -113
  11 -55
  12 -42
  13 -138
  14 -65
  15 -2
  16 -18
  17 -140
  18 -133
  19 -121
  20 -75
  21 -73
  22 -53
  23 -32
  24 -2
  25 -193
  26 -154
  27 -179
  28 -61
  29 -26
  30 -78
  31 -38
  32 -141
  33 -46
  34 -69
  35 -29
  36 -181
  37 -97
  38 -107
  39 -46
  40 -2
  41 -29
  42 -40
  43 -130
  44 -57
  45 -49
  46 -24
  47 -68
  48 -25
  49 -24
  50 -3
  51 -19
  52 -14
  53 -63
  54 -166
  55 -118
  56 -105
  57 -156
  58 -42
  59 -117
  60 -90
  61 -121
  62 -94
  63 -22
  64 -117
  65 -15
  66 -194
  67 -52
  68 -22
  69 -75
  70 -17
  71 -148
  72 -46
  73 -237
  74 -350
  75 -3
  76 -84
  77 -4
  78 -196
  79 -78
  80 -27
  81 -129
  82 -51
  83 -7
  84 -82
  85 -190
  86 -189
  87 -29
  88 -123
  89 -103
  90 -62
  91 -117
  92 -31
  93 -49
  94 -9
  95 -124
  96 -107
  97 -28
  98 -56
  99 -250
  100 -135
LOCATION_COORD_SECTION
  0 0 0
  1 79 -58
  2 -6 6
  3 -16 -34
  4 -91 -101
  5 72 -62
  6 -61 -47
  7 -62 55
  8 -7 50
  9 -79 51
  10 -78 51
  11 -10 5
  12 91 -6
  13 -24 18
  14 -15 92
  15 -86 -4
  16 -58 62
  17 18 23
  18 -10 51
  19 -96 41
  20 -3 5
  21 95 -40
  22 -84 69
  23 76 -59
  24 18 -1
  25 -58 67
  26 -38 29
  27 68 48
  28 28 56
  29 -17 81
  30 91 4
  31 -88 25
  32 56 -60
  33 -64 -1
  34 -90 76
  35 -45 -20
  36 61 59
  37 -95 50
  38 -10 -61
  39 91 -49
  40 70 -98
  41 47 -61
  42 -65 -6
  43 -65 67
  44 -44 32
  45 -2 27
  46 -98 46
  47 -13 4
  48 93 87
  49 11 -96
  50 80 -51
  51 60 -5
  52 37 71
  53 -34 17
  54 68 54
  55 -99 43
  56 87 9
  57 58 90
  58 -97 -104
  59 73 8
  60 -59 -4
  61 48 77
  62 -36 35
  63 68 50
  64 -100 50
  65 -11 5
  66 91 -46
  67 -93 -108
  68 79 90
  69 -62 7
  70 -63 -14
  71 -30 -69
  72 -16 48
  73 -99 42
  74 -10 3
  75 -34 55
  76 -87 -101
  77 13 -55
  78 0 55
  79 -61 73
  80 -38 -65
  81 70 51
  82 -100 48
  83 -88 10
  84 99 -41
  85 -97 -11
  86 73 -60
  87 -59 -7
  88 -63 67
  89 -28 21
  90 61 48
  91 -94 49
  92 5 3
  93 95 -45
  94 -85 -108
  95 99 -55
  96 -86 90
  97 -62 70
  98 -34 32
  99 56 58
  100 -100 49
DEPOT_LOCATION_SECTION
  0 0
VISIT_LOCATION_SECTION
  1 1
  2 2
  3 3
  4 4
  5 5
  6 6
  7 7
  8 8
  9 9
  10 10
  11 11
  12 12
  13 13
  14 14
  15 15
  16 16
  17 17
  18 18
  19 19
  20 20
  21 21
  22 22
  23 23
  24 24
  25 25
  26 26
  27 27
  28 28
  29 29
  30 30
  31 31
  32 32
  33 33
  34 34
  35 35
  36 36
  37 37
  38 38
  39 39
  40 40
  41 41
  42 42
  43 43
  44 44
  45 45
  46 46
  47 47
  48 48
  49 49
  50 50
  51 51
  52 52
  53 53
  54 54
  55 55
  56 56
  57 57
  58 58
  59 59
  60 60
  61 61
  62 62
  63 63
  64 64
  65 65
  66 66
  67 67
  68 68
  69 69
  70 70
  71 71
  72 72
  73 73
  74 74
  75 75
  76 76
  77 77
  78 78
  79 79
  80 80
  81 81
  82 82
  83 83
  84 84
  85 85
  86 86
  87 87
  88 88
  89 89
  90 90
  91 91
  92 92
  93 93
  94 94
  95 95
  96 96
  97 97
  98 98
  99 99
  100 100
DURATION_SECTION
  1 10
  2 10
  3 10
  4 10
  5 10
  6 10
  7 10
  8 10
  9 10
  10 10
  11 10
  12 10
  13 10
  14 10
  15 10
  16 10
  17 10
  18 10
  19 10
  20 10
  21 10
  22 10
  23 10
  24 10
  25 10
  26 10
  27 10
  28 10
  29 10
  30 10
  31 10
  32 10
  33 10
  34 10
  35 10
  36 10
  37 10
  38 10
  39 10
  40 10
  41 10
  42 10
  43 10
  44 10
  45 10
  46 10
  47 10
  48 10
  49 10
  50 10
  51 10
  52 10
  53 10
  54 10
  55 10
  56 10
  57 10
  58 10
  59 10
  60 10
  61 10
  62 10
  63 10
  64 10
  65 10
  66 10
  67 10
  68 10
  69 10
  70 10
  71 10
  72 10
  73 10
  74 10
  75 10
  76 10
  77 10
  78 10
  79 10
  80 10
  81 10
  82 10
  83 10
  84 10
  85 10
  86 10
  87 10
  88 10
  89 10
  90 10
  91 10
  92 10
  93 10
  94 10
  95 10
  96 10
  97 10
  98 10
  99 10
  100 10
DEPOT_TIME_WINDOW_SECTION
  0 0 939
COMMENT: TIMESTEP: 7
TIME_AVAIL_SECTION
  1 803
  2 101
  3 604
  4 550
  5 753
  6 621
  7 97
  8 544
  9 659
  10 185
  11 809
  12 174
  13 227
  14 398
  15 866
  16 223
  17 869
  18 162
  19 92
  20 749
  21 174
  22 717
  23 28
  24 756
  25 480
  26 249
  27 171
  28 693
  29 47
  30 860
  31 563
  32 780
  33 695
  34 530
  35 342
  36 930
  37 285
  38 663
  39 615
  40 734
  41 779
  42 593
  43 566
  44 21
  45 19
  46 205
  47 576
  48 608
  49 602
  50 880
  51 43
  52 428
  53 839
  54 55
  55 36
  56 291
  57 552
  58 716
  59 270
  60 267
  61 287
  62 781
  63 163
  64 644
  65 891
  66 111
  67 241
  68 772
  69 751
  70 577
  71 254
  72 343
  73 333
  74 88
  75 285
  76 283
  77 344
  78 830
  79 707
  80 826
  81 740
  82 230
  83 199
  84 140
  85 555
  86 85
  87 897
  88 274
  89 208
  90 339
  91 58
  92 376
  93 88
  94 276
  95 234
  96 499
  97 335
  98 15
  99 285
  100 581
EOF