VRPTEST okul_100h_skewed_structured_D.vrp
COMMENT: 
COMMENT: Best known objective: 2147483647
NAME: okul_100h_skewed_structured_D.vrp
NUM_DEPOTS: 1
NUM_CAPACITIES: 1
NUM_VISITS: 100
NUM_LOCATIONS: 101
NUM_VEHICLES: 50
CAPACITIES: 1000
DATA_SECTION
DEPOTS
  0
DEMAND_SECTION
  1 -1
  2 -433
  3 -325
  4 -29
  5 -108
  6 -73
  7 -1
  8 -53
  9 -1
  10 -56
  11 -3
  12 -45
  13 -305
  14 -141
  15 -92
  16 -19
  17 -24
  18 -31
  19 -10
  20 -69
  21 -28
  22 -37
  23 -340
  24 -135
  25 -30
  26 -77
  27 -102
  28 -164
  29 -199
  30 -19
  31 -112
  32 -57
  33 -136
  34 -158
  35 -160
  36 -10
  37 -37
  38 -78
  39 -21
  40 -132
  41 -92
  42 -53
  43 -5
  44 -30
  45 -44
  46 -57
  47 -71
  48 -81
  49 -72
  50 -40
  51 -31
  52 -57
  53 -15
  54 -28
  55 -14
  56 -31
  57 -47
  58 -303
  59 -99
  60 -55
  61 -90
  62 -87
  63 -158
  64 -269
  65 -141
  66 -148
  67 -140
  68 -5
  69 -35
  70 -64
  71 -24
  72 -202
  73 -15
  74 -113
  75 -41
  76 -37
  77 -102
  78 -423
  79 -57
  80 -19
  81 -18
  82 -24
  83 -76
  84 -166
  85 -46
  86 -34
  87 -36
  88 -15
  89 -19
  90 -58
  91 -6
  92 -32
  93 -117
  94 -29
  95 -7
  96 -42
  97 -87
  98 -18
  99 -207
  100 -26
LOCATION_COORD_SECTION
  0 0 0
  1 -85 76
  2 -81 38
  3 -90 10
  4 43 -14
  5 13 -47
  6 1 76
  7 -60 80
  8 51 66
  9 16 -5
  10 -87 60
  11 -72 -54
  12 -47 88
  13 14 -13
  14 17 -47
  15 10 67
  16 -37 80
  17 42 -50
  18 12 -2
  19 -92 66
  20 -52 34
  21 -53 88
  22 44 -15
  23 12 -68
  24 -2 68
  25 -37 81
  26 50 69
  27 13 -4
  28 -87 4
  29 -28 -51
  30 -52 9
  31 44 -10
  32 11 -45
  33 5 12
  34 -43 72
  35 -66 80
  36 13 -12
  37 -89 71
  38 -5 33
  39 -40 6
  40 44 -33
  41 10 -43
  42 -2 67
  43 -38 78
  44 34 70
  45 5 -3
  46 74 61
  47 -80 55
  48 -21 34
  49 35 2
  50 -75 2
  51 5 62
  52 -36 -39
  53 48 -50
  54 15 -9
  55 -91 63
  56 -82 -63
  57 64 -17
  58 40 -20
  59 -88 -53
  60 41 70
  61 68 86
  62 51 -52
  63 11 -1
  64 -81 -94
  65 -81 95
  66 -51 4
  67 38 -41
  68 13 -48
  69 -68 75
  70 -39 80
  71 54 -61
  72 13 -78
  73 22 70
  74 -77 30
  75 64 7
  76 92 36
  77 -92 7
  78 21 65
  79 -40 26
  80 54 3
  81 10 -7
  82 -86 66
  83 -83 34
  84 -36 6
  85 42 -20
  86 13 -42
  87 5 64
  88 -3 77
  89 22 -52
  90 12 -39
  91 -98 34
  92 -77 36
  93 -44 79
  94 40 32
  95 15 -43
  96 4 48
  97 -46 73
  98 -88 -45
  99 -54 -7
  100 6 66
DEPOT_LOCATION_SECTION
  0 0
VISIT_LOCATION_SECTION
  1 1
  2 2
  3 3
  4 4
  5 5
  6 6
  7 7
  8 8
  9 9
  10 10
  11 11
  12 12
  13 13
  14 14
  15 15
  16 16
  17 17
  18 18
  19 19
  20 20
  21 21
  22 22
  23 23
  24 24
  25 25
  26 26
  27 27
  28 28
  29 29
  30 30
  31 31
  32 32
  33 33
  34 34
  35 35
  36 36
  37 37
  38 38
  39 39
  40 40
  41 41
  42 42
  43 43
  44 44
  45 45
  46 46
  47 47
  48 48
  49 49
  50 50
  51 51
  52 52
  53 53
  54 54
  55 55
  56 56
  57 57
  58 58
  59 59
  60 60
  61 61
  62 62
  63 63
  64 64
  65 65
  66 66
  67 67
  68 68
  69 69
  70 70
  71 71
  72 72
  73 73
  74 74
  75 75
  76 76
  77 77
  78 78
  79 79
  80 80
  81 81
  82 82
  83 83
  84 84
  85 85
  86 86
  87 87
  88 88
  89 89
  90 90
  91 91
  92 92
  93 93
  94 94
  95 95
  96 96
  97 97
  98 98
  99 99
  100 100
DURATION_SECTION
  1 10
  2 10
  3 10
  4 10
  5 10
  6 10
  7 10
  8 10
  9 10
  10 10
  11 10
  12 10
  13 10
  14 10
  15 10
  16 10
  17 10
  18 10
  19 10
  20 10
  21 10
  22 10
  23 10
  24 10
  25 10
  26 10
  27 10
  28 10
  29 10
  30 10
  31 10
  32 10
  33 10
  34 10
  35 10
  36 10
  37 10
  38 10
  39 10
  40 10
  41 10
  42 10
  43 10
  44 10
  45 10
  46 10
  47 10
  48 10
  49 10
  50 10
  51 10
  52 10
  53 10
  54 10
  55 10
  56 10
  57 10
  58 10
  59 10
  60 10
  61 10
  62 10
  63 10
  64 10
  65 10
  66 10
  67 10
  68 10
  69 10
  70 10
  71 10
  72 10
  73 10
  74 10
  75 10
  76 10
  77 10
  78 10
  79 10
  80 10
  81 10
  82 10
  83 10
  84 10
  85 10
  86 10
  87 10
  88 10
  89 10
  90 10
  91 10
  92 10
  93 10
  94 10
  95 10
  96 10
  97 10
  98 10
  99 10
  100 10
DEPOT_TIME_WINDOW_SECTION
  0 0 939
COMMENT: TIMESTEP: 7
TIME_AVAIL_SECTION
  1 758
  2 285
  3 604
  4 510
  5 819
  6 476
  7 211
  8 665
  9 631
  10 371
  11 770
  12 875
  13 569
  14 385
  15 792
  16 336
  17 68
  18 786
  19 179
  20 392
  21 531
  22 48
  23 547
  24 163
  25 643
  26 262
  27 443
  28 447
  29 176
  30 325
  31 645
  32 680
  33 595
  34 46
  35 128
  36 526
  37 339
  38 610
  39 811
  40 316
  41 171
  42 145
  43 392
  44 271
  45 706
  46 523
  47 200
  48 778
  49 52
  50 774
  51 827
  52 764
  53 835
  54 401
  55 465
  56 762
  57 596
  58 907
  59 505
  60 158
  61 472
  62 887
  63 724
  64 577
  65 799
  66 300
  67 352
  68 866
  69 588
  70 591
  71 707
  72 365
  73 587
  74 235
  75 26
  76 304
  77 9
  78 412
  79 644
  80 176
  81 827
  82 444
  83 92
  84 370
  85 686
  86 645
  87 564
  88 336
  89 720
  90 49
  91 852
  92 322
  93 524
  94 409
  95 258
  96 110
  97 926
  98 870
  99 930
  100 522
EOF