VRPTEST okul_100n_normal_pseudoclustered_D.vrp
COMMENT: 
COMMENT: Best known objective: 2147483647
NAME: okul_100n_normal_pseudoclustered_D.vrp
NUM_DEPOTS: 1
NUM_CAPACITIES: 1
NUM_VISITS: 100
NUM_LOCATIONS: 101
NUM_VEHICLES: 50
CAPACITIES: 1000
DATA_SECTION
DEPOTS
  0
DEMAND_SECTION
  1 -130
  2 -79
  3 -140
  4 -119
  5 -107
  6 -144
  7 -157
  8 -141
  9 -146
  10 -69
  11 -122
  12 -174
  13 -73
  14 -162
  15 -101
  16 -107
  17 -135
  18 -156
  19 -106
  20 -171
  21 -88
  22 -119
  23 -103
  24 -120
  25 -105
  26 -139
  27 -102
  28 -116
  29 -123
  30 -119
  31 -167
  32 -91
  33 -56
  34 -113
  35 -169
  36 -176
  37 -77
  38 -95
  39 -136
  40 -171
  41 -133
  42 -122
  43 -152
  44 -95
  45 -127
  46 -131
  47 -95
  48 -89
  49 -127
  50 -161
  51 -87
  52 -86
  53 -142
  54 -136
  55 -140
  56 -138
  57 -134
  58 -121
  59 -119
  60 -112
  61 -144
  62 -154
  63 -161
  64 -138
  65 -133
  66 -123
  67 -125
  68 -118
  69 -118
  70 -105
  71 -118
  72 -109
  73 -155
  74 -96
  75 -118
  76 -146
  77 -90
  78 -131
  79 -110
  80 -181
  81 -131
  82 -66
  83 -176
  84 -173
  85 -164
  86 -161
  87 -81
  88 -94
  89 -119
  90 -144
  91 -102
  92 -160
  93 -167
  94 -157
  95 -118
  96 -107
  97 -180
  98 -115
  99 -127
  100 -90
LOCATION_COORD_SECTION
  0 0 0
  1 5 -12
  2 -73 -74
  3 95 -60
  4 -1 45
  5 52 88
  6 89 -13
  7 96 55
  8 62 13
  9 -97 77
  10 42 -32
  11 -52 53
  12 87 -36
  13 9 80
  14 3 -18
  15 -74 -72
  16 99 -60
  17 2 47
  18 60 85
  19 86 -12
  20 93 60
  21 63 14
  22 -91 79
  23 39 -31
  24 -60 51
  25 88 -34
  26 11 81
  27 3 -15
  28 -75 -75
  29 94 -59
  30 4 47
  31 59 85
  32 89 -13
  33 89 57
  34 63 13
  35 -97 79
  36 45 -36
  37 -56 55
  38 86 -37
  39 11 83
  40 2 -8
  41 -75 -75
  42 99 -60
  43 -2 46
  44 61 86
  45 85 -15
  46 99 57
  47 66 18
  48 -101 80
  49 45 -31
  50 -55 55
  51 86 -33
  52 12 83
  53 3 -14
  54 -73 -75
  55 98 -61
  56 -1 47
  57 63 87
  58 86 -12
  59 99 55
  60 66 12
  61 -98 78
  62 44 -34
  63 -53 58
  64 87 -34
  65 14 79
  66 4 -11
  67 -75 -75
  68 97 -64
  69 4 49
  70 59 86
  71 87 -15
  72 90 58
  73 64 12
  74 -95 78
  75 43 -35
  76 -51 52
  77 91 -33
  78 13 79
  79 6 -13
  80 -72 -76
  81 92 -58
  82 0 47
  83 59 84
  84 86 -13
  85 96 58
  86 63 20
  87 -98 82
  88 40 -36
  89 -59 57
  90 87 -32
  91 12 83
  92 4 -14
  93 -73 -78
  94 97 -59
  95 1 49
  96 58 85
  97 86 -12
  98 94 55
  99 62 17
  100 -98 78
DEPOT_LOCATION_SECTION
  0 0
VISIT_LOCATION_SECTION
  1 1
  2 2
  3 3
  4 4
  5 5
  6 6
  7 7
  8 8
  9 9
  10 10
  11 11
  12 12
  13 13
  14 14
  15 15
  16 16
  17 17
  18 18
  19 19
  20 20
  21 21
  22 22
  23 23
  24 24
  25 25
  26 26
  27 27
  28 28
  29 29
  30 30
  31 31
  32 32
  33 33
  34 34
  35 35
  36 36
  37 37
  38 38
  39 39
  40 40
  41 41
  42 42
  43 43
  44 44
  45 45
  46 46
  47 47
  48 48
  49 49
  50 50
  51 51
  52 52
  53 53
  54 54
  55 55
  56 56
  57 57
  58 58
  59 59
  60 60
  61 61
  62 62
  63 63
  64 64
  65 65
  66 66
  67 67
  68 68
  69 69
  70 70
  71 71
  72 72
  73 73
  74 74
  75 75
  76 76
  77 77
  78 78
  79 79
  80 80
  81 81
  82 82
  83 83
  84 84
  85 85
  86 86
  87 87
  88 88
  89 89
  90 90
  91 91
  92 92
  93 93
  94 94
  95 95
  96 96
  97 97
  98 98
  99 99
  100 100
DURATION_SECTION
  1 10
  2 10
  3 10
  4 10
  5 10
  6 10
  7 10
  8 10
  9 10
  10 10
  11 10
  12 10
  13 10
  14 10
  15 10
  16 10
  17 10
  18 10
  19 10
  20 10
  21 10
  22 10
  23 10
  24 10
  25 10
  26 10
  27 10
  28 10
  29 10
  30 10
  31 10
  32 10
  33 10
  34 10
  35 10
  36 10
  37 10
  38 10
  39 10
  40 10
  41 10
  42 10
  43 10
  44 10
  45 10
  46 10
  47 10
  48 10
  49 10
  50 10
  51 10
  52 10
  53 10
  54 10
  55 10
  56 10
  57 10
  58 10
  59 10
  60 10
  61 10
  62 10
  63 10
  64 10
  65 10
  66 10
  67 10
  68 10
  69 10
  70 10
  71 10
  72 10
  73 10
  74 10
  75 10
  76 10
  77 10
  78 10
  79 10
  80 10
  81 10
  82 10
  83 10
  84 10
  85 10
  86 10
  87 10
  88 10
  89 10
  90 10
  91 10
  92 10
  93 10
  94 10
  95 10
  96 10
  97 10
  98 10
  99 10
  100 10
DEPOT_TIME_WINDOW_SECTION
  0 0 979
COMMENT: TIMESTEP: 7
TIME_AVAIL_SECTION
  1 333
  2 431
  3 231
  4 176
  5 885
  6 744
  7 384
  8 508
  9 641
  10 815
  11 152
  12 800
  13 394
  14 501
  15 128
  16 885
  17 356
  18 513
  19 763
  20 823
  21 786
  22 506
  23 791
  24 726
  25 582
  26 755
  27 925
  28 915
  29 88
  30 252
  31 9
  32 652
  33 484
  34 642
  35 325
  36 189
  37 421
  38 365
  39 831
  40 180
  41 967
  42 487
  43 561
  44 271
  45 134
  46 530
  47 237
  48 602
  49 263
  50 214
  51 585
  52 815
  53 190
  54 839
  55 572
  56 299
  57 206
  58 954
  59 528
  60 95
  61 905
  62 394
  63 65
  64 381
  65 758
  66 72
  67 262
  68 598
  69 203
  70 379
  71 48
  72 672
  73 901
  74 613
  75 299
  76 498
  77 692
  78 860
  79 751
  80 770
  81 118
  82 80
  83 336
  84 219
  85 475
  86 78
  87 358
  88 974
  89 533
  90 789
  91 512
  92 506
  93 303
  94 324
  95 851
  96 101
  97 527
  98 106
  99 525
  100 585
EOF