VRPTEST okul_100i_normal_structured_D.vrp
COMMENT: 
COMMENT: Best known objective: 2147483647
NAME: okul_100i_normal_structured_D.vrp
NUM_DEPOTS: 1
NUM_CAPACITIES: 1
NUM_VISITS: 100
NUM_LOCATIONS: 101
NUM_VEHICLES: 50
CAPACITIES: 1000
DATA_SECTION
DEPOTS
  0
DEMAND_SECTION
  1 -149
  2 -97
  3 -126
  4 -104
  5 -111
  6 -131
  7 -146
  8 -151
  9 -154
  10 -154
  11 -90
  12 -163
  13 -144
  14 -132
  15 -143
  16 -142
  17 -138
  18 -124
  19 -141
  20 -107
  21 -126
  22 -88
  23 -140
  24 -140
  25 -110
  26 -157
  27 -114
  28 -147
  29 -156
  30 -100
  31 -128
  32 -140
  33 -104
  34 -190
  35 -97
  36 -73
  37 -131
  38 -69
  39 -116
  40 -95
  41 -161
  42 -102
  43 -136
  44 -136
  45 -138
  46 -97
  47 -111
  48 -123
  49 -151
  50 -131
  51 -121
  52 -113
  53 -136
  54 -122
  55 -99
  56 -140
  57 -131
  58 -66
  59 -104
  60 -185
  61 -117
  62 -126
  63 -95
  64 -149
  65 -134
  66 -108
  67 -118
  68 -134
  69 -89
  70 -151
  71 -133
  72 -103
  73 -131
  74 -151
  75 -107
  76 -127
  77 -154
  78 -100
  79 -131
  80 -169
  81 -116
  82 -118
  83 -184
  84 -93
  85 -143
  86 -81
  87 -166
  88 -133
  89 -99
  90 -116
  91 -130
  92 -146
  93 -151
  94 -139
  95 -153
  96 -189
  97 -150
  98 -127
  99 -131
  100 -115
LOCATION_COORD_SECTION
  0 0 0
  1 -59 -3
  2 -8 95
  3 3 -28
  4 87 31
  5 99 -59
  6 58 9
  7 47 -91
  8 -99 69
  9 -40 -53
  10 70 85
  11 -37 52
  12 89 73
  13 23 -85
  14 87 -1
  15 -49 73
  16 3 -32
  17 81 29
  18 97 94
  19 83 -45
  20 43 -87
  21 -99 -10
  22 -40 -55
  23 -19 29
  24 -36 52
  25 63 -31
  26 18 -9
  27 76 -2
  28 68 62
  29 37 -71
  30 76 57
  31 98 -64
  32 82 -42
  33 26 -95
  34 -94 71
  35 -39 -53
  36 92 100
  37 -69 45
  38 63 -67
  39 56 -24
  40 77 -6
  41 -2 46
  42 -66 -27
  43 74 27
  44 100 -52
  45 -47 -42
  46 47 -81
  47 -93 -45
  48 -41 -57
  49 93 -84
  50 36 56
  51 86 -51
  52 22 -28
  53 73 -56
  54 48 65
  55 2 80
  56 44 29
  57 97 -61
  58 92 -43
  59 45 -89
  60 -96 80
  61 -42 -54
  62 -17 -23
  63 27 -53
  64 80 -31
  65 24 -23
  66 76 -2
  67 -7 65
  68 3 -70
  69 -77 32
  70 91 -66
  71 83 -74
  72 43 -91
  73 -94 73
  74 -39 -55
  75 -19 39
  76 -40 -42
  77 -29 -1
  78 26 -25
  79 -12 -2
  80 -2 15
  81 -1 -58
  82 76 27
  83 100 -62
  84 84 -41
  85 43 -88
  86 -85 70
  87 -47 -52
  88 -15 -21
  89 -38 53
  90 90 -66
  91 29 70
  92 76 -2
  93 -2 68
  94 3 -27
  95 77 -44
  96 -77 34
  97 -66 -43
  98 42 -90
  99 -5 67
  100 -43 -24
DEPOT_LOCATION_SECTION
  0 0
VISIT_LOCATION_SECTION
  1 1
  2 2
  3 3
  4 4
  5 5
  6 6
  7 7
  8 8
  9 9
  10 10
  11 11
  12 12
  13 13
  14 14
  15 15
  16 16
  17 17
  18 18
  19 19
  20 20
  21 21
  22 22
  23 23
  24 24
  25 25
  26 26
  27 27
  28 28
  29 29
  30 30
  31 31
  32 32
  33 33
  34 34
  35 35
  36 36
  37 37
  38 38
  39 39
  40 40
  41 41
  42 42
  43 43
  44 44
  45 45
  46 46
  47 47
  48 48
  49 49
  50 50
  51 51
  52 52
  53 53
  54 54
  55 55
  56 56
  57 57
  58 58
  59 59
  60 60
  61 61
  62 62
  63 63
  64 64
  65 65
  66 66
  67 67
  68 68
  69 69
  70 70
  71 71
  72 72
  73 73
  74 74
  75 75
  76 76
  77 77
  78 78
  79 79
  80 80
  81 81
  82 82
  83 83
  84 84
  85 85
  86 86
  87 87
  88 88
  89 89
  90 90
  91 91
  92 92
  93 93
  94 94
  95 95
  96 96
  97 97
  98 98
  99 99
  100 100
DURATION_SECTION
  1 10
  2 10
  3 10
  4 10
  5 10
  6 10
  7 10
  8 10
  9 10
  10 10
  11 10
  12 10
  13 10
  14 10
  15 10
  16 10
  17 10
  18 10
  19 10
  20 10
  21 10
  22 10
  23 10
  24 10
  25 10
  26 10
  27 10
  28 10
  29 10
  30 10
  31 10
  32 10
  33 10
  34 10
  35 10
  36 10
  37 10
  38 10
  39 10
  40 10
  41 10
  42 10
  43 10
  44 10
  45 10
  46 10
  47 10
  48 10
  49 10
  50 10
  51 10
  52 10
  53 10
  54 10
  55 10
  56 10
  57 10
  58 10
  59 10
  60 10
  61 10
  62 10
  63 10
  64 10
  65 10
  66 10
  67 10
  68 10
  69 10
  70 10
  71 10
  72 10
  73 10
  74 10
  75 10
  76 10
  77 10
  78 10
  79 10
  80 10
  81 10
  82 10
  83 10
  84 10
  85 10
  86 10
  87 10
  88 10
  89 10
  90 10
  91 10
  92 10
  93 10
  94 10
  95 10
  96 10
  97 10
  98 10
  99 10
  100 10
DEPOT_TIME_WINDOW_SECTION
  0 0 979
COMMENT: TIMESTEP: 7
TIME_AVAIL_SECTION
  1 116
  2 374
  3 225
  4 921
  5 529
  6 534
  7 33
  8 846
  9 905
  10 339
  11 586
  12 13
  13 586
  14 347
  15 508
  16 427
  17 56
  18 55
  19 322
  20 199
  21 852
  22 758
  23 274
  24 411
  25 822
  26 510
  27 810
  28 833
  29 765
  30 733
  31 854
  32 560
  33 556
  34 11
  35 49
  36 853
  37 580
  38 548
  39 43
  40 885
  41 518
  42 297
  43 735
  44 276
  45 430
  46 289
  47 369
  48 659
  49 341
  50 30
  51 910
  52 816
  53 313
  54 380
  55 978
  56 577
  57 880
  58 744
  59 425
  60 52
  61 860
  62 200
  63 216
  64 336
  65 467
  66 431
  67 411
  68 397
  69 76
  70 249
  71 532
  72 558
  73 41
  74 615
  75 281
  76 428
  77 446
  78 364
  79 491
  80 823
  81 842
  82 299
  83 661
  84 665
  85 305
  86 636
  87 183
  88 979
  89 632
  90 215
  91 844
  92 326
  93 856
  94 904
  95 754
  96 500
  97 12
  98 113
  99 242
  100 91
EOF