VRPTEST okul_100d_normal_uniform_D.vrp
COMMENT: 
COMMENT: Best known objective: 2147483647
NAME: okul_100d_normal_uniform_D.vrp
NUM_DEPOTS: 1
NUM_CAPACITIES: 1
NUM_VISITS: 100
NUM_LOCATIONS: 101
NUM_VEHICLES: 50
CAPACITIES: 1000
DATA_SECTION
DEPOTS
  0
DEMAND_SECTION
  1 -135
  2 -104
  3 -113
  4 -112
  5 -143
  6 -97
  7 -99
  8 -141
  9 -99
  10 -114
  11 -131
  12 -140
  13 -95
  14 -169
  15 -130
  16 -83
  17 -96
  18 -119
  19 -125
  20 -119
  21 -134
  22 -103
  23 -146
  24 -147
  25 -157
  26 -71
  27 -99
  28 -133
  29 -122
  30 -119
  31 -79
  32 -145
  33 -138
  34 -100
  35 -100
  36 -92
  37 -130
  38 -84
  39 -84
  40 -133
  41 -136
  42 -110
  43 -64
  44 -107
  45 -94
  46 -112
  47 -138
  48 -125
  49 -136
  50 -108
  51 -148
  52 -135
  53 -176
  54 -135
  55 -112
  56 -139
  57 -127
  58 -78
  59 -169
  60 -97
  61 -127
  62 -181
  63 -110
  64 -153
  65 -86
  66 -159
  67 -141
  68 -105
  69 -89
  70 -174
  71 -138
  72 -109
  73 -92
  74 -136
  75 -105
  76 -92
  77 -121
  78 -119
  79 -96
  80 -137
  81 -118
  82 -131
  83 -149
  84 -141
  85 -106
  86 -153
  87 -117
  88 -143
  89 -132
  90 -124
  91 -93
  92 -126
  93 -122
  94 -153
  95 -95
  96 -142
  97 -106
  98 -120
  99 -170
  100 -132
LOCATION_COORD_SECTION
  0 0 0
  1 -63 74
  2 28 -42
  3 -26 12
  4 -10 -88
  5 -1 -82
  6 -36 25
  7 -3 -91
  8 -98 -16
  9 7 79
  10 18 -95
  11 -65 -9
  12 63 -36
  13 31 -42
  14 43 -65
  15 -69 81
  16 -54 43
  17 1 -15
  18 57 -22
  19 -86 34
  20 6 65
  21 -95 49
  22 7 -55
  23 -59 42
  24 -78 53
  25 -52 -7
  26 -8 43
  27 -95 -32
  28 62 -54
  29 -96 -96
  30 50 -50
  31 89 -35
  32 -82 -48
  33 44 37
  34 -79 -92
  35 -59 -65
  36 -53 -28
  37 73 84
  38 41 -96
  39 -19 25
  40 58 -70
  41 46 63
  42 -70 -1
  43 36 -38
  44 -34 77
  45 42 -53
  46 98 58
  47 20 -41
  48 -71 96
  49 -77 22
  50 -3 57
  51 -62 -52
  52 -25 -29
  53 -76 -98
  54 56 -6
  55 88 23
  56 14 -37
  57 -22 -55
  58 48 -58
  59 -3 15
  60 -4 12
  61 -1 -7
  62 -53 92
  63 -4 77
  64 74 59
  65 -47 66
  66 15 49
  67 3 88
  68 -82 -90
  69 43 -7
  70 -7 83
  71 12 46
  72 -12 -56
  73 91 -68
  74 -57 -88
  75 78 11
  76 38 50
  77 14 -32
  78 89 -69
  79 -43 -33
  80 82 -42
  81 -18 62
  82 -74 69
  83 -74 -90
  84 -72 40
  85 72 18
  86 71 -44
  87 30 96
  88 15 -43
  89 -51 31
  90 17 8
  91 32 -22
  92 98 8
  93 -20 -78
  94 17 90
  95 22 -66
  96 -12 77
  97 -51 -41
  98 -15 99
  99 43 50
  100 18 -25
DEPOT_LOCATION_SECTION
  0 0
VISIT_LOCATION_SECTION
  1 1
  2 2
  3 3
  4 4
  5 5
  6 6
  7 7
  8 8
  9 9
  10 10
  11 11
  12 12
  13 13
  14 14
  15 15
  16 16
  17 17
  18 18
  19 19
  20 20
  21 21
  22 22
  23 23
  24 24
  25 25
  26 26
  27 27
  28 28
  29 29
  30 30
  31 31
  32 32
  33 33
  34 34
  35 35
  36 36
  37 37
  38 38
  39 39
  40 40
  41 41
  42 42
  43 43
  44 44
  45 45
  46 46
  47 47
  48 48
  49 49
  50 50
  51 51
  52 52
  53 53
  54 54
  55 55
  56 56
  57 57
  58 58
  59 59
  60 60
  61 61
  62 62
  63 63
  64 64
  65 65
  66 66
  67 67
  68 68
  69 69
  70 70
  71 71
  72 72
  73 73
  74 74
  75 75
  76 76
  77 77
  78 78
  79 79
  80 80
  81 81
  82 82
  83 83
  84 84
  85 85
  86 86
  87 87
  88 88
  89 89
  90 90
  91 91
  92 92
  93 93
  94 94
  95 95
  96 96
  97 97
  98 98
  99 99
  100 100
DURATION_SECTION
  1 10
  2 10
  3 10
  4 10
  5 10
  6 10
  7 10
  8 10
  9 10
  10 10
  11 10
  12 10
  13 10
  14 10
  15 10
  16 10
  17 10
  18 10
  19 10
  20 10
  21 10
  22 10
  23 10
  24 10
  25 10
  26 10
  27 10
  28 10
  29 10
  30 10
  31 10
  32 10
  33 10
  34 10
  35 10
  36 10
  37 10
  38 10
  39 10
  40 10
  41 10
  42 10
  43 10
  44 10
  45 10
  46 10
  47 10
  48 10
  49 10
  50 10
  51 10
  52 10
  53 10
  54 10
  55 10
  56 10
  57 10
  58 10
  59 10
  60 10
  61 10
  62 10
  63 10
  64 10
  65 10
  66 10
  67 10
  68 10
  69 10
  70 10
  71 10
  72 10
  73 10
  74 10
  75 10
  76 10
  77 10
  78 10
  79 10
  80 10
  81 10
  82 10
  83 10
  84 10
  85 10
  86 10
  87 10
  88 10
  89 10
  90 10
  91 10
  92 10
  93 10
  94 10
  95 10
  96 10
  97 10
  98 10
  99 10
  100 10
DEPOT_TIME_WINDOW_SECTION
  0 0 979
COMMENT: TIMESTEP: 7
TIME_AVAIL_SECTION
  1 509
  2 737
  3 687
  4 31
  5 828
  6 531
  7 693
  8 727
  9 447
  10 775
  11 573
  12 492
  13 106
  14 493
  15 813
  16 705
  17 665
  18 575
  19 697
  20 349
  21 773
  22 603
  23 106
  24 783
  25 378
  26 489
  27 825
  28 510
  29 439
  30 123
  31 468
  32 636
  33 383
  34 67
  35 621
  36 922
  37 908
  38 345
  39 219
  40 887
  41 505
  42 521
  43 463
  44 682
  45 443
  46 519
  47 227
  48 884
  49 140
  50 316
  51 112
  52 440
  53 358
  54 899
  55 481
  56 885
  57 937
  58 606
  59 724
  60 112
  61 261
  62 717
  63 24
  64 677
  65 678
  66 484
  67 290
  68 865
  69 462
  70 697
  71 763
  72 779
  73 861
  74 20
  75 405
  76 756
  77 259
  78 619
  79 793
  80 47
  81 523
  82 732
  83 135
  84 273
  85 653
  86 812
  87 963
  88 492
  89 514
  90 965
  91 235
  92 948
  93 142
  94 472
  95 797
  96 942
  97 468
  98 738
  99 397
  100 713
EOF