VRPTEST okul_100o_uniform_structured_D.vrp
COMMENT: 
COMMENT: Best known objective: 2147483647
NAME: okul_100o_uniform_structured_D.vrp
NUM_DEPOTS: 1
NUM_CAPACITIES: 1
NUM_VISITS: 100
NUM_LOCATIONS: 101
NUM_VEHICLES: 50
CAPACITIES: 1000
DATA_SECTION
DEPOTS
  0
DEMAND_SECTION
  1 -13
  2 -209
  3 -220
  4 -250
  5 -207
  6 -75
  7 -25
  8 -182
  9 -72
  10 -173
  11 -203
  12 -31
  13 -95
  14 -4
  15 -101
  16 -140
  17 -109
  18 -215
  19 -129
  20 -200
  21 -2
  22 -217
  23 -47
  24 -125
  25 -48
  26 -76
  27 -121
  28 -218
  29 -23
  30 -76
  31 -7
  32 -35
  33 -124
  34 -243
  35 -248
  36 -247
  37 -6
  38 -69
  39 -164
  40 -13
  41 -64
  42 -59
  43 -249
  44 -174
  45 -30
  46 -87
  47 -77
  48 -170
  49 -98
  50 -95
  51 -122
  52 -68
  53 -106
  54 -21
  55 -25
  56 -204
  57 -50
  58 -136
  59 -36
  60 -48
  61 -153
  62 -210
  63 -194
  64 -175
  65 -231
  66 -204
  67 -77
  68 -160
  69 -170
  70 -218
  71 -83
  72 -53
  73 -104
  74 -137
  75 -27
  76 -155
  77 -141
  78 -59
  79 -20
  80 -155
  81 -225
  82 -225
  83 -182
  84 -119
  85 -244
  86 -65
  87 -9
  88 -65
  89 -107
  90 -110
  91 -113
  92 -153
  93 -250
  94 -10
  95 -124
  96 -143
  97 -215
  98 -12
  99 -92
  100 -54
LOCATION_COORD_SECTION
  0 0 0
  1 -28 -50
  2 99 69
  3 87 -98
  4 -97 -88
  5 -34 -54
  6 -4 8
  7 11 -87
  8 -27 54
  9 1 -66
  10 -14 32
  11 -50 -39
  12 23 -53
  13 -28 80
  14 98 -52
  15 -34 -101
  16 -85 60
  17 -44 10
  18 -1 11
  19 12 -89
  20 -90 -90
  21 -2 -61
  22 72 28
  23 -63 -50
  24 9 -53
  25 -31 82
  26 99 -50
  27 -44 -106
  28 -87 -83
  29 -60 15
  30 -4 64
  31 13 -86
  32 -26 -78
  33 -8 17
  34 42 8
  35 -49 -37
  36 7 -46
  37 -26 81
  38 -6 -48
  39 -34 -54
  40 -89 78
  41 -29 41
  42 -63 7
  43 13 -90
  44 -26 57
  45 -1 -64
  46 46 66
  47 -46 -36
  48 8 -50
  49 -23 81
  50 101 -52
  51 -74 -103
  52 61 -83
  53 -39 17
  54 -30 -73
  55 9 -47
  56 -26 -84
  57 -72 -21
  58 43 25
  59 -49 11
  60 5 60
  61 -28 81
  62 17 -53
  63 -40 -99
  64 -88 -84
  65 -44 19
  66 -2 7
  67 -33 -93
  68 -25 -82
  69 -4 -61
  70 42 30
  71 -82 45
  72 9 -48
  73 -30 78
  74 38 -52
  75 -34 -100
  76 -83 15
  77 30 12
  78 86 5
  79 12 -91
  80 -27 -84
  81 -6 65
  82 47 11
  83 77 -37
  84 -52 -50
  85 -27 19
  86 99 -54
  87 -77 24
  88 -85 44
  89 -42 9
  90 -5 -85
  91 14 -88
  92 -9 -81
  93 -10 -61
  94 45 33
  95 -55 -45
  96 10 -49
  97 -48 81
  98 -33 -51
  99 -33 -96
  100 2 -83
DEPOT_LOCATION_SECTION
  0 0
VISIT_LOCATION_SECTION
  1 1
  2 2
  3 3
  4 4
  5 5
  6 6
  7 7
  8 8
  9 9
  10 10
  11 11
  12 12
  13 13
  14 14
  15 15
  16 16
  17 17
  18 18
  19 19
  20 20
  21 21
  22 22
  23 23
  24 24
  25 25
  26 26
  27 27
  28 28
  29 29
  30 30
  31 31
  32 32
  33 33
  34 34
  35 35
  36 36
  37 37
  38 38
  39 39
  40 40
  41 41
  42 42
  43 43
  44 44
  45 45
  46 46
  47 47
  48 48
  49 49
  50 50
  51 51
  52 52
  53 53
  54 54
  55 55
  56 56
  57 57
  58 58
  59 59
  60 60
  61 61
  62 62
  63 63
  64 64
  65 65
  66 66
  67 67
  68 68
  69 69
  70 70
  71 71
  72 72
  73 73
  74 74
  75 75
  76 76
  77 77
  78 78
  79 79
  80 80
  81 81
  82 82
  83 83
  84 84
  85 85
  86 86
  87 87
  88 88
  89 89
  90 90
  91 91
  92 92
  93 93
  94 94
  95 95
  96 96
  97 97
  98 98
  99 99
  100 100
DURATION_SECTION
  1 10
  2 10
  3 10
  4 10
  5 10
  6 10
  7 10
  8 10
  9 10
  10 10
  11 10
  12 10
  13 10
  14 10
  15 10
  16 10
  17 10
  18 10
  19 10
  20 10
  21 10
  22 10
  23 10
  24 10
  25 10
  26 10
  27 10
  28 10
  29 10
  30 10
  31 10
  32 10
  33 10
  34 10
  35 10
  36 10
  37 10
  38 10
  39 10
  40 10
  41 10
  42 10
  43 10
  44 10
  45 10
  46 10
  47 10
  48 10
  49 10
  50 10
  51 10
  52 10
  53 10
  54 10
  55 10
  56 10
  57 10
  58 10
  59 10
  60 10
  61 10
  62 10
  63 10
  64 10
  65 10
  66 10
  67 10
  68 10
  69 10
  70 10
  71 10
  72 10
  73 10
  74 10
  75 10
  76 10
  77 10
  78 10
  79 10
  80 10
  81 10
  82 10
  83 10
  84 10
  85 10
  86 10
  87 10
  88 10
  89 10
  90 10
  91 10
  92 10
  93 10
  94 10
  95 10
  96 10
  97 10
  98 10
  99 10
  100 10
DEPOT_TIME_WINDOW_SECTION
  0 0 969
COMMENT: TIMESTEP: 7
TIME_AVAIL_SECTION
  1 338
  2 828
  3 737
  4 546
  5 101
  6 726
  7 486
  8 683
  9 548
  10 62
  11 317
  12 696
  13 458
  14 841
  15 521
  16 113
  17 719
  18 800
  19 310
  20 552
  21 460
  22 775
  23 59
  24 543
  25 385
  26 67
  27 908
  28 703
  29 685
  30 856
  31 257
  32 501
  33 446
  34 210
  35 615
  36 181
  37 307
  38 632
  39 249
  40 56
  41 21
  42 944
  43 295
  44 274
  45 343
  46 297
  47 348
  48 688
  49 963
  50 263
  51 414
  52 591
  53 61
  54 738
  55 231
  56 618
  57 751
  58 195
  59 165
  60 185
  61 704
  62 355
  63 711
  64 727
  65 250
  66 48
  67 135
  68 301
  69 880
  70 115
  71 592
  72 571
  73 873
  74 959
  75 801
  76 776
  77 699
  78 217
  79 136
  80 11
  81 620
  82 58
  83 806
  84 115
  85 764
  86 649
  87 81
  88 888
  89 98
  90 538
  91 206
  92 890
  93 246
  94 106
  95 116
  96 905
  97 103
  98 264
  99 614
  100 580
EOF