VRPTEST okul_100l_skewed_pseudoclustered_D.vrp
COMMENT: 
COMMENT: Best known objective: 2147483647
NAME: okul_100l_skewed_pseudoclustered_D.vrp
NUM_DEPOTS: 1
NUM_CAPACITIES: 1
NUM_VISITS: 100
NUM_LOCATIONS: 101
NUM_VEHICLES: 50
CAPACITIES: 1000
DATA_SECTION
DEPOTS
  0
DEMAND_SECTION
  1 -207
  2 -87
  3 -13
  4 -35
  5 -97
  6 -149
  7 -131
  8 -89
  9 -125
  10 -23
  11 -207
  12 -225
  13 -233
  14 -93
  15 -54
  16 -82
  17 -90
  18 -119
  19 -260
  20 -125
  21 -32
  22 -44
  23 -119
  24 -6
  25 -212
  26 -149
  27 -88
  28 -22
  29 -22
  30 -148
  31 -23
  32 -30
  33 -66
  34 -27
  35 -126
  36 -278
  37 -43
  38 -72
  39 -40
  40 -114
  41 -47
  42 -7
  43 -83
  44 -288
  45 -1
  46 -108
  47 -40
  48 -5
  49 -46
  50 -109
  51 -259
  52 -65
  53 -15
  54 -72
  55 -46
  56 -375
  57 -50
  58 -100
  59 -57
  60 -310
  61 -1
  62 -42
  63 -13
  64 -21
  65 -194
  66 -42
  67 -150
  68 -8
  69 -169
  70 -63
  71 -108
  72 -43
  73 -11
  74 -6
  75 -46
  76 -102
  77 -189
  78 -164
  79 -58
  80 -95
  81 -78
  82 -1
  83 -13
  84 -30
  85 -121
  86 -9
  87 -11
  88 -37
  89 -11
  90 -111
  91 -432
  92 -56
  93 -381
  94 -187
  95 -102
  96 -149
  97 -137
  98 -60
  99 -40
  100 -138
LOCATION_COORD_SECTION
  0 0 0
  1 -40 75
  2 -84 22
  3 6 87
  4 -44 13
  5 41 -16
  6 -7 -64
  7 79 45
  8 94 33
  9 -45 59
  10 -56 19
  11 -37 91
  12 -88 29
  13 2 91
  14 -51 12
  15 39 -14
  16 -14 -60
  17 80 43
  18 90 30
  19 -43 63
  20 -57 18
  21 -38 81
  22 -87 27
  23 7 84
  24 -53 9
  25 45 -20
  26 -7 -69
  27 79 38
  28 92 31
  29 -44 63
  30 -58 16
  31 -46 87
  32 -85 33
  33 11 83
  34 -58 13
  35 41 -21
  36 -6 -66
  37 78 33
  38 91 37
  39 -42 60
  40 -55 21
  41 -36 92
  42 -90 31
  43 6 84
  44 -47 13
  45 46 -9
  46 -6 -67
  47 73 33
  48 95 29
  49 -44 65
  50 -58 18
  51 -42 84
  52 -83 30
  53 11 84
  54 -48 6
  55 43 -16
  56 2 -67
  57 80 30
  58 85 32
  59 -37 65
  60 -51 19
  61 -34 84
  62 -84 27
  63 10 88
  64 -55 14
  65 47 -17
  66 -9 -68
  67 81 36
  68 96 35
  69 -43 70
  70 -58 11
  71 -40 80
  72 -92 29
  73 3 87
  74 -54 10
  75 38 -19
  76 -10 -66
  77 78 43
  78 94 29
  79 -38 70
  80 -65 20
  81 -39 89
  82 -86 29
  83 7 86
  84 -49 7
  85 40 -21
  86 -11 -68
  87 78 39
  88 98 30
  89 -45 65
  90 -56 14
  91 -40 90
  92 -83 23
  93 8 77
  94 -55 10
  95 41 -13
  96 -8 -62
  97 80 40
  98 92 30
  99 -44 62
  100 -56 13
DEPOT_LOCATION_SECTION
  0 0
VISIT_LOCATION_SECTION
  1 1
  2 2
  3 3
  4 4
  5 5
  6 6
  7 7
  8 8
  9 9
  10 10
  11 11
  12 12
  13 13
  14 14
  15 15
  16 16
  17 17
  18 18
  19 19
  20 20
  21 21
  22 22
  23 23
  24 24
  25 25
  26 26
  27 27
  28 28
  29 29
  30 30
  31 31
  32 32
  33 33
  34 34
  35 35
  36 36
  37 37
  38 38
  39 39
  40 40
  41 41
  42 42
  43 43
  44 44
  45 45
  46 46
  47 47
  48 48
  49 49
  50 50
  51 51
  52 52
  53 53
  54 54
  55 55
  56 56
  57 57
  58 58
  59 59
  60 60
  61 61
  62 62
  63 63
  64 64
  65 65
  66 66
  67 67
  68 68
  69 69
  70 70
  71 71
  72 72
  73 73
  74 74
  75 75
  76 76
  77 77
  78 78
  79 79
  80 80
  81 81
  82 82
  83 83
  84 84
  85 85
  86 86
  87 87
  88 88
  89 89
  90 90
  91 91
  92 92
  93 93
  94 94
  95 95
  96 96
  97 97
  98 98
  99 99
  100 100
DURATION_SECTION
  1 10
  2 10
  3 10
  4 10
  5 10
  6 10
  7 10
  8 10
  9 10
  10 10
  11 10
  12 10
  13 10
  14 10
  15 10
  16 10
  17 10
  18 10
  19 10
  20 10
  21 10
  22 10
  23 10
  24 10
  25 10
  26 10
  27 10
  28 10
  29 10
  30 10
  31 10
  32 10
  33 10
  34 10
  35 10
  36 10
  37 10
  38 10
  39 10
  40 10
  41 10
  42 10
  43 10
  44 10
  45 10
  46 10
  47 10
  48 10
  49 10
  50 10
  51 10
  52 10
  53 10
  54 10
  55 10
  56 10
  57 10
  58 10
  59 10
  60 10
  61 10
  62 10
  63 10
  64 10
  65 10
  66 10
  67 10
  68 10
  69 10
  70 10
  71 10
  72 10
  73 10
  74 10
  75 10
  76 10
  77 10
  78 10
  79 10
  80 10
  81 10
  82 10
  83 10
  84 10
  85 10
  86 10
  87 10
  88 10
  89 10
  90 10
  91 10
  92 10
  93 10
  94 10
  95 10
  96 10
  97 10
  98 10
  99 10
  100 10
DEPOT_TIME_WINDOW_SECTION
  0 0 949
COMMENT: TIMESTEP: 7
TIME_AVAIL_SECTION
  1 432
  2 564
  3 571
  4 294
  5 618
  6 104
  7 928
  8 607
  9 354
  10 282
  11 615
  12 135
  13 52
  14 359
  15 711
  16 497
  17 631
  18 353
  19 716
  20 292
  21 153
  22 460
  23 759
  24 11
  25 906
  26 426
  27 896
  28 265
  29 210
  30 74
  31 369
  32 805
  33 477
  34 205
  35 271
  36 947
  37 684
  38 134
  39 515
  40 490
  41 91
  42 148
  43 438
  44 152
  45 74
  46 814
  47 380
  48 780
  49 486
  50 107
  51 461
  52 785
  53 661
  54 674
  55 598
  56 615
  57 785
  58 674
  59 591
  60 484
  61 131
  62 161
  63 812
  64 849
  65 153
  66 793
  67 830
  68 114
  69 770
  70 714
  71 833
  72 359
  73 438
  74 186
  75 439
  76 107
  77 710
  78 149
  79 222
  80 640
  81 938
  82 426
  83 375
  84 288
  85 332
  86 588
  87 418
  88 570
  89 288
  90 57
  91 602
  92 418
  93 463
  94 486
  95 294
  96 689
  97 767
  98 808
  99 503
  100 333
EOF