VRPTEST okul_100n_skewed_reallyclustered_D.vrp
COMMENT: 
COMMENT: Best known objective: 2147483647
NAME: okul_100n_skewed_reallyclustered_D.vrp
NUM_DEPOTS: 1
NUM_CAPACITIES: 1
NUM_VISITS: 100
NUM_LOCATIONS: 101
NUM_VEHICLES: 50
CAPACITIES: 1000
DATA_SECTION
DEPOTS
  0
DEMAND_SECTION
  1 -39
  2 -135
  3 -4
  4 -69
  5 -14
  6 -49
  7 -12
  8 -64
  9 -152
  10 -15
  11 -45
  12 -169
  13 -120
  14 -78
  15 -107
  16 -31
  17 -62
  18 -3
  19 -53
  20 -35
  21 -73
  22 -247
  23 -92
  24 -24
  25 -156
  26 -190
  27 -134
  28 -211
  29 -146
  30 -128
  31 -79
  32 -6
  33 -38
  34 -6
  35 -60
  36 -61
  37 -28
  38 -149
  39 -195
  40 -64
  41 -139
  42 -25
  43 -7
  44 -58
  45 -112
  46 -303
  47 -202
  48 -14
  49 -128
  50 -383
  51 -99
  52 -78
  53 -4
  54 -160
  55 -47
  56 -46
  57 -101
  58 -58
  59 -102
  60 -51
  61 -382
  62 -6
  63 -18
  64 -52
  65 -131
  66 -447
  67 -66
  68 -82
  69 -24
  70 -36
  71 -74
  72 -183
  73 -12
  74 -48
  75 -92
  76 -5
  77 -295
  78 -275
  79 -98
  80 -107
  81 -24
  82 -29
  83 -51
  84 -119
  85 -10
  86 -46
  87 -103
  88 -101
  89 -121
  90 -127
  91 -99
  92 -360
  93 -24
  94 -76
  95 -50
  96 -21
  97 -4
  98 -118
  99 -158
  100 -30
LOCATION_COORD_SECTION
  0 0 0
  1 -56 80
  2 -55 74
  3 -55 81
  4 -54 83
  5 -49 75
  6 -61 80
  7 -56 74
  8 -58 77
  9 -56 78
  10 -54 73
  11 -58 82
  12 -55 76
  13 -53 81
  14 -55 78
  15 -28 9
  16 -31 17
  17 -31 9
  18 -27 19
  19 -26 6
  20 -31 11
  21 -31 14
  22 -29 15
  23 -30 15
  24 -26 9
  25 -32 10
  26 -41 -8
  27 -47 -10
  28 -50 -14
  29 -50 -8
  30 -51 -12
  31 -42 -16
  32 -49 -20
  33 -41 -10
  34 -46 -15
  35 -48 -11
  36 -92 -5
  37 -94 -5
  38 -92 -4
  39 -91 -5
  40 -93 -6
  41 -92 -3
  42 -94 -4
  43 -93 -1
  44 -85 2
  45 -94 0
  46 79 87
  47 75 85
  48 77 87
  49 84 87
  50 -66 13
  51 -68 15
  52 -70 12
  53 -66 15
  54 -74 17
  55 -66 9
  56 -69 13
  57 -70 8
  58 -71 13
  59 93 63
  60 85 64
  61 90 68
  62 86 72
  63 93 63
  64 91 67
  65 96 63
  66 -60 -93
  67 -72 -87
  68 -73 -87
  69 -68 -93
  70 -69 -94
  71 -62 -89
  72 -70 -99
  73 -70 -95
  74 -77 -87
  75 26 90
  76 27 92
  77 22 95
  78 27 101
  79 25 92
  80 23 96
  81 18 98
  82 31 85
  83 35 98
  84 81 82
  85 75 91
  86 81 85
  87 69 81
  88 77 86
  89 71 89
  90 71 87
  91 74 85
  92 -37 -96
  93 -37 -92
  94 -37 -102
  95 -30 -93
  96 -31 -97
  97 -37 -94
  98 -39 -98
  99 -32 -100
  100 -40 -108
DEPOT_LOCATION_SECTION
  0 0
VISIT_LOCATION_SECTION
  1 1
  2 2
  3 3
  4 4
  5 5
  6 6
  7 7
  8 8
  9 9
  10 10
  11 11
  12 12
  13 13
  14 14
  15 15
  16 16
  17 17
  18 18
  19 19
  20 20
  21 21
  22 22
  23 23
  24 24
  25 25
  26 26
  27 27
  28 28
  29 29
  30 30
  31 31
  32 32
  33 33
  34 34
  35 35
  36 36
  37 37
  38 38
  39 39
  40 40
  41 41
  42 42
  43 43
  44 44
  45 45
  46 46
  47 47
  48 48
  49 49
  50 50
  51 51
  52 52
  53 53
  54 54
  55 55
  56 56
  57 57
  58 58
  59 59
  60 60
  61 61
  62 62
  63 63
  64 64
  65 65
  66 66
  67 67
  68 68
  69 69
  70 70
  71 71
  72 72
  73 73
  74 74
  75 75
  76 76
  77 77
  78 78
  79 79
  80 80
  81 81
  82 82
  83 83
  84 84
  85 85
  86 86
  87 87
  88 88
  89 89
  90 90
  91 91
  92 92
  93 93
  94 94
  95 95
  96 96
  97 97
  98 98
  99 99
  100 100
DURATION_SECTION
  1 10
  2 10
  3 10
  4 10
  5 10
  6 10
  7 10
  8 10
  9 10
  10 10
  11 10
  12 10
  13 10
  14 10
  15 10
  16 10
  17 10
  18 10
  19 10
  20 10
  21 10
  22 10
  23 10
  24 10
  25 10
  26 10
  27 10
  28 10
  29 10
  30 10
  31 10
  32 10
  33 10
  34 10
  35 10
  36 10
  37 10
  38 10
  39 10
  40 10
  41 10
  42 10
  43 10
  44 10
  45 10
  46 10
  47 10
  48 10
  49 10
  50 10
  51 10
  52 10
  53 10
  54 10
  55 10
  56 10
  57 10
  58 10
  59 10
  60 10
  61 10
  62 10
  63 10
  64 10
  65 10
  66 10
  67 10
  68 10
  69 10
  70 10
  71 10
  72 10
  73 10
  74 10
  75 10
  76 10
  77 10
  78 10
  79 10
  80 10
  81 10
  82 10
  83 10
  84 10
  85 10
  86 10
  87 10
  88 10
  89 10
  90 10
  91 10
  92 10
  93 10
  94 10
  95 10
  96 10
  97 10
  98 10
  99 10
  100 10
DEPOT_TIME_WINDOW_SECTION
  0 0 949
COMMENT: TIMESTEP: 7
TIME_AVAIL_SECTION
  1 789
  2 686
  3 93
  4 868
  5 601
  6 22
  7 119
  8 654
  9 131
  10 332
  11 22
  12 206
  13 633
  14 91
  15 907
  16 700
  17 54
  18 408
  19 342
  20 0
  21 42
  22 864
  23 118
  24 868
  25 2
  26 51
  27 908
  28 718
  29 104
  30 537
  31 358
  32 180
  33 448
  34 27
  35 191
  36 469
  37 567
  38 85
  39 5
  40 463
  41 476
  42 860
  43 940
  44 126
  45 499
  46 565
  47 822
  48 752
  49 319
  50 33
  51 706
  52 498
  53 687
  54 431
  55 154
  56 698
  57 581
  58 721
  59 486
  60 99
  61 748
  62 375
  63 91
  64 903
  65 946
  66 921
  67 346
  68 105
  69 800
  70 239
  71 947
  72 71
  73 755
  74 329
  75 947
  76 518
  77 604
  78 535
  79 173
  80 713
  81 752
  82 916
  83 295
  84 527
  85 283
  86 33
  87 700
  88 56
  89 18
  90 68
  91 402
  92 388
  93 547
  94 809
  95 94
  96 435
  97 553
  98 7
  99 363
  100 939
EOF