VRPTEST okul_100j_skewed_pseudoclustered_D.vrp
COMMENT: 
COMMENT: Best known objective: 2147483647
NAME: okul_100j_skewed_pseudoclustered_D.vrp
NUM_DEPOTS: 1
NUM_CAPACITIES: 1
NUM_VISITS: 100
NUM_LOCATIONS: 101
NUM_VEHICLES: 50
CAPACITIES: 1000
DATA_SECTION
DEPOTS
  0
DEMAND_SECTION
  1 -260
  2 -277
  3 -111
  4 -135
  5 -429
  6 -13
  7 -93
  8 -152
  9 -11
  10 -176
  11 -82
  12 -133
  13 -102
  14 -4
  15 -70
  16 -133
  17 -21
  18 -1
  19 -65
  20 -49
  21 -52
  22 -312
  23 -143
  24 -17
  25 -71
  26 -87
  27 -351
  28 -51
  29 -278
  30 -79
  31 -274
  32 -251
  33 -51
  34 -122
  35 -200
  36 -4
  37 -195
  38 -85
  39 -121
  40 -64
  41 -51
  42 -1
  43 -13
  44 -60
  45 -45
  46 -54
  47 -206
  48 -129
  49 -40
  50 -6
  51 -63
  52 -274
  53 -95
  54 -77
  55 -72
  56 -11
  57 -66
  58 -26
  59 -249
  60 -24
  61 -149
  62 -244
  63 -29
  64 -168
  65 -130
  66 -230
  67 -26
  68 -46
  69 -21
  70 -142
  71 -33
  72 -35
  73 -261
  74 -82
  75 -299
  76 -55
  77 -72
  78 -71
  79 -39
  80 -101
  81 -186
  82 -38
  83 -70
  84 -13
  85 -129
  86 -90
  87 -137
  88 -239
  89 -14
  90 -13
  91 -57
  92 -35
  93 -81
  94 -59
  95 -103
  96 -32
  97 -14
  98 -213
  99 -29
  100 -63
LOCATION_COORD_SECTION
  0 0 0
  1 73 -59
  2 -61 -9
  3 -70 -9
  4 54 -67
  5 24 -27
  6 2 65
  7 -75 94
  8 41 -65
  9 -16 49
  10 -89 28
  11 -23 26
  12 74 -60
  13 -67 -6
  14 -70 -4
  15 56 -57
  16 23 -24
  17 4 65
  18 -75 95
  19 37 -68
  20 -20 48
  21 -95 27
  22 -28 24
  23 75 -67
  24 -71 -4
  25 -69 2
  26 55 -58
  27 24 -26
  28 7 72
  29 -75 100
  30 35 -65
  31 -10 48
  32 -88 34
  33 -23 27
  34 75 -65
  35 -68 -6
  36 -73 -3
  37 58 -53
  38 20 -22
  39 5 72
  40 -77 99
  41 43 -68
  42 -18 53
  43 -92 32
  44 -22 27
  45 75 -64
  46 -64 -5
  47 -68 -5
  48 57 -54
  49 19 -27
  50 3 71
  51 -79 96
  52 38 -72
  53 -19 47
  54 -91 28
  55 -23 28
  56 70 -63
  57 -71 -9
  58 -66 -8
  59 53 -57
  60 21 -23
  61 8 69
  62 -73 97
  63 40 -67
  64 -16 45
  65 -91 31
  66 -24 25
  67 77 -63
  68 -66 -11
  69 -68 -9
  70 55 -59
  71 22 -25
  72 -2 64
  73 -74 98
  74 36 -69
  75 -15 50
  76 -88 32
  77 -20 28
  78 77 -59
  79 -67 -10
  80 -65 -9
  81 52 -62
  82 23 -26
  83 6 69
  84 -83 95
  85 35 -69
  86 -22 52
  87 -87 29
  88 -22 24
  89 78 -61
  90 -67 1
  91 -66 -8
  92 54 -64
  93 23 -19
  94 1 63
  95 -71 91
  96 42 -65
  97 -18 53
  98 -91 31
  99 -19 21
  100 76 -66
DEPOT_LOCATION_SECTION
  0 0
VISIT_LOCATION_SECTION
  1 1
  2 2
  3 3
  4 4
  5 5
  6 6
  7 7
  8 8
  9 9
  10 10
  11 11
  12 12
  13 13
  14 14
  15 15
  16 16
  17 17
  18 18
  19 19
  20 20
  21 21
  22 22
  23 23
  24 24
  25 25
  26 26
  27 27
  28 28
  29 29
  30 30
  31 31
  32 32
  33 33
  34 34
  35 35
  36 36
  37 37
  38 38
  39 39
  40 40
  41 41
  42 42
  43 43
  44 44
  45 45
  46 46
  47 47
  48 48
  49 49
  50 50
  51 51
  52 52
  53 53
  54 54
  55 55
  56 56
  57 57
  58 58
  59 59
  60 60
  61 61
  62 62
  63 63
  64 64
  65 65
  66 66
  67 67
  68 68
  69 69
  70 70
  71 71
  72 72
  73 73
  74 74
  75 75
  76 76
  77 77
  78 78
  79 79
  80 80
  81 81
  82 82
  83 83
  84 84
  85 85
  86 86
  87 87
  88 88
  89 89
  90 90
  91 91
  92 92
  93 93
  94 94
  95 95
  96 96
  97 97
  98 98
  99 99
  100 100
DURATION_SECTION
  1 10
  2 10
  3 10
  4 10
  5 10
  6 10
  7 10
  8 10
  9 10
  10 10
  11 10
  12 10
  13 10
  14 10
  15 10
  16 10
  17 10
  18 10
  19 10
  20 10
  21 10
  22 10
  23 10
  24 10
  25 10
  26 10
  27 10
  28 10
  29 10
  30 10
  31 10
  32 10
  33 10
  34 10
  35 10
  36 10
  37 10
  38 10
  39 10
  40 10
  41 10
  42 10
  43 10
  44 10
  45 10
  46 10
  47 10
  48 10
  49 10
  50 10
  51 10
  52 10
  53 10
  54 10
  55 10
  56 10
  57 10
  58 10
  59 10
  60 10
  61 10
  62 10
  63 10
  64 10
  65 10
  66 10
  67 10
  68 10
  69 10
  70 10
  71 10
  72 10
  73 10
  74 10
  75 10
  76 10
  77 10
  78 10
  79 10
  80 10
  81 10
  82 10
  83 10
  84 10
  85 10
  86 10
  87 10
  88 10
  89 10
  90 10
  91 10
  92 10
  93 10
  94 10
  95 10
  96 10
  97 10
  98 10
  99 10
  100 10
DEPOT_TIME_WINDOW_SECTION
  0 0 959
COMMENT: TIMESTEP: 7
TIME_AVAIL_SECTION
  1 276
  2 220
  3 672
  4 44
  5 59
  6 827
  7 254
  8 770
  9 182
  10 435
  11 364
  12 444
  13 424
  14 744
  15 644
  16 495
  17 804
  18 421
  19 581
  20 661
  21 488
  22 486
  23 368
  24 820
  25 369
  26 838
  27 831
  28 827
  29 236
  30 412
  31 162
  32 608
  33 532
  34 455
  35 864
  36 601
  37 663
  38 613
  39 449
  40 755
  41 20
  42 151
  43 925
  44 915
  45 324
  46 434
  47 74
  48 545
  49 356
  50 373
  51 140
  52 547
  53 35
  54 234
  55 125
  56 910
  57 531
  58 246
  59 391
  60 382
  61 321
  62 48
  63 617
  64 955
  65 3
  66 835
  67 81
  68 692
  69 644
  70 538
  71 450
  72 627
  73 777
  74 126
  75 544
  76 530
  77 866
  78 349
  79 99
  80 229
  81 270
  82 594
  83 643
  84 515
  85 712
  86 772
  87 185
  88 71
  89 885
  90 716
  91 32
  92 218
  93 707
  94 819
  95 699
  96 145
  97 573
  98 325
  99 164
  100 889
EOF