VRPTEST okul_100m_uniform_pseudoclustered_D.vrp
COMMENT: 
COMMENT: Best known objective: 2147483647
NAME: okul_100m_uniform_pseudoclustered_D.vrp
NUM_DEPOTS: 1
NUM_CAPACITIES: 1
NUM_VISITS: 100
NUM_LOCATIONS: 101
NUM_VEHICLES: 50
CAPACITIES: 1000
DATA_SECTION
DEPOTS
  0
DEMAND_SECTION
  1 -86
  2 -217
  3 -104
  4 -154
  5 -117
  6 -19
  7 -18
  8 -115
  9 -121
  10 -246
  11 -203
  12 -43
  13 -88
  14 -82
  15 -94
  16 -205
  17 -142
  18 -162
  19 -132
  20 -141
  21 -9
  22 -19
  23 -152
  24 -218
  25 -3
  26 -89
  27 -17
  28 -152
  29 -112
  30 -56
  31 -196
  32 -201
  33 -121
  34 -103
  35 -220
  36 -86
  37 -120
  38 -190
  39 -228
  40 -20
  41 -221
  42 -12
  43 -33
  44 -136
  45 -170
  46 -116
  47 -177
  48 -20
  49 -241
  50 -236
  51 -4
  52 -7
  53 -248
  54 -75
  55 -248
  56 -230
  57 -159
  58 -17
  59 -7
  60 -49
  61 -49
  62 -114
  63 -13
  64 -154
  65 -86
  66 -191
  67 -120
  68 -117
  69 -12
  70 -161
  71 -204
  72 -97
  73 -183
  74 -50
  75 -241
  76 -129
  77 -232
  78 -193
  79 -191
  80 -70
  81 -55
  82 -2
  83 -188
  84 -103
  85 -172
  86 -77
  87 -180
  88 -239
  89 -151
  90 -166
  91 -132
  92 -147
  93 -122
  94 -161
  95 -169
  96 -180
  97 -230
  98 -7
  99 -115
  100 -243
LOCATION_COORD_SECTION
  0 0 0
  1 53 -28
  2 41 -89
  3 -75 -90
  4 -34 -52
  5 39 16
  6 -20 26
  7 -86 20
  8 -15 -15
  9 42 -62
  10 -91 -86
  11 -9 -49
  12 42 -25
  13 -22 29
  14 55 -24
  15 41 -91
  16 -77 -91
  17 -30 -54
  18 43 14
  19 -18 30
  20 -88 21
  21 -20 -15
  22 39 -56
  23 -88 -87
  24 -5 -50
  25 42 -22
  26 -23 29
  27 53 -24
  28 41 -87
  29 -73 -89
  30 -36 -56
  31 38 15
  32 -18 27
  33 -87 19
  34 -22 -12
  35 41 -63
  36 -95 -84
  37 -5 -55
  38 44 -23
  39 -25 30
  40 55 -25
  41 39 -90
  42 -72 -93
  43 -38 -61
  44 42 13
  45 -15 29
  46 -88 20
  47 -21 -12
  48 42 -65
  49 -93 -89
  50 -4 -54
  51 44 -22
  52 -21 30
  53 56 -25
  54 39 -91
  55 -73 -93
  56 -29 -57
  57 35 15
  58 -15 34
  59 -92 20
  60 -17 -18
  61 38 -63
  62 -98 -88
  63 -6 -51
  64 40 -21
  65 -20 29
  66 51 -24
  67 44 -92
  68 -67 -90
  69 -35 -56
  70 39 13
  71 -16 24
  72 -85 16
  73 -19 -14
  74 43 -66
  75 -89 -83
  76 -5 -53
  77 44 -23
  78 -26 25
  79 56 -25
  80 43 -92
  81 -76 -93
  82 -34 -58
  83 37 12
  84 -14 24
  85 -89 20
  86 -20 -14
  87 41 -62
  88 -92 -83
  89 -4 -52
  90 47 -21
  91 -20 25
  92 53 -23
  93 39 -87
  94 -70 -93
  95 -32 -50
  96 38 16
  97 -15 31
  98 -88 22
  99 -16 -14
  100 45 -59
DEPOT_LOCATION_SECTION
  0 0
VISIT_LOCATION_SECTION
  1 1
  2 2
  3 3
  4 4
  5 5
  6 6
  7 7
  8 8
  9 9
  10 10
  11 11
  12 12
  13 13
  14 14
  15 15
  16 16
  17 17
  18 18
  19 19
  20 20
  21 21
  22 22
  23 23
  24 24
  25 25
  26 26
  27 27
  28 28
  29 29
  30 30
  31 31
  32 32
  33 33
  34 34
  35 35
  36 36
  37 37
  38 38
  39 39
  40 40
  41 41
  42 42
  43 43
  44 44
  45 45
  46 46
  47 47
  48 48
  49 49
  50 50
  51 51
  52 52
  53 53
  54 54
  55 55
  56 56
  57 57
  58 58
  59 59
  60 60
  61 61
  62 62
  63 63
  64 64
  65 65
  66 66
  67 67
  68 68
  69 69
  70 70
  71 71
  72 72
  73 73
  74 74
  75 75
  76 76
  77 77
  78 78
  79 79
  80 80
  81 81
  82 82
  83 83
  84 84
  85 85
  86 86
  87 87
  88 88
  89 89
  90 90
  91 91
  92 92
  93 93
  94 94
  95 95
  96 96
  97 97
  98 98
  99 99
  100 100
DURATION_SECTION
  1 10
  2 10
  3 10
  4 10
  5 10
  6 10
  7 10
  8 10
  9 10
  10 10
  11 10
  12 10
  13 10
  14 10
  15 10
  16 10
  17 10
  18 10
  19 10
  20 10
  21 10
  22 10
  23 10
  24 10
  25 10
  26 10
  27 10
  28 10
  29 10
  30 10
  31 10
  32 10
  33 10
  34 10
  35 10
  36 10
  37 10
  38 10
  39 10
  40 10
  41 10
  42 10
  43 10
  44 10
  45 10
  46 10
  47 10
  48 10
  49 10
  50 10
  51 10
  52 10
  53 10
  54 10
  55 10
  56 10
  57 10
  58 10
  59 10
  60 10
  61 10
  62 10
  63 10
  64 10
  65 10
  66 10
  67 10
  68 10
  69 10
  70 10
  71 10
  72 10
  73 10
  74 10
  75 10
  76 10
  77 10
  78 10
  79 10
  80 10
  81 10
  82 10
  83 10
  84 10
  85 10
  86 10
  87 10
  88 10
  89 10
  90 10
  91 10
  92 10
  93 10
  94 10
  95 10
  96 10
  97 10
  98 10
  99 10
  100 10
DEPOT_TIME_WINDOW_SECTION
  0 0 979
COMMENT: TIMESTEP: 7
TIME_AVAIL_SECTION
  1 181
  2 31
  3 544
  4 828
  5 253
  6 877
  7 353
  8 294
  9 431
  10 764
  11 119
  12 906
  13 598
  14 629
  15 924
  16 712
  17 328
  18 395
  19 106
  20 366
  21 233
  22 101
  23 275
  24 444
  25 298
  26 905
  27 295
  28 275
  29 850
  30 734
  31 279
  32 895
  33 246
  34 325
  35 680
  36 428
  37 770
  38 380
  39 870
  40 322
  41 588
  42 518
  43 42
  44 368
  45 532
  46 342
  47 120
  48 7
  49 971
  50 75
  51 423
  52 441
  53 391
  54 801
  55 358
  56 278
  57 443
  58 418
  59 776
  60 687
  61 726
  62 207
  63 566
  64 162
  65 480
  66 882
  67 726
  68 948
  69 211
  70 955
  71 109
  72 15
  73 467
  74 732
  75 548
  76 476
  77 855
  78 253
  79 683
  80 460
  81 755
  82 622
  83 413
  84 767
  85 381
  86 138
  87 292
  88 594
  89 89
  90 973
  91 690
  92 816
  93 497
  94 623
  95 298
  96 441
  97 275
  98 844
  99 737
  100 888
EOF