VRPTEST okul_100h_normal_uniform_D.vrp
COMMENT: 
COMMENT: Best known objective: 2147483647
NAME: okul_100h_normal_uniform_D.vrp
NUM_DEPOTS: 1
NUM_CAPACITIES: 1
NUM_VISITS: 100
NUM_LOCATIONS: 101
NUM_VEHICLES: 50
CAPACITIES: 1000
DATA_SECTION
DEPOTS
  0
DEMAND_SECTION
  1 -110
  2 -145
  3 -156
  4 -109
  5 -156
  6 -76
  7 -118
  8 -96
  9 -155
  10 -153
  11 -113
  12 -143
  13 -98
  14 -134
  15 -133
  16 -149
  17 -112
  18 -155
  19 -97
  20 -142
  21 -114
  22 -142
  23 -168
  24 -162
  25 -157
  26 -123
  27 -119
  28 -84
  29 -112
  30 -113
  31 -109
  32 -108
  33 -93
  34 -131
  35 -140
  36 -156
  37 -104
  38 -119
  39 -178
  40 -151
  41 -90
  42 -112
  43 -141
  44 -116
  45 -182
  46 -116
  47 -163
  48 -117
  49 -118
  50 -114
  51 -130
  52 -86
  53 -117
  54 -130
  55 -122
  56 -140
  57 -106
  58 -63
  59 -136
  60 -144
  61 -140
  62 -124
  63 -98
  64 -134
  65 -171
  66 -131
  67 -144
  68 -102
  69 -128
  70 -110
  71 -118
  72 -133
  73 -106
  74 -112
  75 -96
  76 -165
  77 -71
  78 -125
  79 -140
  80 -128
  81 -110
  82 -126
  83 -92
  84 -128
  85 -78
  86 -80
  87 -105
  88 -68
  89 -142
  90 -133
  91 -55
  92 -128
  93 -112
  94 -111
  95 -150
  96 -140
  97 -112
  98 -137
  99 -152
  100 -136
LOCATION_COORD_SECTION
  0 0 0
  1 -25 49
  2 24 -79
  3 97 -74
  4 -66 16
  5 6 -77
  6 -51 89
  7 0 1
  8 -40 34
  9 88 -59
  10 29 -33
  11 -5 -45
  12 -43 -71
  13 24 -72
  14 -3 -97
  15 80 -37
  16 -84 -97
  17 -83 -11
  18 69 -59
  19 -42 -92
  20 19 0
  21 80 92
  22 11 58
  23 61 -81
  24 23 -46
  25 -15 92
  26 84 -75
  27 99 19
  28 50 77
  29 30 77
  30 37 -98
  31 29 -80
  32 38 -62
  33 48 31
  34 86 -68
  35 -94 27
  36 -16 57
  37 47 -38
  38 -74 -8
  39 -8 91
  40 -89 -82
  41 81 -79
  42 31 -45
  43 43 -44
  44 -100 30
  45 38 -11
  46 -51 5
  47 9 -63
  48 -76 -25
  49 -46 -62
  50 -96 92
  51 83 7
  52 -53 89
  53 92 -70
  54 78 -2
  55 -58 -44
  56 -61 -42
  57 42 -57
  58 36 0
  59 -61 -33
  60 12 74
  61 20 31
  62 0 -58
  63 84 -99
  64 61 -81
  65 -17 36
  66 3 -11
  67 -37 27
  68 79 3
  69 38 -28
  70 -98 65
  71 -75 -50
  72 94 -59
  73 -11 -47
  74 -93 -70
  75 -7 -58
  76 22 -94
  77 -58 5
  78 9 -7
  79 44 -26
  80 44 89
  81 7 -4
  82 20 3
  83 70 22
  84 -67 97
  85 -66 -33
  86 -97 71
  87 93 99
  88 -22 -64
  89 -21 84
  90 52 54
  91 -33 4
  92 42 -28
  93 -25 43
  94 -13 8
  95 28 -55
  96 89 -66
  97 88 -13
  98 -49 -79
  99 -73 -62
  100 -22 -28
DEPOT_LOCATION_SECTION
  0 0
VISIT_LOCATION_SECTION
  1 1
  2 2
  3 3
  4 4
  5 5
  6 6
  7 7
  8 8
  9 9
  10 10
  11 11
  12 12
  13 13
  14 14
  15 15
  16 16
  17 17
  18 18
  19 19
  20 20
  21 21
  22 22
  23 23
  24 24
  25 25
  26 26
  27 27
  28 28
  29 29
  30 30
  31 31
  32 32
  33 33
  34 34
  35 35
  36 36
  37 37
  38 38
  39 39
  40 40
  41 41
  42 42
  43 43
  44 44
  45 45
  46 46
  47 47
  48 48
  49 49
  50 50
  51 51
  52 52
  53 53
  54 54
  55 55
  56 56
  57 57
  58 58
  59 59
  60 60
  61 61
  62 62
  63 63
  64 64
  65 65
  66 66
  67 67
  68 68
  69 69
  70 70
  71 71
  72 72
  73 73
  74 74
  75 75
  76 76
  77 77
  78 78
  79 79
  80 80
  81 81
  82 82
  83 83
  84 84
  85 85
  86 86
  87 87
  88 88
  89 89
  90 90
  91 91
  92 92
  93 93
  94 94
  95 95
  96 96
  97 97
  98 98
  99 99
  100 100
DURATION_SECTION
  1 10
  2 10
  3 10
  4 10
  5 10
  6 10
  7 10
  8 10
  9 10
  10 10
  11 10
  12 10
  13 10
  14 10
  15 10
  16 10
  17 10
  18 10
  19 10
  20 10
  21 10
  22 10
  23 10
  24 10
  25 10
  26 10
  27 10
  28 10
  29 10
  30 10
  31 10
  32 10
  33 10
  34 10
  35 10
  36 10
  37 10
  38 10
  39 10
  40 10
  41 10
  42 10
  43 10
  44 10
  45 10
  46 10
  47 10
  48 10
  49 10
  50 10
  51 10
  52 10
  53 10
  54 10
  55 10
  56 10
  57 10
  58 10
  59 10
  60 10
  61 10
  62 10
  63 10
  64 10
  65 10
  66 10
  67 10
  68 10
  69 10
  70 10
  71 10
  72 10
  73 10
  74 10
  75 10
  76 10
  77 10
  78 10
  79 10
  80 10
  81 10
  82 10
  83 10
  84 10
  85 10
  86 10
  87 10
  88 10
  89 10
  90 10
  91 10
  92 10
  93 10
  94 10
  95 10
  96 10
  97 10
  98 10
  99 10
  100 10
DEPOT_TIME_WINDOW_SECTION
  0 0 979
COMMENT: TIMESTEP: 7
TIME_AVAIL_SECTION
  1 525
  2 208
  3 920
  4 786
  5 127
  6 894
  7 245
  8 6
  9 514
  10 374
  11 267
  12 199
  13 693
  14 645
  15 594
  16 902
  17 161
  18 569
  19 432
  20 943
  21 109
  22 811
  23 463
  24 479
  25 682
  26 61
  27 538
  28 861
  29 128
  30 203
  31 497
  32 689
  33 560
  34 476
  35 427
  36 535
  37 799
  38 593
  39 454
  40 909
  41 261
  42 129
  43 476
  44 809
  45 160
  46 392
  47 525
  48 921
  49 780
  50 219
  51 241
  52 176
  53 894
  54 664
  55 681
  56 131
  57 42
  58 950
  59 15
  60 39
  61 726
  62 737
  63 30
  64 384
  65 602
  66 306
  67 564
  68 76
  69 716
  70 866
  71 717
  72 772
  73 959
  74 956
  75 172
  76 357
  77 315
  78 43
  79 567
  80 229
  81 86
  82 212
  83 204
  84 218
  85 285
  86 962
  87 721
  88 114
  89 725
  90 36
  91 8
  92 750
  93 645
  94 490
  95 536
  96 702
  97 733
  98 534
  99 99
  100 17
EOF