VRPTEST okul_100p_uniform_structured_D.vrp
COMMENT: 
COMMENT: Best known objective: 2147483647
NAME: okul_100p_uniform_structured_D.vrp
NUM_DEPOTS: 1
NUM_CAPACITIES: 1
NUM_VISITS: 100
NUM_LOCATIONS: 101
NUM_VEHICLES: 50
CAPACITIES: 1000
DATA_SECTION
DEPOTS
  0
DEMAND_SECTION
  1 -58
  2 -172
  3 -218
  4 -77
  5 -168
  6 -199
  7 -27
  8 -106
  9 -123
  10 -52
  11 -10
  12 -182
  13 -215
  14 -167
  15 -173
  16 -29
  17 -154
  18 -112
  19 -134
  20 -22
  21 -197
  22 -245
  23 -12
  24 -188
  25 -86
  26 -140
  27 -185
  28 -183
  29 -51
  30 -84
  31 -142
  32 -80
  33 -125
  34 -95
  35 -226
  36 -231
  37 -40
  38 -95
  39 -188
  40 -64
  41 -223
  42 -108
  43 -177
  44 -192
  45 -134
  46 -49
  47 -91
  48 -225
  49 -120
  50 -240
  51 -182
  52 -218
  53 -112
  54 -167
  55 -195
  56 -202
  57 -9
  58 -4
  59 -150
  60 -155
  61 -204
  62 -154
  63 -246
  64 -201
  65 -159
  66 -7
  67 -77
  68 -218
  69 -40
  70 -69
  71 -72
  72 -24
  73 -19
  74 -233
  75 -7
  76 -60
  77 -172
  78 -20
  79 -224
  80 -9
  81 -158
  82 -78
  83 -69
  84 -120
  85 -235
  86 -167
  87 -13
  88 -152
  89 -143
  90 -52
  91 -85
  92 -80
  93 -213
  94 -90
  95 -191
  96 -176
  97 -83
  98 -106
  99 -145
  100 -133
LOCATION_COORD_SECTION
  0 0 0
  1 -5 -80
  2 3 81
  3 -30 34
  4 -65 -55
  5 -51 30
  6 6 -41
  7 94 -42
  8 29 -87
  9 16 -65
  10 -75 -79
  11 69 -90
  12 25 -97
  13 7 25
  14 -2 -83
  15 -81 79
  16 -30 37
  17 -7 -54
  18 21 29
  19 4 -42
  20 -39 -43
  21 29 -33
  22 12 31
  23 40 -84
  24 66 -77
  25 31 31
  26 -50 -69
  27 -4 93
  28 1 -97
  29 -30 83
  30 72 -53
  31 -83 -41
  32 -80 -45
  33 97 58
  34 -94 -82
  35 -20 55
  36 -77 -16
  37 72 -84
  38 23 -81
  39 -90 28
  40 -42 -56
  41 5 87
  42 -30 35
  43 -32 -60
  44 -49 0
  45 4 62
  46 23 -48
  47 86 -86
  48 -22 -68
  49 -96 -79
  50 70 -79
  51 -7 -71
  52 -94 22
  53 -3 -85
  54 6 78
  55 -34 31
  56 -61 -57
  57 -81 -96
  58 39 -43
  59 92 -46
  60 26 -84
  61 -23 -64
  62 -75 -79
  63 71 -69
  64 24 27
  65 -90 6
  66 -26 -79
  67 0 80
  68 -36 32
  69 11 -54
  70 -84 -12
  71 -40 93
  72 74 -46
  73 27 -87
  74 -17 -69
  75 -84 -77
  76 7 -79
  77 23 28
  78 -94 24
  79 -7 -85
  80 86 91
  81 78 33
  82 -59 -59
  83 -85 41
  84 9 -63
  85 93 -47
  86 31 -86
  87 -24 99
  88 -73 -79
  89 -88 -80
  90 25 28
  91 -89 26
  92 67 -83
  93 100 87
  94 -33 31
  95 -63 -58
  96 -81 30
  97 4 -39
  98 -20 -69
  99 27 38
  100 -20 -68
DEPOT_LOCATION_SECTION
  0 0
VISIT_LOCATION_SECTION
  1 1
  2 2
  3 3
  4 4
  5 5
  6 6
  7 7
  8 8
  9 9
  10 10
  11 11
  12 12
  13 13
  14 14
  15 15
  16 16
  17 17
  18 18
  19 19
  20 20
  21 21
  22 22
  23 23
  24 24
  25 25
  26 26
  27 27
  28 28
  29 29
  30 30
  31 31
  32 32
  33 33
  34 34
  35 35
  36 36
  37 37
  38 38
  39 39
  40 40
  41 41
  42 42
  43 43
  44 44
  45 45
  46 46
  47 47
  48 48
  49 49
  50 50
  51 51
  52 52
  53 53
  54 54
  55 55
  56 56
  57 57
  58 58
  59 59
  60 60
  61 61
  62 62
  63 63
  64 64
  65 65
  66 66
  67 67
  68 68
  69 69
  70 70
  71 71
  72 72
  73 73
  74 74
  75 75
  76 76
  77 77
  78 78
  79 79
  80 80
  81 81
  82 82
  83 83
  84 84
  85 85
  86 86
  87 87
  88 88
  89 89
  90 90
  91 91
  92 92
  93 93
  94 94
  95 95
  96 96
  97 97
  98 98
  99 99
  100 100
DURATION_SECTION
  1 10
  2 10
  3 10
  4 10
  5 10
  6 10
  7 10
  8 10
  9 10
  10 10
  11 10
  12 10
  13 10
  14 10
  15 10
  16 10
  17 10
  18 10
  19 10
  20 10
  21 10
  22 10
  23 10
  24 10
  25 10
  26 10
  27 10
  28 10
  29 10
  30 10
  31 10
  32 10
  33 10
  34 10
  35 10
  36 10
  37 10
  38 10
  39 10
  40 10
  41 10
  42 10
  43 10
  44 10
  45 10
  46 10
  47 10
  48 10
  49 10
  50 10
  51 10
  52 10
  53 10
  54 10
  55 10
  56 10
  57 10
  58 10
  59 10
  60 10
  61 10
  62 10
  63 10
  64 10
  65 10
  66 10
  67 10
  68 10
  69 10
  70 10
  71 10
  72 10
  73 10
  74 10
  75 10
  76 10
  77 10
  78 10
  79 10
  80 10
  81 10
  82 10
  83 10
  84 10
  85 10
  86 10
  87 10
  88 10
  89 10
  90 10
  91 10
  92 10
  93 10
  94 10
  95 10
  96 10
  97 10
  98 10
  99 10
  100 10
DEPOT_TIME_WINDOW_SECTION
  0 0 979
COMMENT: TIMESTEP: 7
TIME_AVAIL_SECTION
  1 416
  2 590
  3 786
  4 218
  5 288
  6 520
  7 832
  8 59
  9 387
  10 232
  11 946
  12 233
  13 222
  14 222
  15 73
  16 627
  17 150
  18 401
  19 336
  20 194
  21 228
  22 549
  23 953
  24 257
  25 432
  26 100
  27 960
  28 499
  29 98
  30 336
  31 82
  32 82
  33 911
  34 648
  35 831
  36 626
  37 861
  38 710
  39 729
  40 910
  41 106
  42 678
  43 69
  44 549
  45 290
  46 192
  47 769
  48 633
  49 226
  50 742
  51 327
  52 842
  53 551
  54 442
  55 121
  56 871
  57 458
  58 565
  59 343
  60 161
  61 709
  62 364
  63 485
  64 917
  65 590
  66 165
  67 692
  68 457
  69 502
  70 943
  71 7
  72 122
  73 950
  74 642
  75 383
  76 229
  77 287
  78 638
  79 181
  80 166
  81 602
  82 367
  83 494
  84 566
  85 823
  86 778
  87 205
  88 948
  89 868
  90 739
  91 200
  92 868
  93 376
  94 399
  95 737
  96 332
  97 408
  98 483
  99 915
  100 319
EOF