VRPTEST okul_100h_moreskewed_structured_D.vrp
COMMENT: 
COMMENT: Best known objective: 2147483647
NAME: okul_100h_moreskewed_structured_D.vrp
NUM_DEPOTS: 1
NUM_CAPACITIES: 1
NUM_VISITS: 100
NUM_LOCATIONS: 101
NUM_VEHICLES: 50
CAPACITIES: 1000
DATA_SECTION
DEPOTS
  0
DEMAND_SECTION
  1 -36
  2 -112
  3 -5
  4 -13
  5 -102
  6 -71
  7 -1
  8 -1
  9 -94
  10 -131
  11 -232
  12 -1
  13 -71
  14 -191
  15 -18
  16 -52
  17 -1
  18 -153
  19 -90
  20 -11
  21 -6
  22 -14
  23 -2
  24 -104
  25 -65
  26 -1
  27 -4
  28 -1
  29 -39
  30 -6
  31 -1
  32 -262
  33 -59
  34 -199
  35 -15
  36 -68
  37 -1
  38 -1
  39 -3
  40 -860
  41 -49
  42 -12
  43 -193
  44 -1
  45 -3
  46 -236
  47 -111
  48 -66
  49 -128
  50 -172
  51 -1
  52 -10
  53 -11
  54 -83
  55 -65
  56 -422
  57 -1
  58 -29
  59 -1
  60 -173
  61 -41
  62 -9
  63 -105
  64 -3
  65 -57
  66 -324
  67 -199
  68 -44
  69 -145
  70 -13
  71 -165
  72 -48
  73 -385
  74 -35
  75 -95
  76 -1
  77 -58
  78 -84
  79 -17
  80 -136
  81 -1
  82 -104
  83 -1
  84 -50
  85 -47
  86 -11
  87 -13
  88 -61
  89 -1
  90 -240
  91 -3
  92 -1
  93 -26
  94 -72
  95 -1
  96 -170
  97 -132
  98 -6
  99 -86
  100 -106
LOCATION_COORD_SECTION
  0 0 0
  1 -35 -51
  2 63 74
  3 48 -73
  4 68 -73
  5 95 32
  6 -83 -95
  7 -83 52
  8 44 26
  9 -30 -58
  10 66 79
  11 -38 -31
  12 40 -46
  13 16 48
  14 -11 -98
  15 -39 49
  16 45 37
  17 -6 -58
  18 64 69
  19 -54 29
  20 52 -40
  21 99 36
  22 -88 -92
  23 20 41
  24 89 45
  25 19 -70
  26 68 73
  27 -60 28
  28 -92 -43
  29 98 35
  30 59 -97
  31 29 36
  32 30 32
  33 79 -57
  34 59 -28
  35 23 30
  36 48 -49
  37 -12 -29
  38 -91 -91
  39 -71 49
  40 59 83
  41 -39 -86
  42 -42 79
  43 29 -63
  44 46 -49
  45 97 -40
  46 -59 -85
  47 -74 40
  48 47 29
  49 18 -70
  50 61 72
  51 21 36
  52 48 -44
  53 -9 38
  54 -83 -82
  55 -83 41
  56 53 32
  57 -44 -97
  58 58 67
  59 26 24
  60 48 -45
  61 -84 49
  62 -90 10
  63 -77 46
  64 48 32
  65 -51 -63
  66 68 0
  67 97 -26
  68 53 -49
  69 94 49
  70 -90 -88
  71 -16 42
  72 -82 28
  73 -40 91
  74 -85 66
  75 -73 26
  76 54 -50
  77 -72 31
  78 56 -79
  79 -80 43
  80 40 17
  81 -23 -47
  82 67 79
  83 27 23
  84 44 -44
  85 93 41
  86 -85 -84
  87 -78 39
  88 -41 36
  89 -60 -68
  90 65 61
  91 35 23
  92 91 43
  93 -18 24
  94 -5 -100
  95 -83 45
  96 42 34
  97 -42 -53
  98 57 79
  99 26 33
  100 57 -46
DEPOT_LOCATION_SECTION
  0 0
VISIT_LOCATION_SECTION
  1 1
  2 2
  3 3
  4 4
  5 5
  6 6
  7 7
  8 8
  9 9
  10 10
  11 11
  12 12
  13 13
  14 14
  15 15
  16 16
  17 17
  18 18
  19 19
  20 20
  21 21
  22 22
  23 23
  24 24
  25 25
  26 26
  27 27
  28 28
  29 29
  30 30
  31 31
  32 32
  33 33
  34 34
  35 35
  36 36
  37 37
  38 38
  39 39
  40 40
  41 41
  42 42
  43 43
  44 44
  45 45
  46 46
  47 47
  48 48
  49 49
  50 50
  51 51
  52 52
  53 53
  54 54
  55 55
  56 56
  57 57
  58 58
  59 59
  60 60
  61 61
  62 62
  63 63
  64 64
  65 65
  66 66
  67 67
  68 68
  69 69
  70 70
  71 71
  72 72
  73 73
  74 74
  75 75
  76 76
  77 77
  78 78
  79 79
  80 80
  81 81
  82 82
  83 83
  84 84
  85 85
  86 86
  87 87
  88 88
  89 89
  90 90
  91 91
  92 92
  93 93
  94 94
  95 95
  96 96
  97 97
  98 98
  99 99
  100 100
DURATION_SECTION
  1 10
  2 10
  3 10
  4 10
  5 10
  6 10
  7 10
  8 10
  9 10
  10 10
  11 10
  12 10
  13 10
  14 10
  15 10
  16 10
  17 10
  18 10
  19 10
  20 10
  21 10
  22 10
  23 10
  24 10
  25 10
  26 10
  27 10
  28 10
  29 10
  30 10
  31 10
  32 10
  33 10
  34 10
  35 10
  36 10
  37 10
  38 10
  39 10
  40 10
  41 10
  42 10
  43 10
  44 10
  45 10
  46 10
  47 10
  48 10
  49 10
  50 10
  51 10
  52 10
  53 10
  54 10
  55 10
  56 10
  57 10
  58 10
  59 10
  60 10
  61 10
  62 10
  63 10
  64 10
  65 10
  66 10
  67 10
  68 10
  69 10
  70 10
  71 10
  72 10
  73 10
  74 10
  75 10
  76 10
  77 10
  78 10
  79 10
  80 10
  81 10
  82 10
  83 10
  84 10
  85 10
  86 10
  87 10
  88 10
  89 10
  90 10
  91 10
  92 10
  93 10
  94 10
  95 10
  96 10
  97 10
  98 10
  99 10
  100 10
DEPOT_TIME_WINDOW_SECTION
  0 0 929
COMMENT: TIMESTEP: 7
TIME_AVAIL_SECTION
  1 884
  2 8
  3 350
  4 114
  5 794
  6 728
  7 888
  8 593
  9 407
  10 184
  11 634
  12 815
  13 103
  14 256
  15 923
  16 318
  17 396
  18 331
  19 882
  20 73
  21 157
  22 255
  23 144
  24 866
  25 2
  26 749
  27 739
  28 231
  29 277
  30 651
  31 323
  32 856
  33 83
  34 236
  35 115
  36 345
  37 790
  38 206
  39 674
  40 5
  41 362
  42 27
  43 699
  44 291
  45 641
  46 890
  47 691
  48 583
  49 751
  50 794
  51 735
  52 841
  53 741
  54 833
  55 24
  56 509
  57 760
  58 550
  59 459
  60 328
  61 800
  62 460
  63 354
  64 561
  65 848
  66 289
  67 800
  68 522
  69 11
  70 242
  71 14
  72 311
  73 213
  74 342
  75 776
  76 819
  77 185
  78 388
  79 693
  80 840
  81 241
  82 69
  83 448
  84 215
  85 377
  86 155
  87 156
  88 95
  89 726
  90 649
  91 170
  92 927
  93 122
  94 141
  95 910
  96 900
  97 223
  98 486
  99 507
  100 348
EOF