VRPTEST okul_100e_moreskewed_pseudoclustered_D.vrp
COMMENT: 
COMMENT: Best known objective: 2147483647
NAME: okul_100e_moreskewed_pseudoclustered_D.vrp
NUM_DEPOTS: 1
NUM_CAPACITIES: 1
NUM_VISITS: 100
NUM_LOCATIONS: 101
NUM_VEHICLES: 50
CAPACITIES: 1000
DATA_SECTION
DEPOTS
  0
DEMAND_SECTION
  1 -13
  2 -202
  3 -24
  4 -28
  5 -113
  6 -112
  7 -26
  8 -187
  9 -1
  10 -39
  11 -115
  12 -43
  13 -56
  14 -6
  15 -4
  16 -407
  17 -262
  18 -9
  19 -5
  20 -75
  21 -47
  22 -104
  23 -2
  24 -41
  25 -214
  26 -79
  27 -77
  28 -136
  29 -220
  30 -79
  31 -107
  32 -73
  33 -6
  34 -31
  35 -61
  36 -57
  37 -121
  38 -105
  39 -1
  40 -15
  41 -20
  42 -8
  43 -8
  44 -6
  45 -123
  46 -1
  47 -28
  48 -62
  49 -7
  50 -38
  51 -1
  52 -6
  53 -18
  54 -367
  55 -12
  56 -1
  57 -120
  58 -18
  59 -22
  60 -8
  61 -194
  62 -42
  63 -108
  64 -36
  65 -344
  66 -160
  67 -125
  68 -58
  69 -22
  70 -7
  71 -1
  72 -205
  73 -456
  74 -28
  75 -8
  76 -73
  77 -10
  78 -259
  79 -1
  80 -180
  81 -1
  82 -135
  83 -114
  84 -76
  85 -36
  86 -49
  87 -10
  88 -12
  89 -1
  90 -31
  91 -72
  92 -3
  93 -17
  94 -85
  95 -312
  96 -21
  97 -2
  98 -3
  99 -26
  100 -7
LOCATION_COORD_SECTION
  0 0 0
  1 48 74
  2 14 -17
  3 -16 42
  4 68 53
  5 65 -17
  6 -12 44
  7 54 26
  8 -29 -50
  9 32 75
  10 21 -16
  11 -29 40
  12 70 51
  13 67 -23
  14 -32 36
  15 65 24
  16 -24 -42
  17 36 78
  18 27 -16
  19 -27 32
  20 60 44
  21 62 -28
  22 -19 34
  23 62 25
  24 -32 -41
  25 38 76
  26 13 -15
  27 -31 30
  28 68 43
  29 82 -25
  30 -20 29
  31 64 26
  32 -30 -41
  33 42 69
  34 27 -11
  35 -29 38
  36 61 47
  37 66 -21
  38 -11 29
  39 72 30
  40 -32 -47
  41 35 76
  42 17 -12
  43 -37 37
  44 63 47
  45 76 -25
  46 -18 25
  47 80 32
  48 -31 -51
  49 38 77
  50 31 -11
  51 -21 40
  52 63 48
  53 69 -23
  54 -14 24
  55 57 36
  56 -28 -40
  57 37 72
  58 24 -13
  59 -24 43
  60 63 41
  61 75 -20
  62 -19 25
  63 67 16
  64 -32 -49
  65 29 66
  66 34 -23
  67 -29 34
  68 67 40
  69 76 -26
  70 -23 23
  71 66 23
  72 -35 -40
  73 36 67
  74 20 -20
  75 -28 31
  76 71 44
  77 86 -34
  78 -15 14
  79 66 32
  80 -45 -52
  81 36 69
  82 23 -23
  83 -25 34
  84 53 38
  85 68 -20
  86 -25 13
  87 67 17
  88 -31 -51
  89 40 66
  90 22 -19
  91 -34 25
  92 66 49
  93 69 -28
  94 -25 31
  95 64 20
  96 -33 -48
  97 37 77
  98 18 -8
  99 -28 35
  100 74 49
DEPOT_LOCATION_SECTION
  0 0
VISIT_LOCATION_SECTION
  1 1
  2 2
  3 3
  4 4
  5 5
  6 6
  7 7
  8 8
  9 9
  10 10
  11 11
  12 12
  13 13
  14 14
  15 15
  16 16
  17 17
  18 18
  19 19
  20 20
  21 21
  22 22
  23 23
  24 24
  25 25
  26 26
  27 27
  28 28
  29 29
  30 30
  31 31
  32 32
  33 33
  34 34
  35 35
  36 36
  37 37
  38 38
  39 39
  40 40
  41 41
  42 42
  43 43
  44 44
  45 45
  46 46
  47 47
  48 48
  49 49
  50 50
  51 51
  52 52
  53 53
  54 54
  55 55
  56 56
  57 57
  58 58
  59 59
  60 60
  61 61
  62 62
  63 63
  64 64
  65 65
  66 66
  67 67
  68 68
  69 69
  70 70
  71 71
  72 72
  73 73
  74 74
  75 75
  76 76
  77 77
  78 78
  79 79
  80 80
  81 81
  82 82
  83 83
  84 84
  85 85
  86 86
  87 87
  88 88
  89 89
  90 90
  91 91
  92 92
  93 93
  94 94
  95 95
  96 96
  97 97
  98 98
  99 99
  100 100
DURATION_SECTION
  1 10
  2 10
  3 10
  4 10
  5 10
  6 10
  7 10
  8 10
  9 10
  10 10
  11 10
  12 10
  13 10
  14 10
  15 10
  16 10
  17 10
  18 10
  19 10
  20 10
  21 10
  22 10
  23 10
  24 10
  25 10
  26 10
  27 10
  28 10
  29 10
  30 10
  31 10
  32 10
  33 10
  34 10
  35 10
  36 10
  37 10
  38 10
  39 10
  40 10
  41 10
  42 10
  43 10
  44 10
  45 10
  46 10
  47 10
  48 10
  49 10
  50 10
  51 10
  52 10
  53 10
  54 10
  55 10
  56 10
  57 10
  58 10
  59 10
  60 10
  61 10
  62 10
  63 10
  64 10
  65 10
  66 10
  67 10
  68 10
  69 10
  70 10
  71 10
  72 10
  73 10
  74 10
  75 10
  76 10
  77 10
  78 10
  79 10
  80 10
  81 10
  82 10
  83 10
  84 10
  85 10
  86 10
  87 10
  88 10
  89 10
  90 10
  91 10
  92 10
  93 10
  94 10
  95 10
  96 10
  97 10
  98 10
  99 10
  100 10
DEPOT_TIME_WINDOW_SECTION
  0 0 929
COMMENT: TIMESTEP: 7
TIME_AVAIL_SECTION
  1 545
  2 709
  3 311
  4 450
  5 384
  6 257
  7 264
  8 498
  9 317
  10 141
  11 76
  12 878
  13 762
  14 647
  15 328
  16 45
  17 904
  18 901
  19 195
  20 261
  21 672
  22 319
  23 394
  24 403
  25 447
  26 38
  27 242
  28 789
  29 901
  30 581
  31 522
  32 42
  33 331
  34 337
  35 646
  36 665
  37 886
  38 492
  39 758
  40 600
  41 98
  42 129
  43 646
  44 437
  45 249
  46 757
  47 179
  48 878
  49 733
  50 840
  51 393
  52 883
  53 619
  54 785
  55 297
  56 403
  57 830
  58 479
  59 636
  60 282
  61 912
  62 517
  63 271
  64 163
  65 377
  66 380
  67 585
  68 96
  69 464
  70 10
  71 162
  72 802
  73 737
  74 613
  75 137
  76 132
  77 763
  78 136
  79 215
  80 360
  81 255
  82 284
  83 440
  84 338
  85 442
  86 773
  87 308
  88 838
  89 560
  90 675
  91 369
  92 546
  93 739
  94 705
  95 703
  96 749
  97 204
  98 224
  99 504
  100 855
EOF