tai150cD.vrp	2512,01	1,025	2021
VehicleId	ClientId	X	Y	StartTime	EndTime	ArriveTime	Need	
150	0	0	0	0	1081	486,450	0	
150	87	-25	-1	0	0	511,4699920063936	4	
150	98	-29	0	0	0	538,59309763201126	3	
150	97	-29	0	0	0	561,59309763201126	783	
150	65	-97	-27	454	0	657,75729652737266	6	
150	66	-102	-58	466	0	712,15793346358786	718	
150	67	-88	-43	490	0	755,67621799227106	52	
150	64	-84	-43	446	0	782,67621799227106	13	
150	150	-29	-46	0	0	860,75797540795266	5	
150	147	-26	-46	0	0	917,825	408	
150	144	-29	-39	0	0	948,44077310586391	11	
151	0	0	0	0	1081	567,525	0	
151	91	-21	1	0	0	588,5487960416286	21	
151	93	-26	3	0	0	616,9339608487631	44	
151	86	-27	5	0	0	642,17002882626289	445	
151	44	-29	13	306	0	673,41624007749821	815	
151	37	-30	18	239	0	701,51525959109099	225	
151	49	-31	20	328	0	726,75132756859078	68	
151	42	-27	17	282	0	892,800	54	
151	39	-19	15	249	0	924,04621125123532	262	
151	40	-13	13	267	0	953,37076657157208	4	
151	3	-1	6	8	0	990,26321056102188	74	
152	0	0	0	0	1081	243,225	0	
152	13	-3	1	95	0	246,38727766016838	4	
152	92	-22	3	0	0	288,49225083471118	12	
152	95	-22	5	0	0	313,49225083471118	4	
152	89	-25	4	0	0	339,65452849487956	327	
152	90	-30	4	0	0	406,350	92	
152	85	-30	3	0	0	430,350	15	
152	88	-31	2	0	0	454,7642135623731	593	
152	53	-32	4	350	0	480,00028153987289	34	
152	96	-30	9	0	0	508,38544634700739	14	
152	43	-33	10	296	0	534,54772400717577	518	
152	52	-17	16	350	0	574,63573149781087	16	
152	41	-11	17	270	0	974,95776253029822	391	
153	0	0	0	0	1081	648,600	0	
153	10	3	-4	81	0	653,600	56	
153	71	4	-4	531	0	677,600	48	
153	12	4	-4	93	0	700,600	23	
153	74	4	-8	0	0	727,600	8	
153	70	-1	-13	503	0	757,67106781186548	398	
153	68	0	-14	496	0	782,08528137423858	11	
153	73	3	-15	537	0	808,24755903440696	3	
153	69	10	-16	497	0	838,31862684627244	93	
153	72	10	-5	533	0	872,31862684627244	37	
153	76	10	-3	0	0	897,31862684627244	1086	
153	77	9	-4	0	0	921,73284040864554	3	
153	5	6	-3	26	0	947,89511806881392	175	
154	0	0	0	0	1081	918,850	0	
154	6	-5	-1	34	0	923,94901951359278	183	
154	1	-1	-4	4	0	951,94901951359278	1066	
154	11	-1	-4	81	0	974,94901951359278	29	
154	8	0	-2	49	0	1000,18508749109257	4	
155	0	0	0	0	1081	783,725	0	
155	14	-1	3	105	0	786,88727766016838	9	
155	36	-14	5	233	0	823,04022409813428	4	
155	48	-24	8	328	0	856,48053060704488	588	
155	50	-27	9	330	0	882,64280826721326	480	
155	94	-27	6	0	0	917,825	773	
155	7	-2	0	37	0	966,5349202643649	124	
155	0	0	0	0	1081	991,5349202643649	0	
155	4	3	0	20	0	994,5349202643649	687	
155	2	3	0	6	0	1017,5349202643649	841	
156	0	0	0	0	1081	189,175	0	
156	26	-13	111	155	0	300,933668567588	11	
156	34	-13	114	227	0	326,933668567588	11	
156	24	-13	114	149	0	349,933668567588	58	
156	17	-14	115	111	0	374,3478821299611	54	
156	28	-13	117	163	0	565,73606797749979	159	
156	35	-15	117	231	0	590,73606797749979	45	
156	31	-15	115	191	0	615,73606797749979	10	
156	25	-25	116	155	0	648,78594359862069	15	
156	29	-28	115	169	0	674,94822125878907	285	
156	20	-28	114	125	0	698,94822125878907	637	
156	27	-24	108	157	0	729,15932380971705	185	
156	140	0	68	0	0	798,80693896847945	3	
156	139	2	67	0	0	824,04300694597924	161	
156	45	-13	25	308	0	891,64121318793474	25	
156	47	-18	26	326	0	919,74023270152752	18	
156	38	-20	23	243	0	946,34578397699151	286	
156	46	-16	19	320	0	975,00263822648389	29	
162	0	0	0	0	1081	540,500	0	
162	116	105	19	0	0	647,205201372754	8	
162	125	120	25	0	0	686,3606957941575	260	
162	118	125	22	0	0	715,1916476890028	96	
162	124	134	18	0	0	748,0405054907989	187	
162	120	129	14	0	0	777,44362972823175	630	
162	123	126	15	0	0	803,60590738840013	645	
162	121	121	11	0	0	833,00903162583298	4	
162	122	115	14	0	0	862,71723555833235	115	
162	119	115	9	0	0	890,71723555833235	6	
163	0	0	0	0	1081	243,225	0	
163	117	109	35	0	0	357,706439543709	164	
163	129	26	76	0	0	547,9742944882649	4	
163	127	24	77	0	0	573,21036246576469	9	
163	133	21	77	0	0	599,21036246576469	25	
163	128	22	69	0	0	630,27262021406324	9	
163	134	20	66	0	0	656,87817148952723	104	
163	135	10	73	0	0	692,08472710526093	7	
163	131	12	67	0	0	721,40928242559769	167	
163	136	9	65	0	0	748,01483370106168	48	
163	126	14	62	0	0	776,84578559590698	5	
163	132	24	60	0	0	810,04382462309258	1026	
163	130	28	59	0	0	837,16693024871024	17	
163	112	30	34	0	0	885,24680265667914	17	
163	114	35	26	0	0	917,68078378873574	6	
163	113	29	28	0	0	947,00533910907250	222	
163	115	24	24	0	0	976,40846334650535	4	
163	109	11	7	0	0	1020,80939790553805	20	
164	0	0	0	0	1081	459,425	0	
164	142	-7	57	0	0	516,8532160614449	4	
164	141	-8	63	0	0	545,93597859174312	12	
164	32	-24	104	197	0	612,94734076107392	3	
164	33	-26	104	227	0	673,600	4	
164	30	-27	105	181	0	698,0142135623731	4	
164	22	-27	107	143	0	723,0142135623731	140	
164	21	-26	108	135	0	747,4284271247462	59	
164	19	-19	107	119	0	777,49949493661168	822	
164	16	-19	109	109	0	802,49949493661168	181	
164	23	-17	109	145	0	827,49949493661168	531	
164	138	1	61	0	0	901,76351740851688	30	
164	143	4	59	0	0	928,36906868398087	55	
164	137	4	57	0	0	953,36906868398087	153	
165	0	0	0	0	1081	621,575	0	
165	75	13	-7	0	0	636,3398230602334	406	
165	108	14	-2	0	0	664,43884257382618	56	
165	103	12	-1	0	0	689,67491055132597	8	
165	105	14	0	0	0	714,91097852882576	496	
165	101	15	0	0	0	738,91097852882576	64	
165	99	19	1	0	0	766,03408415444342	500	
165	102	19	1	0	0	789,03408415444342	90	
165	111	19	7	0	0	818,03408415444342	5	
165	110	14	4	0	0	846,86503604928872	338	
165	0	0	0	0	1081	884,42525582784972	0	
165	107	7	7	0	0	894,32475076446138	325	
165	100	8	6	0	0	918,73896432683448	390	
165	106	11	6	0	0	944,73896432683448	19	
165	104	12	6	0	0	968,73896432683448	931	
165	15	6	2	105	0	998,95006687776246	7	
165	9	4	1	56	0	1024,18613485526225	81	
166	0	0	0	0	1081	243,225	0	
166	18	-21	111	111	0	356,194022302576	884	
166	81	-102	61	0	0	604,6392851112981	686	
166	84	-107	57	0	0	759,07812423743285	4	
166	79	-105	53	0	0	786,55026019243243	88	
166	80	-98	51	0	0	816,83037008171295	28	
166	83	-97	51	0	0	840,83037008171295	101	
166	82	-93	56	0	0	870,23349431914580	25	
166	78	-88	50	0	0	901,04374399505245	52	
166	54	-31	22	350	0	987,54964923228215	5	
166	51	-20	14	340	0	1024,15111974101755	5	
172	0	0	0	0	1081	432,400	0	
172	55	2	-108	364	0	540,418516931126	9	
172	56	1	-122	370	0	577,4541857787442	22	
172	61	2	-127	400	0	605,55320529233698	676	
172	58	-1	-132	388	0	634,38415718718228	152	
172	57	-10	-125	386	0	710,0267542509914	120	
172	60	-16	-126	400	0	739,10951678128962	44	
172	62	-14	-122	406	0	766,58165273628920	17	
172	63	-11	-113	440	0	799,06848571679434	764	
172	59	-13	-111	396	0	824,89691284154053	21	
172	148	-22	-48	0	0	911,53652314832983	49	
172	146	-19	-47	0	0	937,69880080849821	14	
172	145	-23	-43	0	0	966,35565505799059	3	
172	149	-21	-37	0	0	995,68021037832735	4	
