tai75bD.vrp	1396,42	1,025	1679
VehicleId	ClientId	X	Y	StartTime	EndTime	ArriveTime	Need	
75	0	0	0	0	905	701,375	0	
75	43	-36	2	0	0	737,4305127546399	518	
75	50	-26	0	0	0	773,6285517818255	480	
75	48	-20	-2	0	0	805,95310710216226	588	
76	0	0	0	0	905	769,250	0	
76	7	-3	0	71	0	772,250	124	
76	1	-2	-5	8	0	803,34901951359278	1066	
76	8	0	-3	96	0	832,17744663833897	4	
77	0	0	0	0	905	610,875	0	
77	71	0	3	0	0	613,875	48	
77	9	4	1	98	0	644,34713595499958	81	
77	15	7	2	153	0	673,50941361516796	7	
77	72	10	2	0	0	702,50941361516796	37	
77	75	15	-2	0	0	734,91253785260081	406	
77	5	7	-3	64	0	768,97479560089936	175	
77	2	3	-1	39	0	799,44693155589894	841	
77	0	0	0	0	905	828,60920921606732	0	
77	4	3	0	61	0	831,60920921606732	687	
80	0	0	0	0	905	135,750	0	
80	11	-2	-4	108	0	140,22213595499958	29	
80	70	-7	-11	0	0	174,82446122204221	398	
80	68	-6	-12	0	0	202,23867478441531	11	
80	73	-1	-15	0	0	234,06962667926061	3	
80	62	-19	-96	0	0	343,04552679489661	17	
80	60	-23	-102	0	0	440,46110255092798	44	
80	57	-12	-101	0	0	477,50646356811528	120	
80	58	6	-113	0	0	525,13977122089918	152	
80	61	11	-104	0	0	561,43540136188618	676	
80	56	8	-95	0	0	596,92223434239132	22	
80	55	10	-70	0	0	648,00210675036022	9	
80	69	10	-16	0	0	728,00210675036022	93	
80	12	5	-5	111	0	766,08515272395482	23	
80	10	4	-5	105	0	793,08515272395482	56	
80	74	1	-3	0	0	822,69070399941881	8	
82	0	0	0	0	905	543,000	0	
82	13	-4	1	123	0	547,12310562561766	4	
82	44	-29	7	0	0	598,83302588998256	815	
82	37	-30	15	374	0	632,89528363828111	225	
82	49	-33	20	0	0	664,72623553312641	68	
82	54	-33	23	0	0	693,72623553312641	5	
82	42	-26	15	448	0	730,35638134586101	54	
82	39	-12	11	415	0	770,91660112442201	262	
82	51	-13	9	0	0	799,15266910192180	5	
82	6	-5	-1	68	0	837,95891757678750	183	
86	0	0	0	0	905	362,000	0	
86	53	-35	-8	0	0	397,9026461420325	34	
86	65	-78	-2	0	0	467,3192328342173	6	
86	64	-53	-32	0	0	532,3704812137506	13	
86	67	-60	-32	0	0	565,3704812137506	52	
86	66	-87	-61	0	0	630,9937067260685	718	
86	59	-17	-76	0	0	728,5828120424503	21	
86	63	-13	-79	0	0	759,5828120424503	764	
86	36	-3	-8	356	0	857,2835791234237	4	
87	0	0	0	0	905	316,750	0	
87	26	-5	82	269	0	398,9022975941635	11	
87	24	-5	88	231	0	430,9022975941635	58	
87	34	-5	87	320	0	457,9022975941635	11	
87	17	-6	88	156	0	485,3165111565366	54	
87	28	-6	91	286	0	514,3165111565366	159	
87	35	-8	91	323	0	542,3165111565366	45	
87	31	-8	88	305	0	662,500	10	
87	18	-16	83	164	0	697,9339811320566	884	
87	41	2	14	441	0	795,2431670760849	391	
87	40	-1	7	418	0	828,85894018194881	4	
88	0	0	0	0	905	294,125	0	
88	45	-1	28	0	0	322,1428514522438	25	
88	23	-11	80	231	0	401,0956606317387	531	
88	16	-13	80	154	0	638,875	181	
88	19	-14	77	174	0	668,03727766016838	822	
88	52	-8	12	0	0	759,31361334163878	16	
88	3	-2	7	59	0	825,68524967590665	74	
90	0	0	0	0	905	339,375	0	
90	47	-10	31	0	0	371,9479949498047	18	
90	32	-21	74	306	0	442,3326769921490	3	
90	27	-20	80	278	0	474,41543952244722	185	
90	25	-21	90	233	0	510,46531514356812	15	
90	29	-25	89	288	0	540,58842076918578	285	
90	20	-26	88	205	0	593,0392135623731	637	
90	21	-24	79	218	0	628,25875801966599	59	
90	22	-25	78	229	0	655,67297158203909	140	
90	30	-25	74	298	0	685,67297158203909	4	
90	33	-23	74	313	0	713,67297158203909	4	
90	38	-14	24	411	0	790,47651476556129	286	
90	46	-7	17	0	0	826,37600970217295	29	
90	14	-2	3	126	0	867,24207844949145	9	
